MEM_WB_Register_tb_result.vcd
$date
	Sat Jan 03 01:28:26 2026
$end
$version
	Icarus Verilog
$end
$timescale
	1ps
$end
$scope module MEM_WB_Register_tb $end
$var wire 5 ! WB_rs1 [4:0] $end
$var wire 1 " WB_register_write_enable $end
$var wire 3 # WB_register_file_write_data_select [2:0] $end
$var wire 5 $ WB_rd [4:0] $end
$var wire 20 % WB_raw_imm [19:0] $end
$var wire 64 & WB_pc_plus_4 [63:0] $end
$var wire 64 ' WB_pc [63:0] $end
$var wire 7 ( WB_opcode [6:0] $end
$var wire 32 ) WB_instruction [31:0] $end
$var wire 64 * WB_imm [63:0] $end
$var wire 1 + WB_csr_write_enable $end
$var wire 64 , WB_csr_read_data [63:0] $end
$var wire 64 - WB_byte_enable_logic_register_file_write_data [63:0] $end
$var wire 64 . WB_alu_result [63:0] $end
$var parameter 32 / XLEN $end
$var reg 1 0 MEM_WB_stall $end
$var reg 64 1 MEM_alu_result [63:0] $end
$var reg 64 2 MEM_byte_enable_logic_register_file_write_data [63:0] $end
$var reg 64 3 MEM_csr_read_data [63:0] $end
$var reg 1 4 MEM_csr_write_enable $end
$var reg 64 5 MEM_imm [63:0] $end
$var reg 32 6 MEM_instruction [31:0] $end
$var reg 7 7 MEM_opcode [6:0] $end
$var reg 64 8 MEM_pc [63:0] $end
$var reg 64 9 MEM_pc_plus_4 [63:0] $end
$var reg 20 : MEM_raw_imm [19:0] $end
$var reg 5 ; MEM_rd [4:0] $end
$var reg 3 < MEM_register_file_write_data_select [2:0] $end
$var reg 1 = MEM_register_write_enable $end
$var reg 5 > MEM_rs1 [4:0] $end
$var reg 1 ? clk $end
$var reg 1 @ flush $end
$var reg 1 A reset $end
$var integer 32 B fail_count [31:0] $end
$var integer 32 C pass_count [31:0] $end
$var integer 32 D test_count [31:0] $end
$scope module uut $end
$var wire 1 0 MEM_WB_stall $end
$var wire 64 E MEM_alu_result [63:0] $end
$var wire 64 F MEM_byte_enable_logic_register_file_write_data [63:0] $end
$var wire 64 G MEM_csr_read_data [63:0] $end
$var wire 1 4 MEM_csr_write_enable $end
$var wire 64 H MEM_imm [63:0] $end
$var wire 32 I MEM_instruction [31:0] $end
$var wire 7 J MEM_opcode [6:0] $end
$var wire 64 K MEM_pc [63:0] $end
$var wire 64 L MEM_pc_plus_4 [63:0] $end
$var wire 20 M MEM_raw_imm [19:0] $end
$var wire 5 N MEM_rd [4:0] $end
$var wire 3 O MEM_register_file_write_data_select [2:0] $end
$var wire 1 = MEM_register_write_enable $end
$var wire 5 P MEM_rs1 [4:0] $end
$var wire 1 ? clk $end
$var wire 1 @ flush $end
$var wire 1 A reset $end
$var parameter 32 Q XLEN $end
$var reg 64 R WB_alu_result [63:0] $end
$var reg 64 S WB_byte_enable_logic_register_file_write_data [63:0] $end
$var reg 64 T WB_csr_read_data [63:0] $end
$var reg 1 + WB_csr_write_enable $end
$var reg 64 U WB_imm [63:0] $end
$var reg 32 V WB_instruction [31:0] $end
$var reg 7 W WB_opcode [6:0] $end
$var reg 64 X WB_pc [63:0] $end
$var reg 64 Y WB_pc_plus_4 [63:0] $end
$var reg 20 Z WB_raw_imm [19:0] $end
$var reg 5 [ WB_rd [4:0] $end
$var reg 3 \ WB_register_file_write_data_select [2:0] $end
$var reg 1 " WB_register_write_enable $end
$var reg 5 ] WB_rs1 [4:0] $end
$upscope $end
$scope task check_signal $end
$var reg 64 ^ actual [63:0] $end
$var reg 64 _ expected [63:0] $end
$var reg 256 ` signal_name [255:0] $end
$upscope $end
$scope task check_signal_bit $end
$var reg 1 a actual $end
$var reg 1 b expected $end
$var reg 256 c signal_name [255:0] $end
$upscope $end
$scope task check_signal_small $end
$var reg 32 d actual [31:0] $end
$var reg 32 e expected [31:0] $end
$var reg 256 f signal_name [255:0] $end
$upscope $end
$scope task set_mem_inputs $end
$var reg 64 g alu_result_val [63:0] $end
$var reg 64 h bel_rf_wd_val [63:0] $end
$var reg 64 i csr_read_data_val [63:0] $end
$var reg 1 j csr_write_en_val $end
$var reg 64 k imm_val [63:0] $end
$var reg 32 l instruction_val [31:0] $end
$var reg 7 m opcode_val [6:0] $end
$var reg 64 n pc_plus_4_val [63:0] $end
$var reg 64 o pc_val [63:0] $end
$var reg 20 p raw_imm_val [19:0] $end
$var reg 5 q rd_val [4:0] $end
$var reg 1 r reg_write_en_val $end
$var reg 3 s rf_wd_select_val [2:0] $end
$var reg 5 t rs1_val [4:0] $end
$upscope $end
$upscope $end
$enddefinitions $end
$comment Show the parameter values. $end
$dumpall
b1000000 Q
b1000000 /
$end
#0
$dumpvars
b0 t
b0 s
0r
b0 q
b0 p
b0 o
b0 n
b0 m
b10011 l
b0 k
0j
b0 i
b0 h
b0 g
bx f
bx e
bx d
bx c
xb
xa
bx `
bx _
bx ^
b0 ]
b0 \
b0 [
b0 Z
b0 Y
b0 X
b0 W
b10011 V
b0 U
b0 T
b0 S
b0 R
b0 P
b0 O
b0 N
b0 M
b0 L
b0 K
b0 J
b10011 I
b0 H
b0 G
b0 F
b0 E
b0 D
b0 C
b0 B
1A
0@
0?
b0 >
0=
b0 <
b0 ;
b0 :
b0 9
b0 8
b0 7
b10011 6
b0 5
04
b0 3
b0 2
b0 1
00
b0 .
b0 -
b0 ,
0+
b0 *
b10011 )
b0 (
b0 '
b0 &
b0 %
b0 $
b0 #
0"
b0 !
$end
#5000
1?
#6000
0A
0a
0b
b1010111010000100101111101100011011100110111001001011111011101110111001001101001011101000110010101011111011001010110111001100001011000100110110001100101 c
b0 d
b0 e
b10101110100001001011111011011110111000001100011011011110110010001100101 f
b1110 C
b1110 D
b0 ^
b0 _
b110010101011111011011000110111101100111011010010110001101011111011100100110010101100111011010010111001101110100011001010111001001011111011001100110100101101100011001010101111101110111011100100110100101110100011001010101111101100100011000010111010001100001 `
#10000
b11011110101011011011111011101111 2
b11011110101011011011111011101111 F
b110011 7
b110011 J
b1010 ;
b1010 N
b101 >
b101 P
1=
b1011 1
b1011 E
b11001010111111101011101010111110 3
b11001010111111101011101010111110 G
b100000 5
b100000 H
b10 <
b10 O
b11000101000010100110011 6
b11000101000010100110011 I
b100000100 9
b100000100 L
b100000000 8
b100000000 K
b11011110101011011011111011101111 h
b110011 m
b1010 q
b101 t
1r
b1011 g
b11001010111111101011101010111110 i
b100000 k
b10 s
b11000101000010100110011 l
b100000100 n
b100000000 o
0?
#15000
b11011110101011011011111011101111 -
b11011110101011011011111011101111 S
b110011 (
b110011 W
b1010 $
b1010 [
b101 !
b101 ]
1"
b1011 .
b1011 R
b11001010111111101011101010111110 ,
b11001010111111101011101010111110 T
b100000 *
b100000 U
b10 #
b10 \
b11000101000010100110011 )
b11000101000010100110011 V
b100000100 &
b100000100 Y
b100000000 '
b100000000 X
1?
#16000
0a
0b
b1010111010000100101111101100011011100110111001001011111011101110111001001101001011101000110010101011111011001010110111001100001011000100110110001100101 c
b110011 d
b110011 e
b10101110100001001011111011011110111000001100011011011110110010001100101 f
b11100 C
b11100 D
b11011110101011011011111011101111 ^
b11011110101011011011111011101111 _
b110010101011111011011000110111101100111011010010110001101011111011100100110010101100111011010010111001101110100011001010111001001011111011001100110100101101100011001010101111101110111011100100110100101110100011001010101111101100100011000010111010001100001 `
#20000
b1111111111111111111111111111111111111111111111111111111111111111 2
b1111111111111111111111111111111111111111111111111111111111111111 F
b1111111 7
b1111111 J
b11111 ;
b11111 N
b11111 >
b11111 P
14
0=
b1111111111111111111111111111111111111111111111111111111111111111 1
b1111111111111111111111111111111111111111111111111111111111111111 E
b1111111111111111111111111111111111111111111111111111111111111111 3
b1111111111111111111111111111111111111111111111111111111111111111 G
b11111111111111111111 :
b11111111111111111111 M
b1111111111111111111111111111111111111111111111111111111111111111 5
b1111111111111111111111111111111111111111111111111111111111111111 H
b1 <
b1 O
b11111111111111111111111111111111 6
b11111111111111111111111111111111 I
b1000000100 9
b1000000100 L
b1000000000 8
b1000000000 K
b1111111111111111111111111111111111111111111111111111111111111111 h
b1111111 m
b11111 q
b11111 t
1j
0r
b1111111111111111111111111111111111111111111111111111111111111111 g
b1111111111111111111111111111111111111111111111111111111111111111 i
b11111111111111111111 p
b1111111111111111111111111111111111111111111111111111111111111111 k
b1 s
b11111111111111111111111111111111 l
b1000000100 n
b1000000000 o
10
0?
#25000
1?
#26000
00
1a
1b
b101111101110010011001010110011101101001011100110111010001100101011100100101111101110111011100100110100101110100011001010101111101100101011011100110000101100010011011000110010100100000001010000111001101110100011000010110110001101100011001010110010000101001 c
b1010 d
b1010 e
b10101110100001001011111011100100110010000100000001010000111001101110100011000010110110001101100011001010110010000101001 f
b100010 C
b100010 D
b1011 ^
b1011 _
b101011101000010010111110110000101101100011101010101111101110010011001010111001101110101011011000111010000100000001010000111001101110100011000010110110001101100011001010110010000101001 `
#30000
1@
b10010001101000101011001111000 2
b10010001101000101011001111000 F
b110011 7
b110011 J
b10100 ;
b10100 N
b1111 >
b1111 P
1=
b1010110011110001001101010111100 1
b1010110011110001001101010111100 E
b10101011110011011110111100000001 3
b10101011110011011110111100000001 G
b10010001101000101 :
b10010001101000101 M
b1001000110100 5
b1001000110100 H
b10 <
b10 O
b10100110011 6
b10100110011 I
b1100000100 9
b1100000100 L
b1100000000 8
b1100000000 K
b10010001101000101011001111000 h
b110011 m
b10100 q
b1111 t
1r
b1010110011110001001101010111100 g
b10101011110011011110111100000001 i
b10010001101000101 p
b1001000110100 k
b10 s
b10100110011 l
b1100000100 n
b1100000000 o
0?
#35000
b0 -
b0 S
b0 (
b0 W
b0 $
b0 [
b0 !
b0 ]
0"
b0 .
b0 R
b0 ,
b0 T
b0 *
b0 U
b0 #
b0 \
b10011 )
b10011 V
b0 &
b0 Y
b0 '
b0 X
1?
#36000
0a
0b
b101011101000010010111110110001101110011011100100101111101110111011100100110100101110100011001010101111101100101011011100110000101100010011011000110010100100000001010000110011001101100011101010111001101101000011001010110010000101001 c
b0 d
b0 e
b1010111010000100101111101101111011100000110001101101111011001000110010100100000001010000110011001101100011101010111001101101000011001010110010000101001 f
b110000 C
b110000 D
b0 ^
b0 _
b110011101101001011100110111010001100101011100100101111101100110011010010110110001100101010111110111011101110010011010010111010001100101010111110110010001100001011101000110000100100000001010000110011001101100011101010111001101101000011001010110010000101001 `
0@
#40000
b101001001010110010010110100001100000000000000000000000000000000 2
b101001001010110010010110100001100000000000000000000000000000000 F
b1110011 7
b1110011 J
b1010 ;
b1010 N
b0 >
b0 P
04
b0 1
b0 E
b101001001010110010010110100001100000000000000000000000000000000 3
b101001001010110010010110100001100000000000000000000000000000000 G
b11110001000100000010 :
b11110001000100000010 M
b0 5
b0 H
b11 <
b11 O
b11110001000100000010010101110011 6
b11110001000100000010010101110011 I
b10000000100 9
b10000000100 L
b10000000000 8
b10000000000 K
b101001001010110010010110100001100000000000000000000000000000000 h
b1110011 m
b1010 q
b0 t
0j
b0 g
b101001001010110010010110100001100000000000000000000000000000000 i
b11110001000100000010 p
b0 k
b11 s
b11110001000100000010010101110011 l
b10000000100 n
b10000000000 o
0?
#45000
b101001001010110010010110100001100000000000000000000000000000000 -
b101001001010110010010110100001100000000000000000000000000000000 S
b1110011 (
b1110011 W
b1010 $
b1010 [
1"
b101001001010110010010110100001100000000000000000000000000000000 ,
b101001001010110010010110100001100000000000000000000000000000000 T
b11110001000100000010 %
b11110001000100000010 Z
b11 #
b11 \
b11110001000100000010010101110011 )
b11110001000100000010010101110011 V
b10000000100 &
b10000000100 Y
b10000000000 '
b10000000000 X
1?
#46000
1a
1b
b10101110100001001011111011100100110010101100111011010010111001101110100011001010111001001011111011101110111001001101001011101000110010101011111011001010110111001100001011000100110110001100101 c
b1110011 d
b1110011 e
b10101110100001001011111011011110111000001100011011011110110010001100101 f
b110111 C
b110111 D
b101001001010110010010110100001100000000000000000000000000000000 ^
b101001001010110010010110100001100000000000000000000000000000000 _
b1010111010000100101111101100011011100110111001001011111011100100110010101100001011001000101111101100100011000010111010001100001 `
#50000
b1111111111111111111111111111111111011110101011011011111011101111 2
b1111111111111111111111111111111111011110101011011011111011101111 F
b11 7
b11 J
b1011 >
b1011 P
b10000000000000000000100000100 1
b10000000000000000000100000100 E
b0 3
b0 G
b100 :
b100 M
b100 5
b100 H
b1 <
b1 O
b10001011010010100000011 6
b10001011010010100000011 I
b10100000100 9
b10100000100 L
b10100000000 8
b10100000000 K
b1111111111111111111111111111111111011110101011011011111011101111 h
b11 m
b1011 t
b10000000000000000000100000100 g
b0 i
b100 p
b100 k
b1 s
b10001011010010100000011 l
b10100000100 n
b10100000000 o
0?
#55000
b1111111111111111111111111111111111011110101011011011111011101111 -
b1111111111111111111111111111111111011110101011011011111011101111 S
b11 (
b11 W
b1011 !
b1011 ]
b10000000000000000000100000100 .
b10000000000000000000100000100 R
b0 ,
b0 T
b100 %
b100 Z
b100 *
b100 U
b1 #
b1 \
b10001011010010100000011 )
b10001011010010100000011 V
b10100000100 &
b10100000100 Y
b10100000000 '
b10100000000 X
1?
#56000
b11 d
b11 e
b10101110100001001011111011011110111000001100011011011110110010001100101 f
b111111 C
b111111 D
b1111111111111111111111111111111111011110101011011011111011101111 ^
b1111111111111111111111111111111111011110101011011011111011101111 _
b110010101011111011011000110111101100111011010010110001101011111011100100110010101100111011010010111001101110100011001010111001001011111011001100110100101101100011001010101111101110111011100100110100101110100011001010101111101100100011000010111010001100001 `
#60000
b1010101010101010101010101010101001010101010101010101010101010101 2
b1010101010101010101010101010101001010101010101010101010101010101 F
b1111111 7
b1111111 J
b11111 ;
b11111 N
b11111 >
b11111 P
14
b1000000000000000000000000000000000000000000000000000000000000001 1
b1000000000000000000000000000000000000000000000000000000000000001 E
b111111111111111111111111111111111111111111111111111111111111111 3
b111111111111111111111111111111111111111111111111111111111111111 G
b11111111111111111111 :
b11111111111111111111 M
b1000000000000000000000000000000000000000000000000000000000000000 5
b1000000000000000000000000000000000000000000000000000000000000000 H
b111 <
b111 O
b11011110101011011011111011101111 6
b11011110101011011011111011101111 I
b0 9
b0 L
b1111111111111111111111111111111111111111111111111111111111111100 8
b1111111111111111111111111111111111111111111111111111111111111100 K
b1010101010101010101010101010101001010101010101010101010101010101 h
b1111111 m
b11111 q
b11111 t
1j
b1000000000000000000000000000000000000000000000000000000000000001 g
b111111111111111111111111111111111111111111111111111111111111111 i
b11111111111111111111 p
b1000000000000000000000000000000000000000000000000000000000000000 k
b111 s
b11011110101011011011111011101111 l
b0 n
b1111111111111111111111111111111111111111111111111111111111111100 o
0?
#65000
b1010101010101010101010101010101001010101010101010101010101010101 -
b1010101010101010101010101010101001010101010101010101010101010101 S
b1111111 (
b1111111 W
b11111 $
b11111 [
b11111 !
b11111 ]
1+
b1000000000000000000000000000000000000000000000000000000000000001 .
b1000000000000000000000000000000000000000000000000000000000000001 R
b111111111111111111111111111111111111111111111111111111111111111 ,
b111111111111111111111111111111111111111111111111111111111111111 T
b11111111111111111111 %
b11111111111111111111 Z
b1000000000000000000000000000000000000000000000000000000000000000 *
b1000000000000000000000000000000000000000000000000000000000000000 U
b111 #
b111 \
b11011110101011011011111011101111 )
b11011110101011011011111011101111 V
b0 &
b0 Y
b1111111111111111111111111111111111111111111111111111111111111100 '
b1111111111111111111111111111111111111111111111111111111111111100 X
1?
#66000
b11111 d
b11111 e
b101011101000010010111110111001001100100001000000010100001101101011000010111100000101001 f
b1001000 C
b1001000 D
b1010101010101010101010101010101001010101010101010101010101010101 ^
b1010101010101010101010101010101001010101010101010101010101010101 _
b110011101101001011100110111010001100101011100100101111101100110011010010110110001100101010111110111011101110010011010010111010001100101010111110110010001100001011101000110000100100000001010000111000001100001011101000111010001100101011100100110111000101001 `
#70000
1@
10
b10001000100010010001000100010 2
b10001000100010010001000100010 F
b110011 7
b110011 J
b1111 ;
b1111 N
b1010 >
b1010 P
b11101110111011101111111111111111 1
b11101110111011101111111111111111 E
b11001100110011001101110111011101 3
b11001100110011001101110111011101 G
b10101011110011011110 :
b10101011110011011110 M
b10101010101010101011101110111011 5
b10101010101010101011101110111011 H
b10 <
b10 O
b10010001101000101011001111000 6
b10010001101000101011001111000 I
b10010001101000101011001111100 9
b10010001101000101011001111100 L
b10010001101000101011001111000 8
b10010001101000101011001111000 K
b10001000100010010001000100010 h
b110011 m
b1111 q
b1010 t
b11101110111011101111111111111111 g
b11001100110011001101110111011101 i
b10101011110011011110 p
b10101010101010101011101110111011 k
b10 s
b10010001101000101011001111000 l
b10010001101000101011001111100 n
b10010001101000101011001111000 o
0?
#75000
b0 -
b0 S
b0 (
b0 W
b0 $
b0 [
b0 !
b0 ]
0+
0"
b0 .
b0 R
b0 ,
b0 T
b0 %
b0 Z
b0 *
b0 U
b0 #
b0 \
b10011 )
b10011 V
b0 '
b0 X
1?
#76000
0a
0b
b111001101110010010111110111011101110010011010010111010001100101010111110110010101101110011000010110001001101100011001010010000000101000011001100110110001110101011100110110100000100000011100000111001001101001011011110111001001101001011101000111100100101001 c
b10011 d
b10011 e
b1010111010000100101111101101001011011100111001101110100011100100111010101100011011101000110100101101111011011100010000000101000011001100110110001110101011100110110100000100000011100000111001001101001011011110111001001101001011101000111100100101001 f
b1001101 C
b1001101 D
b0 ^
b0 _
b10101110100001001011111011000010110110001110101010111110111001001100101011100110111010101101100011101000010000000101000011001100110110001110101011100110110100000100000011100000111001001101001011011110111001001101001011101000111100100101001 `
0@
00
