testbenches/results/waveforms/ALU_tb_result.vcd
$date
	Thu Feb 12 15:54:02 2026
$end
$version
	Icarus Verilog
$end
$timescale
	1ps
$end
$scope module ALU_tb $end
$scope module dut $end
$var wire 5 ! alu_op [4:0] $end
$var wire 1 " clk $end
$var wire 1 # div_busy $end
$var wire 1 $ div_start $end
$var wire 1 % input_size_word $end
$var wire 1 & mul_busy $end
$var wire 1 ' mul_start $end
$var wire 1 ( reset $end
$var wire 64 ) src_A [63:0] $end
$var wire 64 * src_B [63:0] $end
$var wire 32 + rem_word [31:0] $end
$var wire 64 , rem_dword [63:0] $end
$var wire 32 - quot_word [31:0] $end
$var wire 64 . quot_dword [63:0] $end
$var wire 32 / prod_low_word [31:0] $end
$var wire 64 0 prod_low_dword [63:0] $end
$var wire 32 1 prod_high_word [31:0] $end
$var wire 64 2 prod_high_dword [63:0] $end
$var wire 1 3 mul_busy_word $end
$var wire 1 4 mul_busy_dword $end
$var wire 1 5 div_busy_word $end
$var wire 1 6 div_busy_dword $end
$var wire 1 7 alu_word_zero $end
$var wire 32 8 alu_word_result [31:0] $end
$var wire 1 9 alu_dword_zero $end
$var wire 64 : alu_dword_result [63:0] $end
$var parameter 32 ; XLEN $end
$var reg 64 < alu_result [63:0] $end
$var reg 1 = alu_zero $end
$scope module alu_dword $end
$var wire 5 > alu_op [4:0] $end
$var wire 64 ? src_A [63:0] $end
$var wire 64 @ src_B [63:0] $end
$var parameter 32 A XLEN $end
$var reg 64 B alu_result [63:0] $end
$var reg 1 9 alu_zero $end
$upscope $end
$scope module alu_word $end
$var wire 5 C alu_op [4:0] $end
$var wire 32 D src_A [31:0] $end
$var wire 32 E src_B [31:0] $end
$var reg 32 F alu_result [31:0] $end
$var reg 1 7 alu_zero $end
$upscope $end
$scope module divider_dword $end
$var wire 1 " clk $end
$var wire 1 G div_overflow $end
$var wire 64 H dividend [63:0] $end
$var wire 1 I division_start $end
$var wire 64 J divisor [63:0] $end
$var wire 1 K is_signed $end
$var wire 1 ( reset $end
$var wire 65 L subtract_result [64:0] $end
$var wire 128 M shifted_rq [127:0] $end
$var wire 64 N remainder [63:0] $end
$var wire 64 O quotient [63:0] $end
$var wire 1 P div_by_zero $end
$var wire 1 6 busy $end
$var parameter 2 Q CALCULATE $end
$var parameter 2 R FINALIZE $end
$var parameter 2 S IDLE $end
$var parameter 2 T INITIALIZE $end
$var parameter 32 U XLEN $end
$var reg 7 V bit_counter [6:0] $end
$var reg 1 W busy_reg $end
$var reg 1 X div_by_zero_flag $end
$var reg 1 Y div_overflow_flag $end
$var reg 64 Z dividend_reg [63:0] $end
$var reg 64 [ divisor_reg [63:0] $end
$var reg 64 \ quotient_reg [63:0] $end
$var reg 1 ] quotient_sign $end
$var reg 128 ^ remainder_quotient [127:0] $end
$var reg 64 _ remainder_reg [63:0] $end
$var reg 1 ` remainder_sign $end
$var reg 2 a state [1:0] $end
$upscope $end
$scope module divider_word $end
$var wire 1 " clk $end
$var wire 1 b div_overflow $end
$var wire 32 c dividend [31:0] $end
$var wire 1 d division_start $end
$var wire 32 e divisor [31:0] $end
$var wire 1 f is_signed $end
$var wire 1 ( reset $end
$var wire 33 g subtract_result [32:0] $end
$var wire 64 h shifted_rq [63:0] $end
$var wire 32 i remainder [31:0] $end
$var wire 32 j quotient [31:0] $end
$var wire 1 k div_by_zero $end
$var wire 1 5 busy $end
$var parameter 3 l CALCULATE $end
$var parameter 3 m FINALIZE $end
$var parameter 3 n IDLE $end
$var parameter 3 o INITIALIZE $end
$var parameter 32 p XLEN $end
$var reg 6 q bit_counter [5:0] $end
$var reg 1 r busy_reg $end
$var reg 1 s div_by_zero_flag $end
$var reg 1 t div_overflow_flag $end
$var reg 32 u dividend_reg [31:0] $end
$var reg 32 v divisor_reg [31:0] $end
$var reg 32 w quotient_reg [31:0] $end
$var reg 1 x quotient_sign $end
$var reg 64 y remainder_quotient [63:0] $end
$var reg 32 z remainder_reg [31:0] $end
$var reg 1 { remainder_sign $end
$var reg 3 | state [2:0] $end
$upscope $end
$scope module multiplier_dword $end
$var wire 1 " clk $end
$var wire 1 } mul_start $end
$var wire 1 ( reset $end
$var wire 1 ~ result_sign $end
$var wire 1 !" signed_A $end
$var wire 1 "" signed_B $end
$var wire 64 #" src_A [63:0] $end
$var wire 64 $" src_B [63:0] $end
$var wire 128 %" unsigned_sum [127:0] $end
$var wire 128 &" prod_corrected [127:0] $end
$var wire 64 '" mult_ALBL [63:0] $end
$var wire 64 (" mult_ALBH [63:0] $end
$var wire 64 )" mult_AHBL [63:0] $end
$var wire 64 *" mult_AHBH [63:0] $end
$var wire 64 +" abs_B [63:0] $end
$var wire 64 ," abs_A [63:0] $end
$var reg 64 -" abs_A_s1 [63:0] $end
$var reg 64 ." abs_B_s1 [63:0] $end
$var reg 1 4 mul_busy $end
$var reg 64 /" prod_AHBH_s2 [63:0] $end
$var reg 64 0" prod_AHBL_s2 [63:0] $end
$var reg 64 1" prod_ALBH_s2 [63:0] $end
$var reg 64 2" prod_ALBL_s2 [63:0] $end
$var reg 64 3" prod_high [63:0] $end
$var reg 64 4" prod_low [63:0] $end
$var reg 1 5" result_sign_s1 $end
$var reg 1 6" result_sign_s2 $end
$var reg 2 7" stage [1:0] $end
$upscope $end
$scope module multiplier_word $end
$var wire 1 " clk $end
$var wire 1 8" clk_enable $end
$var wire 1 9" mul_start $end
$var wire 1 ( reset $end
$var wire 1 :" result_sign $end
$var wire 1 ;" signed_A $end
$var wire 1 <" signed_B $end
$var wire 32 =" src_A [31:0] $end
$var wire 32 >" src_B [31:0] $end
$var wire 64 ?" prod_corrected [63:0] $end
$var wire 64 @" mult_result [63:0] $end
$var wire 32 A" abs_B [31:0] $end
$var wire 32 B" abs_A [31:0] $end
$var reg 32 C" abs_A_s1 [31:0] $end
$var reg 32 D" abs_B_s1 [31:0] $end
$var reg 1 3 mul_busy $end
$var reg 32 E" prod_high [31:0] $end
$var reg 32 F" prod_low [31:0] $end
$var reg 64 G" prod_unsigned_s2 [63:0] $end
$var reg 1 H" result_sign_s1 $end
$var reg 1 I" result_sign_s2 $end
$var reg 2 J" stage [1:0] $end
$upscope $end
$upscope $end
$upscope $end
$enddefinitions $end
$comment Show the parameter values. $end
$dumpall
b1000000 p
b1 o
b0 n
b11 m
b10 l
b1000000 U
b1 T
b0 S
b11 R
b10 Q
b1000000 A
b1000000 ;
$end
#0
$dumpvars
b0 J"
0I"
0H"
b0 G"
b0 F"
b0 E"
b0 D"
b0 C"
b0 B"
b0 A"
b0 @"
b0 ?"
b0 >"
b0 ="
0<"
0;"
0:"
09"
z8"
b0 7"
06"
05"
b0 4"
b0 3"
b0 2"
b0 1"
b0 0"
b0 /"
b0 ."
b0 -"
b0 ,"
b0 +"
b0 *"
b0 )"
b0 ("
b0 '"
b0 &"
b0 %"
b0 $"
b0 #"
0""
0!"
0~
x}
b0 |
0{
b0 z
b0 y
0x
b0 w
b0 v
b0 u
0t
0s
0r
b0 q
1k
b0 j
b0 i
b0 h
b0 g
0f
b0 e
0d
b0 c
0b
b0 a
0`
b0 _
b0 ^
0]
b0 \
b0 [
b0 Z
0Y
0X
0W
b0 V
1P
b0 O
b0 N
b0 M
b0 L
0K
b0 J
0I
b0 H
0G
b0 F
b0 E
b0 D
b0 C
b0 B
b0 @
b0 ?
b0 >
1=
b0 <
b0 :
19
b0 8
17
06
05
04
03
b0 2
b0 1
b0 0
b0 /
b0 .
b0 -
b0 ,
b0 +
b0 *
b0 )
1(
x'
0&
0%
0$
0#
0"
b0 !
$end
#5000
1"
#10000
0"
#15000
1"
#20000
0"
#25000
1"
#30000
0"
0(
#35000
1"
#40000
0"
#45000
1"
#50000
0"
#55000
1"
#60000
b11111010000 A"
07
b101110111000 8
b101110111000 F
b1111101000 B"
0=
b101110111000 <
b11111010000 E
b11111010000 >"
0k
b11111010000 e
b11111010000 +"
b1111101000 D
b1111101000 ="
b1111101000 c
09
b101110111000 :
b101110111000 B
b1111101000 ,"
0"
0P
b11111010000 *
b11111010000 @
b11111010000 J
b11111010000 $"
b1111101000 )
b1111101000 ?
b1111101000 H
b1111101000 #"
#65000
1"
#70000
b10001100001 A"
b110000010101 8
b110000010101 F
b11110110100 B"
b110000010101 <
b10001100001 E
b10001100001 >"
b10001100001 e
b10001100001 +"
b11110110100 D
b11110110100 ="
b11110110100 c
b110000010101 :
b110000010101 B
b11110110100 ,"
0"
b10001100001 *
b10001100001 @
b10001100001 J
b10001100001 $"
b11110110100 )
b11110110100 ?
b11110110100 H
b11110110100 #"
#75000
1"
#80000
b10001000100010001000100010001 A"
b11101111101111101101000000000000 8
b11101111101111101101000000000000 F
b11011110101011011011111011101111 B"
b1110111110111110110100000000000011101111101111101101000000000000 <
b10001000100010001000100010001 E
b10001000100010001000100010001 >"
b10001000100010001000100010001 e
b1000100010001000100010001000100010001000100010001000100010001 +"
b11011110101011011011111011101111 D
b11011110101011011011111011101111 ="
b11011110101011011011111011101111 c
b1110111110111110110100000000000011101111101111101101000000000000 :
b1110111110111110110100000000000011101111101111101101000000000000 B
b1101111010101101101111101110111111011110101011011011111011101111 ,"
0"
b1000100010001000100010001000100010001000100010001000100010001 *
b1000100010001000100010001000100010001000100010001000100010001 @
b1000100010001000100010001000100010001000100010001000100010001 J
b1000100010001000100010001000100010001000100010001000100010001 $"
b1101111010101101101111101110111111011110101011011011111011101111 )
b1101111010101101101111101110111111011110101011011011111011101111 ?
b1101111010101101101111101110111111011110101011011011111011101111 H
b1101111010101101101111101110111111011110101011011011111011101111 #"
#85000
1"
#90000
x9"
b1111111111111111111111111111111111101111101111101101000000000000 <
0}
0"
1%
#95000
1"
#100000
b10001100001 A"
b11110110100 B"
b10001100001 E
b10001100001 >"
b10001100001 e
b10001100001 +"
b11110110100 D
b11110110100 ="
b11110110100 c
b11110110100 ,"
09"
x}
b1101010011 :
b1101010011 B
b1101010011 8
b1101010011 F
b1101010011 <
0"
b10001100001 *
b10001100001 @
b10001100001 J
b10001100001 $"
b11110110100 )
b11110110100 ?
b11110110100 H
b11110110100 #"
0%
b1 !
b1 >
b1 C
#105000
1"
#110000
b11110 A"
17
b0 8
b0 F
b11110 B"
1=
b0 <
b11110 E
b11110 >"
b11110 e
b11110 +"
b11110 D
b11110 ="
b11110 c
19
b0 :
b0 B
b11110 ,"
0"
b11110 *
b11110 @
b11110 J
b11110 $"
b11110 )
b11110 ?
b11110 H
b11110 #"
#115000
1"
#120000
b10100 A"
07
b11111111111111111111111111110110 8
b11111111111111111111111111110110 F
b1010 B"
0=
b1111111111111111111111111111111111111111111111111111111111110110 <
b10100 E
b10100 >"
b10100 e
b10100 +"
b1010 D
b1010 ="
b1010 c
09
b1111111111111111111111111111111111111111111111111111111111110110 :
b1111111111111111111111111111111111111111111111111111111111110110 B
b1010 ,"
0"
b10100 *
b10100 @
b10100 J
b10100 $"
b1010 )
b1010 ?
b1010 H
b1010 #"
#125000
1"
#130000
b111110101011011011111011101111 A"
b11000010011000110101001000100010 8
b11000010011000110101001000100010 F
b1000100010001000100010001 B"
b1100001001100011010100100010000111000010011000110101001000100010 <
b111110101011011011111011101111 E
b111110101011011011111011101111 >"
b111110101011011011111011101111 e
b11111010101101101111101110111100111110101011011011111011101111 +"
b1000100010001000100010001 D
b1000100010001000100010001 ="
b1000100010001000100010001 c
b1100001001100011010100100010000111000010011000110101001000100010 :
b1100001001100011010100100010000111000010011000110101001000100010 B
b100010001000100010001000100000001000100010001000100010001 ,"
0"
b11111010101101101111101110111100111110101011011011111011101111 *
b11111010101101101111101110111100111110101011011011111011101111 @
b11111010101101101111101110111100111110101011011011111011101111 J
b11111010101101101111101110111100111110101011011011111011101111 $"
b100010001000100010001000100000001000100010001000100010001 )
b100010001000100010001000100000001000100010001000100010001 ?
b100010001000100010001000100000001000100010001000100010001 H
b100010001000100010001000100000001000100010001000100010001 #"
#135000
1"
#140000
x9"
b1111111111111111111111111111111111000010011000110101001000100010 <
0}
0"
1%
#145000
1"
#150000
b1111000011110000111100001111 A"
b11110000111100001111000011110000 B"
1=
b1111000011110000111100001111 E
b1111000011110000111100001111 >"
b1111000011110000111100001111 e
b111100001111000011110000111100001111000011110000111100001111 +"
b11110000111100001111000011110000 D
b11110000111100001111000011110000 ="
b11110000111100001111000011110000 c
b1111000011110000111100001111000011110000111100001111000011110000 ,"
09"
x}
19
b0 :
b0 B
17
b0 8
b0 F
b0 <
0"
b111100001111000011110000111100001111000011110000111100001111 *
b111100001111000011110000111100001111000011110000111100001111 @
b111100001111000011110000111100001111000011110000111100001111 J
b111100001111000011110000111100001111000011110000111100001111 $"
b1111000011110000111100001111000011110000111100001111000011110000 )
b1111000011110000111100001111000011110000111100001111000011110000 ?
b1111000011110000111100001111000011110000111100001111000011110000 H
b1111000011110000111100001111000011110000111100001111000011110000 #"
0%
b10 !
b10 >
b10 C
#155000
1"
#160000
b11111111111111110000000000000000 B"
0=
b111100001111000000000000000000001111000011110000000000000000 <
b11111111111111110000000000000000 D
b11111111111111110000000000000000 ="
b11111111111111110000000000000000 c
09
b111100001111000000000000000000001111000011110000000000000000 :
b111100001111000000000000000000001111000011110000000000000000 B
b1111111111111111000000000000000011111111111111110000000000000000 ,"
0"
b1111111111111111000000000000000011111111111111110000000000000000 )
b1111111111111111000000000000000011111111111111110000000000000000 ?
b1111111111111111000000000000000011111111111111110000000000000000 H
b1111111111111111000000000000000011111111111111110000000000000000 #"
#165000
1"
#170000
b11101111000001110001100010011010 A"
b1110111011101110111011101110111 B"
b110011100000111000100000001001001100111000001110001000000010010 <
b11101111000001110001100010011010 E
b11101111000001110001100010011010 >"
b11101111000001110001100010011010 e
b1110111100000111000110001001101011101111000001110001100010011010 +"
b1110111011101110111011101110111 D
b1110111011101110111011101110111 ="
b1110111011101110111011101110111 c
b110011100000111000100000001001001100111000001110001000000010010 :
b110011100000111000100000001001001100111000001110001000000010010 B
b111011101110111011101110111011101110111011101110111011101110111 ,"
0"
b1110111100000111000110001001101011101111000001110001100010011010 *
b1110111100000111000110001001101011101111000001110001100010011010 @
b1110111100000111000110001001101011101111000001110001100010011010 J
b1110111100000111000110001001101011101111000001110001100010011010 $"
b111011101110111011101110111011101110111011101110111011101110111 )
b111011101110111011101110111011101110111011101110111011101110111 ?
b111011101110111011101110111011101110111011101110111011101110111 H
b111011101110111011101110111011101110111011101110111011101110111 #"
#175000
1"
#180000
b0 A"
b0 B"
1=
b0 <
b0 E
b0 >"
1k
b0 e
b0 +"
b0 D
b0 ="
b0 c
b0 ,"
19
b0 :
b0 B
0"
1P
b0 *
b0 @
b0 J
b0 $"
b0 )
b0 ?
b0 H
b0 #"
b11 !
b11 >
b11 C
#185000
1"
#190000
b1111000011110000111100001111 A"
b11110000111100001111000011110000 B"
0=
b1111111111111111111111111111111111111111111111111111111111111111 <
b1111000011110000111100001111 E
b1111000011110000111100001111 >"
0k
b1111000011110000111100001111 e
b111100001111000011110000111100001111000011110000111100001111 +"
b11110000111100001111000011110000 D
b11110000111100001111000011110000 ="
b11110000111100001111000011110000 c
09
b1111111111111111111111111111111111111111111111111111111111111111 :
b1111111111111111111111111111111111111111111111111111111111111111 B
b1111000011110000111100001111000011110000111100001111000011110000 ,"
0"
0P
b111100001111000011110000111100001111000011110000111100001111 *
b111100001111000011110000111100001111000011110000111100001111 @
b111100001111000011110000111100001111000011110000111100001111 J
b111100001111000011110000111100001111000011110000111100001111 $"
b1111000011110000111100001111000011110000111100001111000011110000 )
b1111000011110000111100001111000011110000111100001111000011110000 ?
b1111000011110000111100001111000011110000111100001111000011110000 H
b1111000011110000111100001111000011110000111100001111000011110000 #"
#195000
1"
#200000
b11101111000001110001100010011010 A"
b1110111011101110111011101110111 B"
b1111111101110111011111111111111111111111011101110111111111111111 <
b11101111000001110001100010011010 E
b11101111000001110001100010011010 >"
b11101111000001110001100010011010 e
b1110111100000111000110001001101011101111000001110001100010011010 +"
b1110111011101110111011101110111 D
b1110111011101110111011101110111 ="
b1110111011101110111011101110111 c
b1111111101110111011111111111111111111111011101110111111111111111 :
b1111111101110111011111111111111111111111011101110111111111111111 B
b111011101110111011101110111011101110111011101110111011101110111 ,"
0"
b1110111100000111000110001001101011101111000001110001100010011010 *
b1110111100000111000110001001101011101111000001110001100010011010 @
b1110111100000111000110001001101011101111000001110001100010011010 J
b1110111100000111000110001001101011101111000001110001100010011010 $"
b111011101110111011101110111011101110111011101110111011101110111 )
b111011101110111011101110111011101110111011101110111011101110111 ?
b111011101110111011101110111011101110111011101110111011101110111 H
b111011101110111011101110111011101110111011101110111011101110111 #"
#205000
1"
#210000
b11111111111111111111111111111111 A"
b11111111111111111111111111111111 B"
1=
b0 <
b11111111111111111111111111111111 E
b11111111111111111111111111111111 >"
b11111111111111111111111111111111 e
b1111111111111111111111111111111111111111111111111111111111111111 +"
b11111111111111111111111111111111 D
b11111111111111111111111111111111 ="
b11111111111111111111111111111111 c
b1111111111111111111111111111111111111111111111111111111111111111 ,"
19
b0 :
b0 B
0"
b1111111111111111111111111111111111111111111111111111111111111111 *
b1111111111111111111111111111111111111111111111111111111111111111 @
b1111111111111111111111111111111111111111111111111111111111111111 J
b1111111111111111111111111111111111111111111111111111111111111111 $"
b1111111111111111111111111111111111111111111111111111111111111111 )
b1111111111111111111111111111111111111111111111111111111111111111 ?
b1111111111111111111111111111111111111111111111111111111111111111 H
b1111111111111111111111111111111111111111111111111111111111111111 #"
b100 !
b100 >
b100 C
#215000
1"
#220000
b1111000011110000111100001111 A"
0=
b1111000011110000111100001111000011110000111100001111000011110000 <
b1111000011110000111100001111 E
b1111000011110000111100001111 >"
b1111000011110000111100001111 e
09
b1111000011110000111100001111000011110000111100001111000011110000 :
b1111000011110000111100001111000011110000111100001111000011110000 B
b111100001111000011110000111100001111000011110000111100001111 +"
0"
b111100001111000011110000111100001111000011110000111100001111 *
b111100001111000011110000111100001111000011110000111100001111 @
b111100001111000011110000111100001111000011110000111100001111 J
b111100001111000011110000111100001111000011110000111100001111 $"
#225000
1"
#230000
b11101111000001110001100010011010 A"
b1110111011101110111011101110111 B"
b1001100001110000011011111110110110011000011100000110111111101101 <
b11101111000001110001100010011010 E
b11101111000001110001100010011010 >"
b11101111000001110001100010011010 e
b1110111100000111000110001001101011101111000001110001100010011010 +"
b1110111011101110111011101110111 D
b1110111011101110111011101110111 ="
b1110111011101110111011101110111 c
b1001100001110000011011111110110110011000011100000110111111101101 :
b1001100001110000011011111110110110011000011100000110111111101101 B
b111011101110111011101110111011101110111011101110111011101110111 ,"
0"
b1110111100000111000110001001101011101111000001110001100010011010 *
b1110111100000111000110001001101011101111000001110001100010011010 @
b1110111100000111000110001001101011101111000001110001100010011010 J
b1110111100000111000110001001101011101111000001110001100010011010 $"
b111011101110111011101110111011101110111011101110111011101110111 )
b111011101110111011101110111011101110111011101110111011101110111 ?
b111011101110111011101110111011101110111011101110111011101110111 H
b111011101110111011101110111011101110111011101110111011101110111 #"
#235000
1"
#240000
b11110 A"
b11110 B"
1=
b0 <
b11110 E
b11110 >"
b11110 e
b11110 +"
b11110 D
b11110 ="
b11110 c
b11110 ,"
19
b0 :
b0 B
0"
b11110 *
b11110 @
b11110 J
b11110 $"
b11110 )
b11110 ?
b11110 H
b11110 #"
b101 !
b101 >
b101 C
#245000
1"
#250000
b1 A"
b0 B"
b1 E
b1 >"
b1 e
b1111000000000000000000000000000000000000000000000000000000000001 +"
b0 D
b0 ="
b0 c
b0 ,"
0"
b1111000000000000000000000000000000000000000000000000000000000001 *
b1111000000000000000000000000000000000000000000000000000000000001 @
b1111000000000000000000000000000000000000000000000000000000000001 J
b1111000000000000000000000000000000000000000000000000000000000001 $"
b0 )
b0 ?
b0 H
b0 #"
#255000
1"
#260000
b11110110100 A"
b10001100001 B"
0=
b1 <
b11110110100 E
b11110110100 >"
b11110110100 e
b11110110100 +"
b10001100001 D
b10001100001 ="
b10001100001 c
09
b1 :
b1 B
b10001100001 ,"
0"
b11110110100 *
b11110110100 @
b11110110100 J
b11110110100 $"
b10001100001 )
b10001100001 ?
b10001100001 H
b10001100001 #"
#265000
1"
#270000
b11110000000000000000000000000001 A"
b11110000000000000000000000000000 B"
b11110000000000000000000000000001 E
b11110000000000000000000000000001 >"
b11110000000000000000000000000001 e
b11110000000000000000000000000001 +"
b11110000000000000000000000000000 D
b11110000000000000000000000000000 ="
b11110000000000000000000000000000 c
b11110000000000000000000000000000 ,"
0"
b11110000000000000000000000000001 *
b11110000000000000000000000000001 @
b11110000000000000000000000000001 J
b11110000000000000000000000000001 $"
b11110000000000000000000000000000 )
b11110000000000000000000000000000 ?
b11110000000000000000000000000000 H
b11110000000000000000000000000000 #"
b110 !
b110 >
b110 C
#275000
1"
#280000
b1000100100001 A"
b11110110100 B"
b1000100100001 E
b1000100100001 >"
b1000100100001 e
b1000100100001 +"
b11110110100 D
b11110110100 ="
b11110110100 c
b11110110100 ,"
0"
b1000100100001 *
b1000100100001 @
b1000100100001 J
b1000100100001 $"
b11110110100 )
b11110110100 ?
b11110110100 H
b11110110100 #"
#285000
1"
#290000
b111100100100011 A"
b111100100100011 B"
1=
b0 <
b111100100100011 E
b111100100100011 >"
b111100100100011 e
b111100100100011 +"
b111100100100011 D
b111100100100011 ="
b111100100100011 c
19
b0 :
b0 B
b111100100100011 ,"
0"
b111100100100011 *
b111100100100011 @
b111100100100011 J
b111100100100011 $"
b111100100100011 )
b111100100100011 ?
b111100100100011 H
b111100100100011 #"
#295000
1"
#300000
b11110110100 A"
b1111000011111111111100000000 B"
0=
b1111000000000000000000000000000000000000000000000000000000000000 <
b11110110100 E
b11110110100 >"
b11110110100 e
b11110110100 +"
b1111000011111111111100000000 D
b1111000011111111111100000000 ="
b1111000011111111111100000000 c
b111100001111111111110000000000001111000011111111111100000000 ,"
09
b1111000000000000000000000000000000000000000000000000000000000000 :
b1111000000000000000000000000000000000000000000000000000000000000 B
07
b11110000000000000000000000000000 8
b11110000000000000000000000000000 F
0"
b11110110100 *
b11110110100 @
b11110110100 J
b11110110100 $"
b111100001111111111110000000000001111000011111111111100000000 )
b111100001111111111110000000000001111000011111111111100000000 ?
b111100001111111111110000000000001111000011111111111100000000 H
b111100001111111111110000000000001111000011111111111100000000 #"
b111 !
b111 >
b111 C
#305000
1"
#310000
b111111 A"
b10000000000000000000000000000000 8
b10000000000000000000000000000000 F
b10010001101000101011001111001 B"
b1000000000000000000000000000000000000000000000000000000000000000 <
b111111 E
b111111 >"
b111111 e
b111111 +"
b10010001101000101011001111001 D
b10010001101000101011001111001 ="
b10010001101000101011001111001 c
b1000000000000000000000000000000000000000000000000000000000000000 :
b1000000000000000000000000000000000000000000000000000000000000000 B
b1001000110100010101100111100100010010001101000101011001111001 ,"
0"
b111111 *
b111111 @
b111111 J
b111111 $"
b1001000110100010101100111100100010010001101000101011001111001 )
b1001000110100010101100111100100010010001101000101011001111001 ?
b1001000110100010101100111100100010010001101000101011001111001 H
b1001000110100010101100111100100010010001101000101011001111001 #"
#315000
1"
#320000
b11 A"
b11111111111111111111111111111000 8
b11111111111111111111111111111000 F
b11111111111111111111111111111 B"
b111111111111111111111111111100011111111111111111111111111111000 <
b11 E
b11 >"
b11 e
b11 +"
b11111111111111111111111111111 D
b11111111111111111111111111111 ="
b11111111111111111111111111111 c
b111111111111111111111111111100011111111111111111111111111111000 :
b111111111111111111111111111100011111111111111111111111111111000 B
b111111111111111111111111111100011111111111111111111111111111 ,"
0"
b11 *
b11 @
b11 J
b11 $"
b111111111111111111111111111100011111111111111111111111111111 )
b111111111111111111111111111100011111111111111111111111111111 ?
b111111111111111111111111111100011111111111111111111111111111 H
b111111111111111111111111111100011111111111111111111111111111 #"
#325000
1"
#330000
x9"
b1111111111111111111111111111111111111111111111111111111111111000 <
0}
0"
1%
#335000
1"
#340000
b1000 A"
b11011110101011011011111011101111 B"
b1000 E
b1000 >"
b1000 e
b1000 +"
b11011110101011011011111011101111 D
b11011110101011011011111011101111 ="
b11011110101011011011111011101111 c
b1101111010101101101111101110111111011110101011011011111011101111 ,"
09"
x}
b11011110101011011011111011101111110111101010110110111110 :
b11011110101011011011111011101111110111101010110110111110 B
b110111101010110110111110 8
b110111101010110110111110 F
b11011110101011011011111011101111110111101010110110111110 <
0"
b1000 *
b1000 @
b1000 J
b1000 $"
b1101111010101101101111101110111111011110101011011011111011101111 )
b1101111010101101101111101110111111011110101011011011111011101111 ?
b1101111010101101101111101110111111011110101011011011111011101111 H
b1101111010101101101111101110111111011110101011011011111011101111 #"
0%
b1000 !
b1000 >
b1000 C
#345000
1"
#350000
b11110110100 A"
b111111111111 8
b111111111111 F
b11111111111111111111111111111111 B"
b111111111111 <
b11110110100 E
b11110110100 >"
b11110110100 e
b11110110100 +"
b11111111111111111111111111111111 D
b11111111111111111111111111111111 ="
b11111111111111111111111111111111 c
b111111111111 :
b111111111111 B
b1111111111111111111111111111111111111111111111111111111111111111 ,"
0"
b11110110100 *
b11110110100 @
b11110110100 J
b11110110100 $"
b1111111111111111111111111111111111111111111111111111111111111111 )
b1111111111111111111111111111111111111111111111111111111111111111 ?
b1111111111111111111111111111111111111111111111111111111111111111 H
b1111111111111111111111111111111111111111111111111111111111111111 #"
#355000
1"
#360000
b100 A"
b1111110111101010110110111110 8
b1111110111101010110110111110 F
b11111101111010101101101111101111 B"
b111111011110101011011011111011111111110111101010110110111110 <
b100 E
b100 >"
b100 e
b100 +"
b11111101111010101101101111101111 D
b11111101111010101101101111101111 ="
b11111101111010101101101111101111 c
b111111011110101011011011111011111111110111101010110110111110 :
b111111011110101011011011111011111111110111101010110110111110 B
b1111110111101010110110111110111111111101111010101101101111101111 ,"
0"
b100 *
b100 @
b100 J
b100 $"
b1111110111101010110110111110111111111101111010101101101111101111 )
b1111110111101010110110111110111111111101111010101101101111101111 ?
b1111110111101010110110111110111111111101111010101101101111101111 H
b1111110111101010110110111110111111111101111010101101101111101111 #"
#365000
1"
#370000
x9"
b1111110111101010110110111110 <
0}
0"
1%
#375000
1"
#380000
b11110110100 A"
17
b0 B"
b11110110100 E
b11110110100 >"
b11110110100 e
b11110110100 +"
b0 D
b0 ="
b0 c
b1000000000000000000000000000000000000000000000000000000000000000 ,"
09"
x}
b1111111111111111111111111111111111111111111111111111100000000000 :
b1111111111111111111111111111111111111111111111111111100000000000 B
b0 8
b0 F
b1111111111111111111111111111111111111111111111111111100000000000 <
0"
b11110110100 *
b11110110100 @
b11110110100 J
b11110110100 $"
b1000000000000000000000000000000000000000000000000000000000000000 )
b1000000000000000000000000000000000000000000000000000000000000000 ?
b1000000000000000000000000000000000000000000000000000000000000000 H
b1000000000000000000000000000000000000000000000000000000000000000 #"
0%
b1001 !
b1001 >
b1001 C
#385000
1"
#390000
b111100100100011 A"
1=
b0 <
b111100100100011 E
b111100100100011 >"
b111100100100011 e
b111100100100011 +"
19
b0 :
b0 B
b0 ,"
0"
b111100100100011 *
b111100100100011 @
b111100100100011 J
b111100100100011 $"
b0 )
b0 ?
b0 H
b0 #"
#395000
1"
#400000
b100 A"
07
b11111101111010101101101111101110 8
b11111101111010101101101111101110 F
b11011110101011011011111011101111 B"
0=
b1111111111011110101011011011111011111101111010101101101111101110 <
b100 E
b100 >"
b100 e
b100 +"
b11011110101011011011111011101111 D
b11011110101011011011111011101111 ="
b11011110101011011011111011101111 c
09
b1111111111011110101011011011111011111101111010101101101111101110 :
b1111111111011110101011011011111011111101111010101101101111101110 B
b1111110111101010110110111110111111011110101011011011111011101111 ,"
0"
b100 *
b100 @
b100 J
b100 $"
b1111110111101010110110111110111111011110101011011011111011101111 )
b1111110111101010110110111110111111011110101011011011111011101111 ?
b1111110111101010110110111110111111011110101011011011111011101111 H
b1111110111101010110110111110111111011110101011011011111011101111 #"
#405000
1"
#410000
x9"
b1111111111111111111111111111111111111101111010101101101111101110 <
0}
0"
1%
#415000
1"
#420000
b10100 A"
b1010 B"
b10100 E
b10100 >"
b10100 e
b10100 +"
b1010 D
b1010 ="
b1010 c
b1010 ,"
09"
x}
19
b0 :
b0 B
17
b0 8
b0 F
1=
b0 <
0"
b10100 *
b10100 @
b10100 J
b10100 $"
b1010 )
b1010 ?
b1010 H
b1010 #"
0%
b1010 !
b1010 >
b1010 C
#425000
1"
#430000
0"
#435000
1}
1'
1"
#440000
0"
#445000
1&
b11001000 '"
b1 7"
14
b10100 ."
b1010 -"
0}
0'
1"
#450000
0"
#455000
b11001000 &"
b10 7"
b11001000 %"
b11001000 2"
1"
#460000
0"
#465000
0=
b11001000 <
b11 7"
b11001000 0
b11001000 4"
1"
#470000
0"
#475000
0&
b0 7"
04
1"
#480000
0"
#485000
1"
#490000
0"
#495000
b1111101000 A"
b1111101000 B"
b1111101000 E
b1111101000 >"
b1111101000 e
b1111101000 +"
b1111101000 D
b1111101000 ="
b1111101000 c
b1111101000 ,"
b1111101000 *
b1111101000 @
b1111101000 J
b1111101000 $"
b1111101000 )
b1111101000 ?
b1111101000 H
b1111101000 #"
1"
#500000
0"
#505000
1"
#510000
0"
#515000
1}
1'
1"
#520000
0"
#525000
1&
b11110100001001000000 '"
b1 7"
14
b1111101000 ."
b1111101000 -"
0}
0'
1"
#530000
0"
#535000
b11110100001001000000 &"
b10 7"
b11110100001001000000 %"
b11110100001001000000 2"
1"
#540000
0"
#545000
b11110100001001000000 <
b11 7"
b11110100001001000000 0
b11110100001001000000 4"
1"
#550000
0"
#555000
0&
b0 7"
04
1"
#560000
0"
#565000
1"
#570000
0"
