testbenches/results/waveforms/ALU_tb_result.vcd
$date
	Sun Jun 29 14:52:24 2025
$end
$version
	Icarus Verilog
$end
$timescale
	1ps
$end
$scope module ALU_tb $end
$scope module dut $end
$var wire 5 ! alu_op [4:0] $end
$var wire 1 " input_size_word $end
$var wire 64 # src_A [63:0] $end
$var wire 64 $ src_B [63:0] $end
$var wire 32 % prod_low_word [31:0] $end
$var wire 64 & prod_low_dword [63:0] $end
$var wire 32 ' prod_high_word [31:0] $end
$var wire 64 ( prod_high_dword [63:0] $end
$var wire 1 ) alu_word_zero $end
$var wire 32 * alu_word_result [31:0] $end
$var wire 1 + alu_dword_zero $end
$var wire 64 , alu_dword_result [63:0] $end
$var reg 64 - alu_result [63:0] $end
$var reg 1 . alu_zero $end
$scope module alu_dword $end
$var wire 5 / alu_op [4:0] $end
$var wire 64 0 src_A [63:0] $end
$var wire 64 1 src_B [63:0] $end
$var reg 64 2 alu_result [63:0] $end
$var reg 1 + alu_zero $end
$upscope $end
$scope module alu_word $end
$var wire 5 3 alu_op [4:0] $end
$var wire 32 4 src_A [31:0] $end
$var wire 32 5 src_B [31:0] $end
$var reg 32 6 alu_result [31:0] $end
$var reg 1 ) alu_zero $end
$upscope $end
$scope module multiplier_dword $end
$var wire 1 7 signed_A $end
$var wire 1 8 signed_B $end
$var wire 64 9 src_A [63:0] $end
$var wire 64 : src_B [63:0] $end
$var wire 128 ; unsigned_sum [127:0] $end
$var wire 128 < sum [127:0] $end
$var wire 64 = prod_low [63:0] $end
$var wire 64 > prod_high [63:0] $end
$var wire 32 ? prod_ALBL_low [31:0] $end
$var wire 32 @ prod_ALBL_high [31:0] $end
$var wire 64 A prod_ALBL [63:0] $end
$var wire 32 B prod_ALBH_low [31:0] $end
$var wire 32 C prod_ALBH_high [31:0] $end
$var wire 64 D prod_ALBH [63:0] $end
$var wire 32 E prod_AHBL_low [31:0] $end
$var wire 32 F prod_AHBL_high [31:0] $end
$var wire 64 G prod_AHBL [63:0] $end
$var wire 32 H prod_AHBH_low [31:0] $end
$var wire 32 I prod_AHBH_high [31:0] $end
$var wire 64 J prod_AHBH [63:0] $end
$var wire 64 K abs_src_B [63:0] $end
$var wire 64 L abs_src_A [63:0] $end
$scope module ahbh $end
$var wire 32 M abs_src_A [31:0] $end
$var wire 32 N abs_src_B [31:0] $end
$var wire 1 O signed_A $end
$var wire 1 P signed_B $end
$var wire 32 Q src_A [31:0] $end
$var wire 32 R src_B [31:0] $end
$var wire 64 S prod_unsigned [63:0] $end
$var wire 32 T prod_low [31:0] $end
$var wire 32 U prod_high [31:0] $end
$var wire 64 V prod [63:0] $end
$upscope $end
$scope module ahbl $end
$var wire 32 W abs_src_A [31:0] $end
$var wire 32 X abs_src_B [31:0] $end
$var wire 1 Y signed_A $end
$var wire 1 Z signed_B $end
$var wire 32 [ src_A [31:0] $end
$var wire 32 \ src_B [31:0] $end
$var wire 64 ] prod_unsigned [63:0] $end
$var wire 32 ^ prod_low [31:0] $end
$var wire 32 _ prod_high [31:0] $end
$var wire 64 ` prod [63:0] $end
$upscope $end
$scope module albh $end
$var wire 32 a abs_src_A [31:0] $end
$var wire 32 b abs_src_B [31:0] $end
$var wire 1 c signed_A $end
$var wire 1 d signed_B $end
$var wire 32 e src_A [31:0] $end
$var wire 32 f src_B [31:0] $end
$var wire 64 g prod_unsigned [63:0] $end
$var wire 32 h prod_low [31:0] $end
$var wire 32 i prod_high [31:0] $end
$var wire 64 j prod [63:0] $end
$upscope $end
$scope module albl $end
$var wire 32 k abs_src_A [31:0] $end
$var wire 32 l abs_src_B [31:0] $end
$var wire 1 m signed_A $end
$var wire 1 n signed_B $end
$var wire 32 o src_A [31:0] $end
$var wire 32 p src_B [31:0] $end
$var wire 64 q prod_unsigned [63:0] $end
$var wire 32 r prod_low [31:0] $end
$var wire 32 s prod_high [31:0] $end
$var wire 64 t prod [63:0] $end
$upscope $end
$upscope $end
$scope module multiplier_word $end
$var wire 1 u signed_A $end
$var wire 1 v signed_B $end
$var wire 32 w src_A [31:0] $end
$var wire 32 x src_B [31:0] $end
$var wire 64 y prod_unsigned [63:0] $end
$var wire 32 z prod_low [31:0] $end
$var wire 32 { prod_high [31:0] $end
$var wire 64 | prod [63:0] $end
$var wire 32 } abs_src_B [31:0] $end
$var wire 32 ~ abs_src_A [31:0] $end
$upscope $end
$upscope $end
$upscope $end
$enddefinitions $end
$comment Show the parameter values. $end
$dumpall
$end
#0
$dumpvars
b0 ~
b0 }
b0 |
b0 {
b0 z
b0 y
b0 x
b0 w
0v
0u
b0 t
b0 s
b0 r
b0 q
b0 p
b0 o
0n
0m
b0 l
b0 k
b0 j
b0 i
b0 h
b0 g
b0 f
b0 e
0d
0c
b0 b
b0 a
b0 `
b0 _
b0 ^
b0 ]
b0 \
b0 [
0Z
0Y
b0 X
b0 W
b0 V
b0 U
b0 T
b0 S
b0 R
b0 Q
0P
0O
b0 N
b0 M
b0 L
b0 K
b0 J
b0 I
b0 H
b0 G
b0 F
b0 E
b0 D
b0 C
b0 B
b0 A
b0 @
b0 ?
b0 >
b0 =
b0 <
b0 ;
b0 :
b0 9
08
07
b0 6
b0 5
b0 4
b0 3
b0 2
b0 1
b0 0
b0 /
1.
b0 -
b0 ,
1+
b0 *
1)
b0 (
b0 '
b0 &
b0 %
b0 $
b0 #
0"
b0 !
$end
#10000
b111101000010010000000 &
b111101000010010000000 =
b111101000010010000000 <
b111101000010010000000 %
b111101000010010000000 z
b111101000010010000000 ;
b111101000010010000000 A
b111101000010010000000 ?
b111101000010010000000 r
b111101000010010000000 |
b111101000010010000000 t
b111101000010010000000 y
b11111010000 }
b11111010000 X
b11111010000 \
b111101000010010000000 q
b11111010000 l
b11111010000 p
0)
b101110111000 *
b101110111000 6
b1111101000 ~
0.
b101110111000 -
b1111101000 a
b1111101000 e
b1111101000 k
b1111101000 o
b11111010000 5
b11111010000 x
b11111010000 K
b1111101000 4
b1111101000 w
0+
b101110111000 ,
b101110111000 2
b1111101000 L
b11111010000 $
b11111010000 1
b11111010000 :
b1111101000 #
b1111101000 0
b1111101000 9
#20000
b1000011011101100110100 &
b1000011011101100110100 =
b1000011011101100110100 <
b1000011011101100110100 %
b1000011011101100110100 z
b1000011011101100110100 ;
b1000011011101100110100 A
b1000011011101100110100 ?
b1000011011101100110100 r
b1000011011101100110100 |
b1000011011101100110100 t
b10001100001 }
b10001100001 X
b10001100001 \
b10001100001 l
b10001100001 p
b110000010101 *
b110000010101 6
b1000011011101100110100 y
b11110110100 ~
b110000010101 -
b11110110100 a
b11110110100 e
b1000011011101100110100 q
b11110110100 k
b11110110100 o
b10001100001 5
b10001100001 x
b10001100001 K
b11110110100 4
b11110110100 w
b110000010101 ,
b110000010101 2
b11110110100 L
b10001100001 $
b10001100001 1
b10001100001 :
b11110110100 #
b11110110100 0
b11110110100 9
#30000
b111011011000011000100000111111111101110001110101000011111110 (
b111011011000011000100000111111111101110001110101000011111110 >
b1100111100000101011110111100110111100000000101101000110011011111 &
b1100111100000101011110111100110111100000000101101000110011011111 =
b1110110110000110001000001111111111011100011101010000111111101100111100000101011110111100110111100000000101101000110011011111 <
b1110110110000110001000001111 I
b1110110110000110001000001111 U
b111011011000011000100000111111100000000101101000110011011111 J
b11100000000101101000110011011111 H
b11100000000101101000110011011111 T
b1110110110000110001000001111 C
b1110110110000110001000001111 i
b111011011000011000100000111111100000000101101000110011011111 D
b11100000000101101000110011011111 B
b11100000000101101000110011011111 h
b1110110110000110001000001111 '
b1110110110000110001000001111 {
b11100000000101101000110011011111 %
b11100000000101101000110011011111 z
b1110110110000110001000001111 F
b1110110110000110001000001111 _
b111011011000011000100000111111100000000101101000110011011111 G
b11100000000101101000110011011111 E
b11100000000101101000110011011111 ^
b1110110110000110001000001111 @
b1110110110000110001000001111 s
b1110110110000110001000001111111111011100011101010000111111101100111100000101011110111100110111100000000101101000110011011111 ;
b111011011000011000100000111111100000000101101000110011011111 A
b11100000000101101000110011011111 ?
b11100000000101101000110011011111 r
b111011011000011000100000111111100000000101101000110011011111 V
b111011011000011000100000111111100000000101101000110011011111 j
b111011011000011000100000111111100000000101101000110011011111 |
b111011011000011000100000111111100000000101101000110011011111 `
b111011011000011000100000111111100000000101101000110011011111 t
b10001000100010001000100010001 }
b111011011000011000100000111111100000000101101000110011011111 S
b10001000100010001000100010001 N
b10001000100010001000100010001 R
b10001000100010001000100010001 X
b10001000100010001000100010001 \
b111011011000011000100000111111100000000101101000110011011111 g
b10001000100010001000100010001 b
b10001000100010001000100010001 f
b10001000100010001000100010001 l
b10001000100010001000100010001 p
b11101111101111101101000000000000 *
b11101111101111101101000000000000 6
b111011011000011000100000111111100000000101101000110011011111 y
b11011110101011011011111011101111 ~
b1110111110111110110100000000000011101111101111101101000000000000 -
b11011110101011011011111011101111 M
b11011110101011011011111011101111 Q
b111011011000011000100000111111100000000101101000110011011111 ]
b11011110101011011011111011101111 W
b11011110101011011011111011101111 [
b11011110101011011011111011101111 a
b11011110101011011011111011101111 e
b111011011000011000100000111111100000000101101000110011011111 q
b11011110101011011011111011101111 k
b11011110101011011011111011101111 o
b10001000100010001000100010001 5
b10001000100010001000100010001 x
b1000100010001000100010001000100010001000100010001000100010001 K
b11011110101011011011111011101111 4
b11011110101011011011111011101111 w
b1110111110111110110100000000000011101111101111101101000000000000 ,
b1110111110111110110100000000000011101111101111101101000000000000 2
b1101111010101101101111101110111111011110101011011011111011101111 L
b1000100010001000100010001000100010001000100010001000100010001 $
b1000100010001000100010001000100010001000100010001000100010001 1
b1000100010001000100010001000100010001000100010001000100010001 :
b1101111010101101101111101110111111011110101011011011111011101111 #
b1101111010101101101111101110111111011110101011011011111011101111 0
b1101111010101101101111101110111111011110101011011011111011101111 9
#40000
b1111111111111111111111111111111111101111101111101101000000000000 -
1"
#50000
b0 (
b0 >
b1000011011101100110100 &
b1000011011101100110100 =
b1000011011101100110100 <
b0 '
b0 {
b1000011011101100110100 %
b1000011011101100110100 z
b0 I
b0 U
b0 J
b0 H
b0 T
b0 F
b0 _
b0 G
b0 E
b0 ^
b0 C
b0 i
b0 D
b0 B
b0 h
b0 @
b0 s
b1000011011101100110100 ;
b1000011011101100110100 A
b1000011011101100110100 ?
b1000011011101100110100 r
b1000011011101100110100 |
b0 V
b0 `
b0 j
b1000011011101100110100 t
b10001100001 }
b0 N
b0 R
b10001100001 X
b10001100001 \
b0 b
b0 f
b10001100001 l
b10001100001 p
b1000011011101100110100 y
b11110110100 ~
b0 S
b0 M
b0 Q
b0 ]
b0 W
b0 [
b0 g
b11110110100 a
b11110110100 e
b1000011011101100110100 q
b11110110100 k
b11110110100 o
b10001100001 5
b10001100001 x
b10001100001 K
b11110110100 4
b11110110100 w
b11110110100 L
b1101010011 ,
b1101010011 2
b1101010011 *
b1101010011 6
b1101010011 -
b10001100001 $
b10001100001 1
b10001100001 :
b11110110100 #
b11110110100 0
b11110110100 9
0"
b1 !
b1 /
b1 3
#60000
b1110000100 &
b1110000100 =
b1110000100 <
b1110000100 %
b1110000100 z
b1110000100 ;
b1110000100 A
b1110000100 ?
b1110000100 r
b1110000100 |
b1110000100 t
b11110 }
b11110 X
b11110 \
b11110 l
b11110 p
1)
b0 *
b0 6
b1110000100 y
b11110 ~
1.
b0 -
b11110 a
b11110 e
b1110000100 q
b11110 k
b11110 o
b11110 5
b11110 x
b11110 K
b11110 4
b11110 w
1+
b0 ,
b0 2
b11110 L
b11110 $
b11110 1
b11110 :
b11110 #
b11110 0
b11110 9
#70000
b11001000 &
b11001000 =
b11001000 <
b11001000 %
b11001000 z
b11001000 ;
b11001000 A
b11001000 ?
b11001000 r
b11001000 |
b11001000 t
b10100 }
b10100 X
b10100 \
b10100 l
b10100 p
0)
b11111111111111111111111111110110 *
b11111111111111111111111111110110 6
b11001000 y
b1010 ~
0.
b1111111111111111111111111111111111111111111111111111111111110110 -
b1010 a
b1010 e
b11001000 q
b1010 k
b1010 o
b10100 5
b10100 x
b10100 K
b1010 4
b1010 w
0+
b1111111111111111111111111111111111111111111111111111111111110110 ,
b1111111111111111111111111111111111111111111111111111111111110110 2
b1010 L
b10100 $
b10100 1
b10100 :
b1010 #
b1010 0
b1010 9
#80000
b1000010110110110111011001010000100111000100001111001011 (
b1000010110110110111011001010000100111000100001111001011 >
b1010000001101111111101010011010001010000000101101000110011011111 &
b1010000001101111111101010011010001010000000101101000110011011111 =
b10000101101101101110110010100001001110001000011110010111010000001101111111101010011010001010000000101101000110011011111 <
b10000101101101101110110 I
b10000101101101101110110 U
b1000010110110110111011001010000000101101000110011011111 J
b1010000000101101000110011011111 H
b1010000000101101000110011011111 T
b10000101101101101110110 C
b10000101101101101110110 i
b1000010110110110111011001010000000101101000110011011111 D
b1010000000101101000110011011111 B
b1010000000101101000110011011111 h
b10000101101101101110110 '
b10000101101101101110110 {
b1010000000101101000110011011111 %
b1010000000101101000110011011111 z
b10000101101101101110110 F
b10000101101101101110110 _
b1000010110110110111011001010000000101101000110011011111 G
b1010000000101101000110011011111 E
b1010000000101101000110011011111 ^
b10000101101101101110110 @
b10000101101101101110110 s
b10000101101101101110110010100001001110001000011110010111010000001101111111101010011010001010000000101101000110011011111 ;
b1000010110110110111011001010000000101101000110011011111 A
b1010000000101101000110011011111 ?
b1010000000101101000110011011111 r
b1000010110110110111011001010000000101101000110011011111 V
b1000010110110110111011001010000000101101000110011011111 j
b1000010110110110111011001010000000101101000110011011111 |
b1000010110110110111011001010000000101101000110011011111 `
b1000010110110110111011001010000000101101000110011011111 t
b111110101011011011111011101111 }
b1000010110110110111011001010000000101101000110011011111 S
b111110101011011011111011101111 N
b111110101011011011111011101111 R
b111110101011011011111011101111 X
b111110101011011011111011101111 \
b1000010110110110111011001010000000101101000110011011111 g
b111110101011011011111011101111 b
b111110101011011011111011101111 f
b111110101011011011111011101111 l
b111110101011011011111011101111 p
b11000010011000110101001000100010 *
b11000010011000110101001000100010 6
b1000010110110110111011001010000000101101000110011011111 y
b1000100010001000100010001 ~
b1100001001100011010100100010000111000010011000110101001000100010 -
b1000100010001000100010001 M
b1000100010001000100010001 Q
b1000010110110110111011001010000000101101000110011011111 ]
b1000100010001000100010001 W
b1000100010001000100010001 [
b1000100010001000100010001 a
b1000100010001000100010001 e
b1000010110110110111011001010000000101101000110011011111 q
b1000100010001000100010001 k
b1000100010001000100010001 o
b111110101011011011111011101111 5
b111110101011011011111011101111 x
b11111010101101101111101110111100111110101011011011111011101111 K
b1000100010001000100010001 4
b1000100010001000100010001 w
b1100001001100011010100100010000111000010011000110101001000100010 ,
b1100001001100011010100100010000111000010011000110101001000100010 2
b100010001000100010001000100000001000100010001000100010001 L
b11111010101101101111101110111100111110101011011011111011101111 $
b11111010101101101111101110111100111110101011011011111011101111 1
b11111010101101101111101110111100111110101011011011111011101111 :
b100010001000100010001000100000001000100010001000100010001 #
b100010001000100010001000100000001000100010001000100010001 0
b100010001000100010001000100000001000100010001000100010001 9
#90000
b1111111111111111111111111111111111000010011000110101001000100010 -
1"
#100000
b111000101100010010100110100010000110101001001100001011100000 (
b111000101100010010100110100010000110101001001100001011100000 >
b1110001011000100101001101000100001101010010011000010111000010000 &
b1110001011000100101001101000100001101010010011000010111000010000 =
b1110001011000100101001101000100001101010010011000010111000001110001011000100101001101000100001101010010011000010111000010000 <
b1110001011000100101001101000 '
b1110001011000100101001101000 {
b1101010010011000010111000010000 %
b1101010010011000010111000010000 z
b1110001011000100101001101000 I
b1110001011000100101001101000 U
b111000101100010010100110100001101010010011000010111000010000 J
b1101010010011000010111000010000 H
b1101010010011000010111000010000 T
b1110001011000100101001101000 F
b1110001011000100101001101000 _
b111000101100010010100110100001101010010011000010111000010000 G
b1101010010011000010111000010000 E
b1101010010011000010111000010000 ^
b1110001011000100101001101000 C
b1110001011000100101001101000 i
b111000101100010010100110100001101010010011000010111000010000 D
b1101010010011000010111000010000 B
b1101010010011000010111000010000 h
b1110001011000100101001101000 @
b1110001011000100101001101000 s
b1110001011000100101001101000100001101010010011000010111000001110001011000100101001101000100001101010010011000010111000010000 ;
b111000101100010010100110100001101010010011000010111000010000 A
b1101010010011000010111000010000 ?
b1101010010011000010111000010000 r
b111000101100010010100110100001101010010011000010111000010000 |
b111000101100010010100110100001101010010011000010111000010000 V
b111000101100010010100110100001101010010011000010111000010000 `
b111000101100010010100110100001101010010011000010111000010000 j
b111000101100010010100110100001101010010011000010111000010000 t
b1111000011110000111100001111 }
b1111000011110000111100001111 N
b1111000011110000111100001111 R
b1111000011110000111100001111 X
b1111000011110000111100001111 \
b1111000011110000111100001111 b
b1111000011110000111100001111 f
b1111000011110000111100001111 l
b1111000011110000111100001111 p
b111000101100010010100110100001101010010011000010111000010000 y
b11110000111100001111000011110000 ~
b111000101100010010100110100001101010010011000010111000010000 S
b11110000111100001111000011110000 M
b11110000111100001111000011110000 Q
b111000101100010010100110100001101010010011000010111000010000 ]
b11110000111100001111000011110000 W
b11110000111100001111000011110000 [
b111000101100010010100110100001101010010011000010111000010000 g
b11110000111100001111000011110000 a
b11110000111100001111000011110000 e
b111000101100010010100110100001101010010011000010111000010000 q
b11110000111100001111000011110000 k
b11110000111100001111000011110000 o
1.
b1111000011110000111100001111 5
b1111000011110000111100001111 x
b111100001111000011110000111100001111000011110000111100001111 K
b11110000111100001111000011110000 4
b11110000111100001111000011110000 w
b1111000011110000111100001111000011110000111100001111000011110000 L
1+
b0 ,
b0 2
1)
b0 *
b0 6
b0 -
b111100001111000011110000111100001111000011110000111100001111 $
b111100001111000011110000111100001111000011110000111100001111 1
b111100001111000011110000111100001111000011110000111100001111 :
b1111000011110000111100001111000011110000111100001111000011110000 #
b1111000011110000111100001111000011110000111100001111000011110000 0
b1111000011110000111100001111000011110000111100001111000011110000 9
0"
b10 !
b10 /
b10 3
#110000
b111100001111000000000000000000001111000011101111111111111111 (
b111100001111000000000000000000001111000011101111111111111111 >
b1111000011110000111111111111111111110000111100010000000000000000 &
b1111000011110000111111111111111111110000111100010000000000000000 =
b1111000011110000000000000000000011110000111011111111111111111111000011110000111111111111111111110000111100010000000000000000 <
b1111000011101111111111111111 '
b1111000011101111111111111111 {
b11110000111100010000000000000000 %
b11110000111100010000000000000000 z
b1111000011101111111111111111 I
b1111000011101111111111111111 U
b111100001110111111111111111111110000111100010000000000000000 J
b11110000111100010000000000000000 H
b11110000111100010000000000000000 T
b1111000011101111111111111111 F
b1111000011101111111111111111 _
b111100001110111111111111111111110000111100010000000000000000 G
b11110000111100010000000000000000 E
b11110000111100010000000000000000 ^
b1111000011101111111111111111 C
b1111000011101111111111111111 i
b111100001110111111111111111111110000111100010000000000000000 D
b11110000111100010000000000000000 B
b11110000111100010000000000000000 h
b1111000011101111111111111111 @
b1111000011101111111111111111 s
b1111000011110000000000000000000011110000111011111111111111111111000011110000111111111111111111110000111100010000000000000000 ;
b111100001110111111111111111111110000111100010000000000000000 A
b11110000111100010000000000000000 ?
b11110000111100010000000000000000 r
b111100001110111111111111111111110000111100010000000000000000 |
b111100001110111111111111111111110000111100010000000000000000 V
b111100001110111111111111111111110000111100010000000000000000 `
b111100001110111111111111111111110000111100010000000000000000 j
b111100001110111111111111111111110000111100010000000000000000 t
b111100001110111111111111111111110000111100010000000000000000 y
b11111111111111110000000000000000 ~
0.
b111100001111000000000000000000001111000011110000000000000000 -
b111100001110111111111111111111110000111100010000000000000000 S
b11111111111111110000000000000000 M
b11111111111111110000000000000000 Q
b111100001110111111111111111111110000111100010000000000000000 ]
b11111111111111110000000000000000 W
b11111111111111110000000000000000 [
b111100001110111111111111111111110000111100010000000000000000 g
b11111111111111110000000000000000 a
b11111111111111110000000000000000 e
b111100001110111111111111111111110000111100010000000000000000 q
b11111111111111110000000000000000 k
b11111111111111110000000000000000 o
b11111111111111110000000000000000 4
b11111111111111110000000000000000 w
0+
b111100001111000000000000000000001111000011110000000000000000 ,
b111100001111000000000000000000001111000011110000000000000000 2
b1111111111111111000000000000000011111111111111110000000000000000 L
b1111111111111111000000000000000011111111111111110000000000000000 #
b1111111111111111000000000000000011111111111111110000000000000000 0
b1111111111111111000000000000000011111111111111110000000000000000 9
#120000
b110111110001011110110000100100001001101011010011011011000100101 (
b110111110001011110110000100100001001101011010011011011000100101 >
b100110000101111111000110111001101101110010100100000010110010110 &
b100110000101111111000110111001101101110010100100000010110010110 =
b1101111100010111101100001001000010011010110100110110110001001010100110000101111111000110111001101101110010100100000010110010110 <
b1101111100010111101100001000111 '
b1101111100010111101100001000111 {
b1101110010100100000010110010110 %
b1101110010100100000010110010110 z
b1101111100010111101100001000111 I
b1101111100010111101100001000111 U
b110111110001011110110000100011101101110010100100000010110010110 J
b1101110010100100000010110010110 H
b1101110010100100000010110010110 T
b1101111100010111101100001000111 F
b1101111100010111101100001000111 _
b110111110001011110110000100011101101110010100100000010110010110 G
b1101110010100100000010110010110 E
b1101110010100100000010110010110 ^
b1101111100010111101100001000111 C
b1101111100010111101100001000111 i
b110111110001011110110000100011101101110010100100000010110010110 D
b1101110010100100000010110010110 B
b1101110010100100000010110010110 h
b1101111100010111101100001000111 @
b1101111100010111101100001000111 s
b1101111100010111101100001001000010011010110100110110110001001010100110000101111111000110111001101101110010100100000010110010110 ;
b110111110001011110110000100011101101110010100100000010110010110 A
b1101110010100100000010110010110 ?
b1101110010100100000010110010110 r
b110111110001011110110000100011101101110010100100000010110010110 |
b110111110001011110110000100011101101110010100100000010110010110 V
b110111110001011110110000100011101101110010100100000010110010110 `
b110111110001011110110000100011101101110010100100000010110010110 j
b110111110001011110110000100011101101110010100100000010110010110 t
b11101111000001110001100010011010 }
b11101111000001110001100010011010 N
b11101111000001110001100010011010 R
b11101111000001110001100010011010 X
b11101111000001110001100010011010 \
b11101111000001110001100010011010 b
b11101111000001110001100010011010 f
b11101111000001110001100010011010 l
b11101111000001110001100010011010 p
b110111110001011110110000100011101101110010100100000010110010110 y
b1110111011101110111011101110111 ~
b110011100000111000100000001001001100111000001110001000000010010 -
b110111110001011110110000100011101101110010100100000010110010110 S
b1110111011101110111011101110111 M
b1110111011101110111011101110111 Q
b110111110001011110110000100011101101110010100100000010110010110 ]
b1110111011101110111011101110111 W
b1110111011101110111011101110111 [
b110111110001011110110000100011101101110010100100000010110010110 g
b1110111011101110111011101110111 a
b1110111011101110111011101110111 e
b110111110001011110110000100011101101110010100100000010110010110 q
b1110111011101110111011101110111 k
b1110111011101110111011101110111 o
b11101111000001110001100010011010 5
b11101111000001110001100010011010 x
b1110111100000111000110001001101011101111000001110001100010011010 K
b1110111011101110111011101110111 4
b1110111011101110111011101110111 w
b110011100000111000100000001001001100111000001110001000000010010 ,
b110011100000111000100000001001001100111000001110001000000010010 2
b111011101110111011101110111011101110111011101110111011101110111 L
b1110111100000111000110001001101011101111000001110001100010011010 $
b1110111100000111000110001001101011101111000001110001100010011010 1
b1110111100000111000110001001101011101111000001110001100010011010 :
b111011101110111011101110111011101110111011101110111011101110111 #
b111011101110111011101110111011101110111011101110111011101110111 0
b111011101110111011101110111011101110111011101110111011101110111 9
#130000
b0 (
b0 >
b0 &
b0 =
b0 <
b0 '
b0 {
b0 %
b0 z
b0 I
b0 U
b0 J
b0 H
b0 T
b0 F
b0 _
b0 G
b0 E
b0 ^
b0 C
b0 i
b0 D
b0 B
b0 h
b0 @
b0 s
b0 ;
b0 A
b0 ?
b0 r
b0 |
b0 V
b0 `
b0 j
b0 t
b0 }
b0 N
b0 R
b0 X
b0 \
b0 b
b0 f
b0 l
b0 p
b0 y
b0 ~
b0 S
b0 M
b0 Q
b0 ]
b0 W
b0 [
b0 g
b0 a
b0 e
b0 q
b0 k
b0 o
1.
b0 -
b0 5
b0 x
b0 K
b0 4
b0 w
b0 L
1+
b0 ,
b0 2
b0 $
b0 1
b0 :
b0 #
b0 0
b0 9
b11 !
b11 /
b11 3
#140000
b111000101100010010100110100010000110101001001100001011100000 (
b111000101100010010100110100010000110101001001100001011100000 >
b1110001011000100101001101000100001101010010011000010111000010000 &
b1110001011000100101001101000100001101010010011000010111000010000 =
b1110001011000100101001101000100001101010010011000010111000001110001011000100101001101000100001101010010011000010111000010000 <
b1110001011000100101001101000 '
b1110001011000100101001101000 {
b1101010010011000010111000010000 %
b1101010010011000010111000010000 z
b1110001011000100101001101000 I
b1110001011000100101001101000 U
b111000101100010010100110100001101010010011000010111000010000 J
b1101010010011000010111000010000 H
b1101010010011000010111000010000 T
b1110001011000100101001101000 F
b1110001011000100101001101000 _
b111000101100010010100110100001101010010011000010111000010000 G
b1101010010011000010111000010000 E
b1101010010011000010111000010000 ^
b1110001011000100101001101000 C
b1110001011000100101001101000 i
b111000101100010010100110100001101010010011000010111000010000 D
b1101010010011000010111000010000 B
b1101010010011000010111000010000 h
b1110001011000100101001101000 @
b1110001011000100101001101000 s
b1110001011000100101001101000100001101010010011000010111000001110001011000100101001101000100001101010010011000010111000010000 ;
b111000101100010010100110100001101010010011000010111000010000 A
b1101010010011000010111000010000 ?
b1101010010011000010111000010000 r
b111000101100010010100110100001101010010011000010111000010000 |
b111000101100010010100110100001101010010011000010111000010000 V
b111000101100010010100110100001101010010011000010111000010000 `
b111000101100010010100110100001101010010011000010111000010000 j
b111000101100010010100110100001101010010011000010111000010000 t
b111000101100010010100110100001101010010011000010111000010000 y
b1111000011110000111100001111 }
b111000101100010010100110100001101010010011000010111000010000 S
b1111000011110000111100001111 N
b1111000011110000111100001111 R
b111000101100010010100110100001101010010011000010111000010000 ]
b1111000011110000111100001111 X
b1111000011110000111100001111 \
b111000101100010010100110100001101010010011000010111000010000 g
b1111000011110000111100001111 b
b1111000011110000111100001111 f
b111000101100010010100110100001101010010011000010111000010000 q
b1111000011110000111100001111 l
b1111000011110000111100001111 p
b11110000111100001111000011110000 ~
0.
b1111111111111111111111111111111111111111111111111111111111111111 -
b11110000111100001111000011110000 M
b11110000111100001111000011110000 Q
b11110000111100001111000011110000 W
b11110000111100001111000011110000 [
b11110000111100001111000011110000 a
b11110000111100001111000011110000 e
b11110000111100001111000011110000 k
b11110000111100001111000011110000 o
b1111000011110000111100001111 5
b1111000011110000111100001111 x
b111100001111000011110000111100001111000011110000111100001111 K
b11110000111100001111000011110000 4
b11110000111100001111000011110000 w
0+
b1111111111111111111111111111111111111111111111111111111111111111 ,
b1111111111111111111111111111111111111111111111111111111111111111 2
b1111000011110000111100001111000011110000111100001111000011110000 L
b111100001111000011110000111100001111000011110000111100001111 $
b111100001111000011110000111100001111000011110000111100001111 1
b111100001111000011110000111100001111000011110000111100001111 :
b1111000011110000111100001111000011110000111100001111000011110000 #
b1111000011110000111100001111000011110000111100001111000011110000 0
b1111000011110000111100001111000011110000111100001111000011110000 9
#150000
b110111110001011110110000100100001001101011010011011011000100101 (
b110111110001011110110000100100001001101011010011011011000100101 >
b100110000101111111000110111001101101110010100100000010110010110 &
b100110000101111111000110111001101101110010100100000010110010110 =
b1101111100010111101100001001000010011010110100110110110001001010100110000101111111000110111001101101110010100100000010110010110 <
b1101111100010111101100001000111 '
b1101111100010111101100001000111 {
b1101110010100100000010110010110 %
b1101110010100100000010110010110 z
b1101111100010111101100001000111 I
b1101111100010111101100001000111 U
b110111110001011110110000100011101101110010100100000010110010110 J
b1101110010100100000010110010110 H
b1101110010100100000010110010110 T
b1101111100010111101100001000111 F
b1101111100010111101100001000111 _
b110111110001011110110000100011101101110010100100000010110010110 G
b1101110010100100000010110010110 E
b1101110010100100000010110010110 ^
b1101111100010111101100001000111 C
b1101111100010111101100001000111 i
b110111110001011110110000100011101101110010100100000010110010110 D
b1101110010100100000010110010110 B
b1101110010100100000010110010110 h
b1101111100010111101100001000111 @
b1101111100010111101100001000111 s
b1101111100010111101100001001000010011010110100110110110001001010100110000101111111000110111001101101110010100100000010110010110 ;
b110111110001011110110000100011101101110010100100000010110010110 A
b1101110010100100000010110010110 ?
b1101110010100100000010110010110 r
b110111110001011110110000100011101101110010100100000010110010110 |
b110111110001011110110000100011101101110010100100000010110010110 V
b110111110001011110110000100011101101110010100100000010110010110 `
b110111110001011110110000100011101101110010100100000010110010110 j
b110111110001011110110000100011101101110010100100000010110010110 t
b11101111000001110001100010011010 }
b11101111000001110001100010011010 N
b11101111000001110001100010011010 R
b11101111000001110001100010011010 X
b11101111000001110001100010011010 \
b11101111000001110001100010011010 b
b11101111000001110001100010011010 f
b11101111000001110001100010011010 l
b11101111000001110001100010011010 p
b110111110001011110110000100011101101110010100100000010110010110 y
b1110111011101110111011101110111 ~
b1111111101110111011111111111111111111111011101110111111111111111 -
b110111110001011110110000100011101101110010100100000010110010110 S
b1110111011101110111011101110111 M
b1110111011101110111011101110111 Q
b110111110001011110110000100011101101110010100100000010110010110 ]
b1110111011101110111011101110111 W
b1110111011101110111011101110111 [
b110111110001011110110000100011101101110010100100000010110010110 g
b1110111011101110111011101110111 a
b1110111011101110111011101110111 e
b110111110001011110110000100011101101110010100100000010110010110 q
b1110111011101110111011101110111 k
b1110111011101110111011101110111 o
b11101111000001110001100010011010 5
b11101111000001110001100010011010 x
b1110111100000111000110001001101011101111000001110001100010011010 K
b1110111011101110111011101110111 4
b1110111011101110111011101110111 w
b1111111101110111011111111111111111111111011101110111111111111111 ,
b1111111101110111011111111111111111111111011101110111111111111111 2
b111011101110111011101110111011101110111011101110111011101110111 L
b1110111100000111000110001001101011101111000001110001100010011010 $
b1110111100000111000110001001101011101111000001110001100010011010 1
b1110111100000111000110001001101011101111000001110001100010011010 :
b111011101110111011101110111011101110111011101110111011101110111 #
b111011101110111011101110111011101110111011101110111011101110111 0
b111011101110111011101110111011101110111011101110111011101110111 9
