testbenches/results/waveforms/ALU_tb_result.vcd
$date
	Sat Jan 17 02:23:40 2026
$end
$version
	Icarus Verilog
$end
$timescale
	1ps
$end
$scope module ALU_tb $end
$scope module dut $end
$var wire 5 ! alu_op [4:0] $end
$var wire 1 " clk $end
$var wire 1 # div_busy $end
$var wire 1 $ div_start $end
$var wire 1 % input_size_word $end
$var wire 1 & reset $end
$var wire 64 ' src_A [63:0] $end
$var wire 64 ( src_B [63:0] $end
$var wire 32 ) rem_word [31:0] $end
$var wire 64 * rem_dword [63:0] $end
$var wire 32 + quot_word [31:0] $end
$var wire 64 , quot_dword [63:0] $end
$var wire 32 - prod_low_word [31:0] $end
$var wire 64 . prod_low_dword [63:0] $end
$var wire 32 / prod_high_word [31:0] $end
$var wire 64 0 prod_high_dword [63:0] $end
$var wire 1 1 div_busy_word $end
$var wire 1 2 div_busy_dword $end
$var wire 1 3 alu_word_zero $end
$var wire 32 4 alu_word_result [31:0] $end
$var wire 1 5 alu_dword_zero $end
$var wire 64 6 alu_dword_result [63:0] $end
$var parameter 32 7 XLEN $end
$var reg 64 8 alu_result [63:0] $end
$var reg 1 9 alu_zero $end
$scope module alu_dword $end
$var wire 5 : alu_op [4:0] $end
$var wire 64 ; src_A [63:0] $end
$var wire 64 < src_B [63:0] $end
$var parameter 32 = XLEN $end
$var reg 64 > alu_result [63:0] $end
$var reg 1 5 alu_zero $end
$upscope $end
$scope module alu_word $end
$var wire 5 ? alu_op [4:0] $end
$var wire 32 @ src_A [31:0] $end
$var wire 32 A src_B [31:0] $end
$var reg 32 B alu_result [31:0] $end
$var reg 1 3 alu_zero $end
$upscope $end
$scope module divider_dword $end
$var wire 1 " clk $end
$var wire 1 C div_overflow $end
$var wire 64 D dividend [63:0] $end
$var wire 1 E division_start $end
$var wire 64 F divisor [63:0] $end
$var wire 1 G is_signed $end
$var wire 64 H quotient [63:0] $end
$var wire 64 I remainder [63:0] $end
$var wire 1 & reset $end
$var wire 65 J subtract_result [64:0] $end
$var wire 128 K shifted_rq [127:0] $end
$var wire 1 L div_by_zero $end
$var wire 1 2 busy $end
$var parameter 2 M CALCULATE $end
$var parameter 2 N FINALIZE $end
$var parameter 2 O IDLE $end
$var parameter 2 P INITIALIZE $end
$var parameter 32 Q XLEN $end
$var reg 7 R bit_counter [6:0] $end
$var reg 1 2 busy_reg $end
$var reg 64 S divisor_reg [63:0] $end
$var reg 64 T quotient_reg [63:0] $end
$var reg 1 U quotient_sign $end
$var reg 128 V remainder_quotient [127:0] $end
$var reg 64 W remainder_reg [63:0] $end
$var reg 1 X remainder_sign $end
$var reg 2 Y state [1:0] $end
$upscope $end
$scope module divider_word $end
$var wire 1 " clk $end
$var wire 1 Z div_overflow $end
$var wire 32 [ dividend [31:0] $end
$var wire 1 \ division_start $end
$var wire 32 ] divisor [31:0] $end
$var wire 1 ^ is_signed $end
$var wire 32 _ quotient [31:0] $end
$var wire 32 ` remainder [31:0] $end
$var wire 1 & reset $end
$var wire 33 a subtract_result [32:0] $end
$var wire 64 b shifted_rq [63:0] $end
$var wire 1 c div_by_zero $end
$var wire 1 1 busy $end
$var parameter 3 d CALCULATE $end
$var parameter 3 e FINALIZE $end
$var parameter 3 f IDLE $end
$var parameter 3 g INITIALIZE $end
$var parameter 32 h XLEN $end
$var reg 6 i bit_counter [5:0] $end
$var reg 1 1 busy_reg $end
$var reg 32 j divisor_reg [31:0] $end
$var reg 32 k quotient_reg [31:0] $end
$var reg 1 l quotient_sign $end
$var reg 64 m remainder_quotient [63:0] $end
$var reg 32 n remainder_reg [31:0] $end
$var reg 1 o remainder_sign $end
$var reg 3 p state [2:0] $end
$upscope $end
$scope module multiplier_dword $end
$var wire 1 q signed_A $end
$var wire 1 r signed_B $end
$var wire 64 s src_A [63:0] $end
$var wire 64 t src_B [63:0] $end
$var wire 128 u unsigned_sum [127:0] $end
$var wire 128 v sum [127:0] $end
$var wire 64 w prod_low [63:0] $end
$var wire 64 x prod_high [63:0] $end
$var wire 32 y prod_ALBL_low [31:0] $end
$var wire 32 z prod_ALBL_high [31:0] $end
$var wire 64 { prod_ALBL [63:0] $end
$var wire 32 | prod_ALBH_low [31:0] $end
$var wire 32 } prod_ALBH_high [31:0] $end
$var wire 64 ~ prod_ALBH [63:0] $end
$var wire 32 !" prod_AHBL_low [31:0] $end
$var wire 32 "" prod_AHBL_high [31:0] $end
$var wire 64 #" prod_AHBL [63:0] $end
$var wire 32 $" prod_AHBH_low [31:0] $end
$var wire 32 %" prod_AHBH_high [31:0] $end
$var wire 64 &" prod_AHBH [63:0] $end
$var wire 64 '" abs_src_B [63:0] $end
$var wire 64 (" abs_src_A [63:0] $end
$scope module ahbh $end
$var wire 32 )" abs_src_A [31:0] $end
$var wire 32 *" abs_src_B [31:0] $end
$var wire 1 +" signed_A $end
$var wire 1 ," signed_B $end
$var wire 32 -" src_A [31:0] $end
$var wire 32 ." src_B [31:0] $end
$var wire 64 /" prod_unsigned [63:0] $end
$var wire 32 0" prod_low [31:0] $end
$var wire 32 1" prod_high [31:0] $end
$var wire 64 2" prod [63:0] $end
$upscope $end
$scope module ahbl $end
$var wire 32 3" abs_src_A [31:0] $end
$var wire 32 4" abs_src_B [31:0] $end
$var wire 1 5" signed_A $end
$var wire 1 6" signed_B $end
$var wire 32 7" src_A [31:0] $end
$var wire 32 8" src_B [31:0] $end
$var wire 64 9" prod_unsigned [63:0] $end
$var wire 32 :" prod_low [31:0] $end
$var wire 32 ;" prod_high [31:0] $end
$var wire 64 <" prod [63:0] $end
$upscope $end
$scope module albh $end
$var wire 32 =" abs_src_A [31:0] $end
$var wire 32 >" abs_src_B [31:0] $end
$var wire 1 ?" signed_A $end
$var wire 1 @" signed_B $end
$var wire 32 A" src_A [31:0] $end
$var wire 32 B" src_B [31:0] $end
$var wire 64 C" prod_unsigned [63:0] $end
$var wire 32 D" prod_low [31:0] $end
$var wire 32 E" prod_high [31:0] $end
$var wire 64 F" prod [63:0] $end
$upscope $end
$scope module albl $end
$var wire 32 G" abs_src_A [31:0] $end
$var wire 32 H" abs_src_B [31:0] $end
$var wire 1 I" signed_A $end
$var wire 1 J" signed_B $end
$var wire 32 K" src_A [31:0] $end
$var wire 32 L" src_B [31:0] $end
$var wire 64 M" prod_unsigned [63:0] $end
$var wire 32 N" prod_low [31:0] $end
$var wire 32 O" prod_high [31:0] $end
$var wire 64 P" prod [63:0] $end
$upscope $end
$upscope $end
$scope module multiplier_word $end
$var wire 1 Q" signed_A $end
$var wire 1 R" signed_B $end
$var wire 32 S" src_A [31:0] $end
$var wire 32 T" src_B [31:0] $end
$var wire 64 U" prod_unsigned [63:0] $end
$var wire 32 V" prod_low [31:0] $end
$var wire 32 W" prod_high [31:0] $end
$var wire 64 X" prod [63:0] $end
$var wire 32 Y" abs_src_B [31:0] $end
$var wire 32 Z" abs_src_A [31:0] $end
$upscope $end
$upscope $end
$upscope $end
$enddefinitions $end
$comment Show the parameter values. $end
$dumpall
b1000000 h
b1 g
b0 f
b11 e
b10 d
b1000000 Q
b1 P
b0 O
b11 N
b10 M
b1000000 =
b1000000 7
$end
#0
$dumpvars
b0 Z"
b0 Y"
b0 X"
b0 W"
b0 V"
b0 U"
b0 T"
b0 S"
0R"
0Q"
b0 P"
b0 O"
b0 N"
b0 M"
b0 L"
b0 K"
0J"
0I"
b0 H"
b0 G"
b0 F"
b0 E"
b0 D"
b0 C"
b0 B"
b0 A"
0@"
0?"
b0 >"
b0 ="
b0 <"
b0 ;"
b0 :"
b0 9"
b0 8"
b0 7"
06"
05"
b0 4"
b0 3"
b0 2"
b0 1"
b0 0"
b0 /"
b0 ."
b0 -"
0,"
0+"
b0 *"
b0 )"
b0 ("
b0 '"
b0 &"
b0 %"
b0 $"
b0 #"
b0 ""
b0 !"
b0 ~
b0 }
b0 |
b0 {
b0 z
b0 y
b0 x
b0 w
b0 v
b0 u
b0 t
b0 s
0r
0q
b0 p
0o
b0 n
b0 m
0l
b0 k
b0 j
b0 i
1c
b0 b
b0 a
b0 `
b0 _
0^
b0 ]
0\
b0 [
0Z
b0 Y
0X
b0 W
b0 V
0U
b0 T
b0 S
b0 R
1L
b0 K
b0 J
b0 I
b0 H
0G
b0 F
0E
b0 D
0C
b0 B
b0 A
b0 @
b0 ?
b0 >
b0 <
b0 ;
b0 :
19
b0 8
b0 6
15
b0 4
13
02
01
b0 0
b0 /
b0 .
b0 -
b0 ,
b0 +
b0 *
b0 )
b0 (
b0 '
1&
0%
0$
0#
0"
b0 !
$end
#5000
1"
#10000
0"
#15000
1"
#20000
0"
#25000
1"
#30000
0"
0&
#35000
1"
#40000
0"
#45000
1"
#50000
0"
#55000
1"
#60000
b111101000010010000000 .
b111101000010010000000 w
b111101000010010000000 v
b111101000010010000000 -
b111101000010010000000 V"
b111101000010010000000 u
b111101000010010000000 {
b111101000010010000000 y
b111101000010010000000 N"
b111101000010010000000 X"
b111101000010010000000 P"
b111101000010010000000 U"
b11111010000 Y"
b11111010000 4"
b11111010000 8"
b111101000010010000000 M"
b11111010000 H"
b11111010000 L"
03
b101110111000 4
b101110111000 B
b1111101000 Z"
09
b101110111000 8
b1111101000 ="
b1111101000 A"
b1111101000 G"
b1111101000 K"
b11111010000 A
b11111010000 T"
0c
b11111010000 ]
b11111010000 '"
b1111101000 @
b1111101000 S"
b1111101000 [
05
b101110111000 6
b101110111000 >
b1111101000 ("
0"
0L
b11111010000 (
b11111010000 <
b11111010000 F
b11111010000 t
b1111101000 '
b1111101000 ;
b1111101000 D
b1111101000 s
#65000
1"
#70000
b1000011011101100110100 .
b1000011011101100110100 w
b1000011011101100110100 v
b1000011011101100110100 -
b1000011011101100110100 V"
b1000011011101100110100 u
b1000011011101100110100 {
b1000011011101100110100 y
b1000011011101100110100 N"
b1000011011101100110100 X"
b1000011011101100110100 P"
b10001100001 Y"
b10001100001 4"
b10001100001 8"
b10001100001 H"
b10001100001 L"
b110000010101 4
b110000010101 B
b1000011011101100110100 U"
b11110110100 Z"
b110000010101 8
b11110110100 ="
b11110110100 A"
b1000011011101100110100 M"
b11110110100 G"
b11110110100 K"
b10001100001 A
b10001100001 T"
b10001100001 ]
b10001100001 '"
b11110110100 @
b11110110100 S"
b11110110100 [
b110000010101 6
b110000010101 >
b11110110100 ("
0"
b10001100001 (
b10001100001 <
b10001100001 F
b10001100001 t
b11110110100 '
b11110110100 ;
b11110110100 D
b11110110100 s
#75000
1"
#80000
b111011011000011000100000111111111101110001110101000011111110 0
b111011011000011000100000111111111101110001110101000011111110 x
b1100111100000101011110111100110111100000000101101000110011011111 .
b1100111100000101011110111100110111100000000101101000110011011111 w
b1110110110000110001000001111111111011100011101010000111111101100111100000101011110111100110111100000000101101000110011011111 v
b1110110110000110001000001111 %"
b1110110110000110001000001111 1"
b111011011000011000100000111111100000000101101000110011011111 &"
b11100000000101101000110011011111 $"
b11100000000101101000110011011111 0"
b1110110110000110001000001111 }
b1110110110000110001000001111 E"
b111011011000011000100000111111100000000101101000110011011111 ~
b11100000000101101000110011011111 |
b11100000000101101000110011011111 D"
b1110110110000110001000001111 /
b1110110110000110001000001111 W"
b11100000000101101000110011011111 -
b11100000000101101000110011011111 V"
b1110110110000110001000001111 ""
b1110110110000110001000001111 ;"
b111011011000011000100000111111100000000101101000110011011111 #"
b11100000000101101000110011011111 !"
b11100000000101101000110011011111 :"
b1110110110000110001000001111 z
b1110110110000110001000001111 O"
b1110110110000110001000001111111111011100011101010000111111101100111100000101011110111100110111100000000101101000110011011111 u
b111011011000011000100000111111100000000101101000110011011111 {
b11100000000101101000110011011111 y
b11100000000101101000110011011111 N"
b111011011000011000100000111111100000000101101000110011011111 2"
b111011011000011000100000111111100000000101101000110011011111 F"
b111011011000011000100000111111100000000101101000110011011111 X"
b111011011000011000100000111111100000000101101000110011011111 <"
b111011011000011000100000111111100000000101101000110011011111 P"
b10001000100010001000100010001 Y"
b111011011000011000100000111111100000000101101000110011011111 /"
b10001000100010001000100010001 *"
b10001000100010001000100010001 ."
b10001000100010001000100010001 4"
b10001000100010001000100010001 8"
b111011011000011000100000111111100000000101101000110011011111 C"
b10001000100010001000100010001 >"
b10001000100010001000100010001 B"
b10001000100010001000100010001 H"
b10001000100010001000100010001 L"
b11101111101111101101000000000000 4
b11101111101111101101000000000000 B
b111011011000011000100000111111100000000101101000110011011111 U"
b11011110101011011011111011101111 Z"
b1110111110111110110100000000000011101111101111101101000000000000 8
b11011110101011011011111011101111 )"
b11011110101011011011111011101111 -"
b111011011000011000100000111111100000000101101000110011011111 9"
b11011110101011011011111011101111 3"
b11011110101011011011111011101111 7"
b11011110101011011011111011101111 ="
b11011110101011011011111011101111 A"
b111011011000011000100000111111100000000101101000110011011111 M"
b11011110101011011011111011101111 G"
b11011110101011011011111011101111 K"
b10001000100010001000100010001 A
b10001000100010001000100010001 T"
b10001000100010001000100010001 ]
b1000100010001000100010001000100010001000100010001000100010001 '"
b11011110101011011011111011101111 @
b11011110101011011011111011101111 S"
b11011110101011011011111011101111 [
b1110111110111110110100000000000011101111101111101101000000000000 6
b1110111110111110110100000000000011101111101111101101000000000000 >
b1101111010101101101111101110111111011110101011011011111011101111 ("
0"
b1000100010001000100010001000100010001000100010001000100010001 (
b1000100010001000100010001000100010001000100010001000100010001 <
b1000100010001000100010001000100010001000100010001000100010001 F
b1000100010001000100010001000100010001000100010001000100010001 t
b1101111010101101101111101110111111011110101011011011111011101111 '
b1101111010101101101111101110111111011110101011011011111011101111 ;
b1101111010101101101111101110111111011110101011011011111011101111 D
b1101111010101101101111101110111111011110101011011011111011101111 s
#85000
1"
#90000
b1111111111111111111111111111111111101111101111101101000000000000 8
0"
1%
#95000
1"
#100000
b0 0
b0 x
b1000011011101100110100 .
b1000011011101100110100 w
b1000011011101100110100 v
b0 /
b0 W"
b1000011011101100110100 -
b1000011011101100110100 V"
b0 %"
b0 1"
b0 &"
b0 $"
b0 0"
b0 ""
b0 ;"
b0 #"
b0 !"
b0 :"
b0 }
b0 E"
b0 ~
b0 |
b0 D"
b0 z
b0 O"
b1000011011101100110100 u
b1000011011101100110100 {
b1000011011101100110100 y
b1000011011101100110100 N"
b1000011011101100110100 X"
b0 2"
b0 <"
b0 F"
b1000011011101100110100 P"
b10001100001 Y"
b0 *"
b0 ."
b10001100001 4"
b10001100001 8"
b0 >"
b0 B"
b10001100001 H"
b10001100001 L"
b1000011011101100110100 U"
b11110110100 Z"
b0 /"
b0 )"
b0 -"
b0 9"
b0 3"
b0 7"
b0 C"
b11110110100 ="
b11110110100 A"
b1000011011101100110100 M"
b11110110100 G"
b11110110100 K"
b10001100001 A
b10001100001 T"
b10001100001 ]
b10001100001 '"
b11110110100 @
b11110110100 S"
b11110110100 [
b11110110100 ("
b1101010011 6
b1101010011 >
b1101010011 4
b1101010011 B
b1101010011 8
0"
b10001100001 (
b10001100001 <
b10001100001 F
b10001100001 t
b11110110100 '
b11110110100 ;
b11110110100 D
b11110110100 s
0%
b1 !
b1 :
b1 ?
#105000
1"
#110000
b1110000100 .
b1110000100 w
b1110000100 v
b1110000100 -
b1110000100 V"
b1110000100 u
b1110000100 {
b1110000100 y
b1110000100 N"
b1110000100 X"
b1110000100 P"
b11110 Y"
b11110 4"
b11110 8"
b11110 H"
b11110 L"
13
b0 4
b0 B
b1110000100 U"
b11110 Z"
19
b0 8
b11110 ="
b11110 A"
b1110000100 M"
b11110 G"
b11110 K"
b11110 A
b11110 T"
b11110 ]
b11110 '"
b11110 @
b11110 S"
b11110 [
15
b0 6
b0 >
b11110 ("
0"
b11110 (
b11110 <
b11110 F
b11110 t
b11110 '
b11110 ;
b11110 D
b11110 s
#115000
1"
#120000
b11001000 .
b11001000 w
b11001000 v
b11001000 -
b11001000 V"
b11001000 u
b11001000 {
b11001000 y
b11001000 N"
b11001000 X"
b11001000 P"
b10100 Y"
b10100 4"
b10100 8"
b10100 H"
b10100 L"
03
b11111111111111111111111111110110 4
b11111111111111111111111111110110 B
b11001000 U"
b1010 Z"
09
b1111111111111111111111111111111111111111111111111111111111110110 8
b1010 ="
b1010 A"
b11001000 M"
b1010 G"
b1010 K"
b10100 A
b10100 T"
b10100 ]
b10100 '"
b1010 @
b1010 S"
b1010 [
05
b1111111111111111111111111111111111111111111111111111111111110110 6
b1111111111111111111111111111111111111111111111111111111111110110 >
b1010 ("
0"
b10100 (
b10100 <
b10100 F
b10100 t
b1010 '
b1010 ;
b1010 D
b1010 s
#125000
1"
#130000
b1000010110110110111011001010000100111000100001111001011 0
b1000010110110110111011001010000100111000100001111001011 x
b1010000001101111111101010011010001010000000101101000110011011111 .
b1010000001101111111101010011010001010000000101101000110011011111 w
b10000101101101101110110010100001001110001000011110010111010000001101111111101010011010001010000000101101000110011011111 v
b10000101101101101110110 %"
b10000101101101101110110 1"
b1000010110110110111011001010000000101101000110011011111 &"
b1010000000101101000110011011111 $"
b1010000000101101000110011011111 0"
b10000101101101101110110 }
b10000101101101101110110 E"
b1000010110110110111011001010000000101101000110011011111 ~
b1010000000101101000110011011111 |
b1010000000101101000110011011111 D"
b10000101101101101110110 /
b10000101101101101110110 W"
b1010000000101101000110011011111 -
b1010000000101101000110011011111 V"
b10000101101101101110110 ""
b10000101101101101110110 ;"
b1000010110110110111011001010000000101101000110011011111 #"
b1010000000101101000110011011111 !"
b1010000000101101000110011011111 :"
b10000101101101101110110 z
b10000101101101101110110 O"
b10000101101101101110110010100001001110001000011110010111010000001101111111101010011010001010000000101101000110011011111 u
b1000010110110110111011001010000000101101000110011011111 {
b1010000000101101000110011011111 y
b1010000000101101000110011011111 N"
b1000010110110110111011001010000000101101000110011011111 2"
b1000010110110110111011001010000000101101000110011011111 F"
b1000010110110110111011001010000000101101000110011011111 X"
b1000010110110110111011001010000000101101000110011011111 <"
b1000010110110110111011001010000000101101000110011011111 P"
b111110101011011011111011101111 Y"
b1000010110110110111011001010000000101101000110011011111 /"
b111110101011011011111011101111 *"
b111110101011011011111011101111 ."
b111110101011011011111011101111 4"
b111110101011011011111011101111 8"
b1000010110110110111011001010000000101101000110011011111 C"
b111110101011011011111011101111 >"
b111110101011011011111011101111 B"
b111110101011011011111011101111 H"
b111110101011011011111011101111 L"
b11000010011000110101001000100010 4
b11000010011000110101001000100010 B
b1000010110110110111011001010000000101101000110011011111 U"
b1000100010001000100010001 Z"
b1100001001100011010100100010000111000010011000110101001000100010 8
b1000100010001000100010001 )"
b1000100010001000100010001 -"
b1000010110110110111011001010000000101101000110011011111 9"
b1000100010001000100010001 3"
b1000100010001000100010001 7"
b1000100010001000100010001 ="
b1000100010001000100010001 A"
b1000010110110110111011001010000000101101000110011011111 M"
b1000100010001000100010001 G"
b1000100010001000100010001 K"
b111110101011011011111011101111 A
b111110101011011011111011101111 T"
b111110101011011011111011101111 ]
b11111010101101101111101110111100111110101011011011111011101111 '"
b1000100010001000100010001 @
b1000100010001000100010001 S"
b1000100010001000100010001 [
b1100001001100011010100100010000111000010011000110101001000100010 6
b1100001001100011010100100010000111000010011000110101001000100010 >
b100010001000100010001000100000001000100010001000100010001 ("
0"
b11111010101101101111101110111100111110101011011011111011101111 (
b11111010101101101111101110111100111110101011011011111011101111 <
b11111010101101101111101110111100111110101011011011111011101111 F
b11111010101101101111101110111100111110101011011011111011101111 t
b100010001000100010001000100000001000100010001000100010001 '
b100010001000100010001000100000001000100010001000100010001 ;
b100010001000100010001000100000001000100010001000100010001 D
b100010001000100010001000100000001000100010001000100010001 s
#135000
1"
#140000
b1111111111111111111111111111111111000010011000110101001000100010 8
0"
1%
#145000
1"
#150000
b111000101100010010100110100010000110101001001100001011100000 0
b111000101100010010100110100010000110101001001100001011100000 x
b1110001011000100101001101000100001101010010011000010111000010000 .
b1110001011000100101001101000100001101010010011000010111000010000 w
b1110001011000100101001101000100001101010010011000010111000001110001011000100101001101000100001101010010011000010111000010000 v
b1110001011000100101001101000 /
b1110001011000100101001101000 W"
b1101010010011000010111000010000 -
b1101010010011000010111000010000 V"
b1110001011000100101001101000 %"
b1110001011000100101001101000 1"
b111000101100010010100110100001101010010011000010111000010000 &"
b1101010010011000010111000010000 $"
b1101010010011000010111000010000 0"
b1110001011000100101001101000 ""
b1110001011000100101001101000 ;"
b111000101100010010100110100001101010010011000010111000010000 #"
b1101010010011000010111000010000 !"
b1101010010011000010111000010000 :"
b1110001011000100101001101000 }
b1110001011000100101001101000 E"
b111000101100010010100110100001101010010011000010111000010000 ~
b1101010010011000010111000010000 |
b1101010010011000010111000010000 D"
b1110001011000100101001101000 z
b1110001011000100101001101000 O"
b1110001011000100101001101000100001101010010011000010111000001110001011000100101001101000100001101010010011000010111000010000 u
b111000101100010010100110100001101010010011000010111000010000 {
b1101010010011000010111000010000 y
b1101010010011000010111000010000 N"
b111000101100010010100110100001101010010011000010111000010000 X"
b111000101100010010100110100001101010010011000010111000010000 2"
b111000101100010010100110100001101010010011000010111000010000 <"
b111000101100010010100110100001101010010011000010111000010000 F"
b111000101100010010100110100001101010010011000010111000010000 P"
b1111000011110000111100001111 Y"
b1111000011110000111100001111 *"
b1111000011110000111100001111 ."
b1111000011110000111100001111 4"
b1111000011110000111100001111 8"
b1111000011110000111100001111 >"
b1111000011110000111100001111 B"
b1111000011110000111100001111 H"
b1111000011110000111100001111 L"
b111000101100010010100110100001101010010011000010111000010000 U"
b11110000111100001111000011110000 Z"
b111000101100010010100110100001101010010011000010111000010000 /"
b11110000111100001111000011110000 )"
b11110000111100001111000011110000 -"
b111000101100010010100110100001101010010011000010111000010000 9"
b11110000111100001111000011110000 3"
b11110000111100001111000011110000 7"
b111000101100010010100110100001101010010011000010111000010000 C"
b11110000111100001111000011110000 ="
b11110000111100001111000011110000 A"
b111000101100010010100110100001101010010011000010111000010000 M"
b11110000111100001111000011110000 G"
b11110000111100001111000011110000 K"
19
b1111000011110000111100001111 A
b1111000011110000111100001111 T"
b1111000011110000111100001111 ]
b111100001111000011110000111100001111000011110000111100001111 '"
b11110000111100001111000011110000 @
b11110000111100001111000011110000 S"
b11110000111100001111000011110000 [
b1111000011110000111100001111000011110000111100001111000011110000 ("
15
b0 6
b0 >
13
b0 4
b0 B
b0 8
0"
b111100001111000011110000111100001111000011110000111100001111 (
b111100001111000011110000111100001111000011110000111100001111 <
b111100001111000011110000111100001111000011110000111100001111 F
b111100001111000011110000111100001111000011110000111100001111 t
b1111000011110000111100001111000011110000111100001111000011110000 '
b1111000011110000111100001111000011110000111100001111000011110000 ;
b1111000011110000111100001111000011110000111100001111000011110000 D
b1111000011110000111100001111000011110000111100001111000011110000 s
0%
b10 !
b10 :
b10 ?
#155000
1"
#160000
b111100001111000000000000000000001111000011101111111111111111 0
b111100001111000000000000000000001111000011101111111111111111 x
b1111000011110000111111111111111111110000111100010000000000000000 .
b1111000011110000111111111111111111110000111100010000000000000000 w
b1111000011110000000000000000000011110000111011111111111111111111000011110000111111111111111111110000111100010000000000000000 v
b1111000011101111111111111111 /
b1111000011101111111111111111 W"
b11110000111100010000000000000000 -
b11110000111100010000000000000000 V"
b1111000011101111111111111111 %"
b1111000011101111111111111111 1"
b111100001110111111111111111111110000111100010000000000000000 &"
b11110000111100010000000000000000 $"
b11110000111100010000000000000000 0"
b1111000011101111111111111111 ""
b1111000011101111111111111111 ;"
b111100001110111111111111111111110000111100010000000000000000 #"
b11110000111100010000000000000000 !"
b11110000111100010000000000000000 :"
b1111000011101111111111111111 }
b1111000011101111111111111111 E"
b111100001110111111111111111111110000111100010000000000000000 ~
b11110000111100010000000000000000 |
b11110000111100010000000000000000 D"
b1111000011101111111111111111 z
b1111000011101111111111111111 O"
b1111000011110000000000000000000011110000111011111111111111111111000011110000111111111111111111110000111100010000000000000000 u
b111100001110111111111111111111110000111100010000000000000000 {
b11110000111100010000000000000000 y
b11110000111100010000000000000000 N"
b111100001110111111111111111111110000111100010000000000000000 X"
b111100001110111111111111111111110000111100010000000000000000 2"
b111100001110111111111111111111110000111100010000000000000000 <"
b111100001110111111111111111111110000111100010000000000000000 F"
b111100001110111111111111111111110000111100010000000000000000 P"
b111100001110111111111111111111110000111100010000000000000000 U"
b11111111111111110000000000000000 Z"
09
b111100001111000000000000000000001111000011110000000000000000 8
b111100001110111111111111111111110000111100010000000000000000 /"
b11111111111111110000000000000000 )"
b11111111111111110000000000000000 -"
b111100001110111111111111111111110000111100010000000000000000 9"
b11111111111111110000000000000000 3"
b11111111111111110000000000000000 7"
b111100001110111111111111111111110000111100010000000000000000 C"
b11111111111111110000000000000000 ="
b11111111111111110000000000000000 A"
b111100001110111111111111111111110000111100010000000000000000 M"
b11111111111111110000000000000000 G"
b11111111111111110000000000000000 K"
b11111111111111110000000000000000 @
b11111111111111110000000000000000 S"
b11111111111111110000000000000000 [
05
b111100001111000000000000000000001111000011110000000000000000 6
b111100001111000000000000000000001111000011110000000000000000 >
b1111111111111111000000000000000011111111111111110000000000000000 ("
0"
b1111111111111111000000000000000011111111111111110000000000000000 '
b1111111111111111000000000000000011111111111111110000000000000000 ;
b1111111111111111000000000000000011111111111111110000000000000000 D
b1111111111111111000000000000000011111111111111110000000000000000 s
#165000
1"
#170000
b110111110001011110110000100100001001101011010011011011000100101 0
b110111110001011110110000100100001001101011010011011011000100101 x
b100110000101111111000110111001101101110010100100000010110010110 .
b100110000101111111000110111001101101110010100100000010110010110 w
b1101111100010111101100001001000010011010110100110110110001001010100110000101111111000110111001101101110010100100000010110010110 v
b1101111100010111101100001000111 /
b1101111100010111101100001000111 W"
b1101110010100100000010110010110 -
b1101110010100100000010110010110 V"
b1101111100010111101100001000111 %"
b1101111100010111101100001000111 1"
b110111110001011110110000100011101101110010100100000010110010110 &"
b1101110010100100000010110010110 $"
b1101110010100100000010110010110 0"
b1101111100010111101100001000111 ""
b1101111100010111101100001000111 ;"
b110111110001011110110000100011101101110010100100000010110010110 #"
b1101110010100100000010110010110 !"
b1101110010100100000010110010110 :"
b1101111100010111101100001000111 }
b1101111100010111101100001000111 E"
b110111110001011110110000100011101101110010100100000010110010110 ~
b1101110010100100000010110010110 |
b1101110010100100000010110010110 D"
b1101111100010111101100001000111 z
b1101111100010111101100001000111 O"
b1101111100010111101100001001000010011010110100110110110001001010100110000101111111000110111001101101110010100100000010110010110 u
b110111110001011110110000100011101101110010100100000010110010110 {
b1101110010100100000010110010110 y
b1101110010100100000010110010110 N"
b110111110001011110110000100011101101110010100100000010110010110 X"
b110111110001011110110000100011101101110010100100000010110010110 2"
b110111110001011110110000100011101101110010100100000010110010110 <"
b110111110001011110110000100011101101110010100100000010110010110 F"
b110111110001011110110000100011101101110010100100000010110010110 P"
b11101111000001110001100010011010 Y"
b11101111000001110001100010011010 *"
b11101111000001110001100010011010 ."
b11101111000001110001100010011010 4"
b11101111000001110001100010011010 8"
b11101111000001110001100010011010 >"
b11101111000001110001100010011010 B"
b11101111000001110001100010011010 H"
b11101111000001110001100010011010 L"
b110111110001011110110000100011101101110010100100000010110010110 U"
b1110111011101110111011101110111 Z"
b110011100000111000100000001001001100111000001110001000000010010 8
b110111110001011110110000100011101101110010100100000010110010110 /"
b1110111011101110111011101110111 )"
b1110111011101110111011101110111 -"
b110111110001011110110000100011101101110010100100000010110010110 9"
b1110111011101110111011101110111 3"
b1110111011101110111011101110111 7"
b110111110001011110110000100011101101110010100100000010110010110 C"
b1110111011101110111011101110111 ="
b1110111011101110111011101110111 A"
b110111110001011110110000100011101101110010100100000010110010110 M"
b1110111011101110111011101110111 G"
b1110111011101110111011101110111 K"
b11101111000001110001100010011010 A
b11101111000001110001100010011010 T"
b11101111000001110001100010011010 ]
b1110111100000111000110001001101011101111000001110001100010011010 '"
b1110111011101110111011101110111 @
b1110111011101110111011101110111 S"
b1110111011101110111011101110111 [
b110011100000111000100000001001001100111000001110001000000010010 6
b110011100000111000100000001001001100111000001110001000000010010 >
b111011101110111011101110111011101110111011101110111011101110111 ("
0"
b1110111100000111000110001001101011101111000001110001100010011010 (
b1110111100000111000110001001101011101111000001110001100010011010 <
b1110111100000111000110001001101011101111000001110001100010011010 F
b1110111100000111000110001001101011101111000001110001100010011010 t
b111011101110111011101110111011101110111011101110111011101110111 '
b111011101110111011101110111011101110111011101110111011101110111 ;
b111011101110111011101110111011101110111011101110111011101110111 D
b111011101110111011101110111011101110111011101110111011101110111 s
#175000
1"
#180000
b0 0
b0 x
b0 .
b0 w
b0 v
b0 /
b0 W"
b0 -
b0 V"
b0 %"
b0 1"
b0 &"
b0 $"
b0 0"
b0 ""
b0 ;"
b0 #"
b0 !"
b0 :"
b0 }
b0 E"
b0 ~
b0 |
b0 D"
b0 z
b0 O"
b0 u
b0 {
b0 y
b0 N"
b0 X"
b0 2"
b0 <"
b0 F"
b0 P"
b0 Y"
b0 *"
b0 ."
b0 4"
b0 8"
b0 >"
b0 B"
b0 H"
b0 L"
b0 U"
b0 Z"
b0 /"
b0 )"
b0 -"
b0 9"
b0 3"
b0 7"
b0 C"
b0 ="
b0 A"
b0 M"
b0 G"
b0 K"
19
b0 8
b0 A
b0 T"
1c
b0 ]
b0 '"
b0 @
b0 S"
b0 [
b0 ("
15
b0 6
b0 >
0"
1L
b0 (
b0 <
b0 F
b0 t
b0 '
b0 ;
b0 D
b0 s
b11 !
b11 :
b11 ?
#185000
1"
