testbenches/results/waveforms/ALU_tb_result.vcd
$date
	Fri Jan 02 12:47:21 2026
$end
$version
	Icarus Verilog
$end
$timescale
	1ps
$end
$scope module ALU_tb $end
$scope module dut $end
$var wire 5 ! alu_op [4:0] $end
$var wire 1 " input_size_word $end
$var wire 64 # src_A [63:0] $end
$var wire 64 $ src_B [63:0] $end
$var wire 1 % alu_word_zero $end
$var wire 32 & alu_word_result [31:0] $end
$var wire 1 ' alu_dword_zero $end
$var wire 64 ( alu_dword_result [63:0] $end
$var parameter 32 ) XLEN $end
$var reg 64 * alu_result [63:0] $end
$var reg 1 + alu_zero $end
$scope module alu_dword $end
$var wire 5 , alu_op [4:0] $end
$var wire 64 - src_A [63:0] $end
$var wire 64 . src_B [63:0] $end
$var parameter 32 / XLEN $end
$var reg 64 0 alu_result [63:0] $end
$var reg 1 ' alu_zero $end
$upscope $end
$scope module alu_word $end
$var wire 5 1 alu_op [4:0] $end
$var wire 32 2 src_A [31:0] $end
$var wire 32 3 src_B [31:0] $end
$var reg 32 4 alu_result [31:0] $end
$var reg 1 % alu_zero $end
$upscope $end
$upscope $end
$upscope $end
$enddefinitions $end
$comment Show the parameter values. $end
$dumpall
b1000000 /
b1000000 )
$end
#0
$dumpvars
b0 4
b0 3
b0 2
b0 1
b0 0
b0 .
b0 -
b0 ,
1+
b0 *
b0 (
1'
b0 &
1%
b0 $
b0 #
0"
b0 !
$end
#10000
0%
b101110111000 &
b101110111000 4
0+
b101110111000 *
b11111010000 3
b1111101000 2
0'
b101110111000 (
b101110111000 0
b11111010000 $
b11111010000 .
b1111101000 #
b1111101000 -
#20000
b110000010101 &
b110000010101 4
b110000010101 *
b10001100001 3
b11110110100 2
b110000010101 (
b110000010101 0
b10001100001 $
b10001100001 .
b11110110100 #
b11110110100 -
#30000
b11101111101111101101000000000000 &
b11101111101111101101000000000000 4
b1110111110111110110100000000000011101111101111101101000000000000 *
b10001000100010001000100010001 3
b11011110101011011011111011101111 2
b1110111110111110110100000000000011101111101111101101000000000000 (
b1110111110111110110100000000000011101111101111101101000000000000 0
b1000100010001000100010001000100010001000100010001000100010001 $
b1000100010001000100010001000100010001000100010001000100010001 .
b1101111010101101101111101110111111011110101011011011111011101111 #
b1101111010101101101111101110111111011110101011011011111011101111 -
#40000
b1111111111111111111111111111111111101111101111101101000000000000 *
1"
#50000
b10001100001 3
b11110110100 2
b1101010011 (
b1101010011 0
b1101010011 &
b1101010011 4
b1101010011 *
b10001100001 $
b10001100001 .
b11110110100 #
b11110110100 -
0"
b1 !
b1 ,
b1 1
#60000
1%
b0 &
b0 4
1+
b0 *
b11110 3
b11110 2
1'
b0 (
b0 0
b11110 $
b11110 .
b11110 #
b11110 -
#70000
0%
b11111111111111111111111111110110 &
b11111111111111111111111111110110 4
0+
b1111111111111111111111111111111111111111111111111111111111110110 *
b10100 3
b1010 2
0'
b1111111111111111111111111111111111111111111111111111111111110110 (
b1111111111111111111111111111111111111111111111111111111111110110 0
b10100 $
b10100 .
b1010 #
b1010 -
#80000
b11000010011000110101001000100010 &
b11000010011000110101001000100010 4
b1100001001100011010100100010000111000010011000110101001000100010 *
b111110101011011011111011101111 3
b1000100010001000100010001 2
b1100001001100011010100100010000111000010011000110101001000100010 (
b1100001001100011010100100010000111000010011000110101001000100010 0
b11111010101101101111101110111100111110101011011011111011101111 $
b11111010101101101111101110111100111110101011011011111011101111 .
b100010001000100010001000100000001000100010001000100010001 #
b100010001000100010001000100000001000100010001000100010001 -
#90000
b1111111111111111111111111111111111000010011000110101001000100010 *
1"
#100000
1+
b1111000011110000111100001111 3
b11110000111100001111000011110000 2
1'
b0 (
b0 0
1%
b0 &
b0 4
b0 *
b111100001111000011110000111100001111000011110000111100001111 $
b111100001111000011110000111100001111000011110000111100001111 .
b1111000011110000111100001111000011110000111100001111000011110000 #
b1111000011110000111100001111000011110000111100001111000011110000 -
0"
b10 !
b10 ,
b10 1
#110000
0+
b111100001111000000000000000000001111000011110000000000000000 *
b11111111111111110000000000000000 2
0'
b111100001111000000000000000000001111000011110000000000000000 (
b111100001111000000000000000000001111000011110000000000000000 0
b1111111111111111000000000000000011111111111111110000000000000000 #
b1111111111111111000000000000000011111111111111110000000000000000 -
#120000
b110011100000111000100000001001001100111000001110001000000010010 *
b11101111000001110001100010011010 3
b1110111011101110111011101110111 2
b110011100000111000100000001001001100111000001110001000000010010 (
b110011100000111000100000001001001100111000001110001000000010010 0
b1110111100000111000110001001101011101111000001110001100010011010 $
b1110111100000111000110001001101011101111000001110001100010011010 .
b111011101110111011101110111011101110111011101110111011101110111 #
b111011101110111011101110111011101110111011101110111011101110111 -
#130000
1+
b0 *
b0 3
b0 2
1'
b0 (
b0 0
b0 $
b0 .
b0 #
b0 -
b11 !
b11 ,
b11 1
#140000
0+
b1111111111111111111111111111111111111111111111111111111111111111 *
b1111000011110000111100001111 3
b11110000111100001111000011110000 2
0'
b1111111111111111111111111111111111111111111111111111111111111111 (
b1111111111111111111111111111111111111111111111111111111111111111 0
b111100001111000011110000111100001111000011110000111100001111 $
b111100001111000011110000111100001111000011110000111100001111 .
b1111000011110000111100001111000011110000111100001111000011110000 #
b1111000011110000111100001111000011110000111100001111000011110000 -
#150000
b1111111101110111011111111111111111111111011101110111111111111111 *
b11101111000001110001100010011010 3
b1110111011101110111011101110111 2
b1111111101110111011111111111111111111111011101110111111111111111 (
b1111111101110111011111111111111111111111011101110111111111111111 0
b1110111100000111000110001001101011101111000001110001100010011010 $
b1110111100000111000110001001101011101111000001110001100010011010 .
b111011101110111011101110111011101110111011101110111011101110111 #
b111011101110111011101110111011101110111011101110111011101110111 -
#160000
1+
b0 *
b11111111111111111111111111111111 3
b11111111111111111111111111111111 2
1'
b0 (
b0 0
b1111111111111111111111111111111111111111111111111111111111111111 $
b1111111111111111111111111111111111111111111111111111111111111111 .
b1111111111111111111111111111111111111111111111111111111111111111 #
b1111111111111111111111111111111111111111111111111111111111111111 -
b100 !
b100 ,
b100 1
#170000
0+
b1111000011110000111100001111000011110000111100001111000011110000 *
b1111000011110000111100001111 3
0'
b1111000011110000111100001111000011110000111100001111000011110000 (
b1111000011110000111100001111000011110000111100001111000011110000 0
b111100001111000011110000111100001111000011110000111100001111 $
b111100001111000011110000111100001111000011110000111100001111 .
#180000
b1001100001110000011011111110110110011000011100000110111111101101 *
b11101111000001110001100010011010 3
b1110111011101110111011101110111 2
b1001100001110000011011111110110110011000011100000110111111101101 (
b1001100001110000011011111110110110011000011100000110111111101101 0
b1110111100000111000110001001101011101111000001110001100010011010 $
b1110111100000111000110001001101011101111000001110001100010011010 .
b111011101110111011101110111011101110111011101110111011101110111 #
b111011101110111011101110111011101110111011101110111011101110111 -
#190000
1+
b0 *
b11110 3
b11110 2
1'
b0 (
b0 0
b11110 $
b11110 .
b11110 #
b11110 -
b101 !
b101 ,
b101 1
#200000
b1 3
b0 2
b1111000000000000000000000000000000000000000000000000000000000001 $
b1111000000000000000000000000000000000000000000000000000000000001 .
b0 #
b0 -
#210000
0+
b1 *
b11110110100 3
b10001100001 2
0'
b1 (
b1 0
b11110110100 $
b11110110100 .
b10001100001 #
b10001100001 -
#220000
b11110000000000000000000000000001 3
b11110000000000000000000000000000 2
b11110000000000000000000000000001 $
b11110000000000000000000000000001 .
b11110000000000000000000000000000 #
b11110000000000000000000000000000 -
b110 !
b110 ,
b110 1
#230000
b1000100100001 3
b11110110100 2
b1000100100001 $
b1000100100001 .
b11110110100 #
b11110110100 -
#240000
1+
b0 *
b111100100100011 3
b111100100100011 2
1'
b0 (
b0 0
b111100100100011 $
b111100100100011 .
b111100100100011 #
b111100100100011 -
#250000
b11110110100 3
b1111000011111111111100000000 2
b11110110100 $
b11110110100 .
b111100001111111111110000000000001111000011111111111100000000 #
b111100001111111111110000000000001111000011111111111100000000 -
b111 !
b111 ,
b111 1
#260000
0+
b1000000000000000000000000000000000000000000000000000000000000000 *
b111111 3
b10010001101000101011001111001 2
0'
b1000000000000000000000000000000000000000000000000000000000000000 (
b1000000000000000000000000000000000000000000000000000000000000000 0
b111111 $
b111111 .
b1001000110100010101100111100100010010001101000101011001111001 #
b1001000110100010101100111100100010010001101000101011001111001 -
#270000
0%
b11111111111111111111111111111000 &
b11111111111111111111111111111000 4
b111111111111111111111111111100011111111111111111111111111111000 *
b11 3
b11111111111111111111111111111 2
b111111111111111111111111111100011111111111111111111111111111000 (
b111111111111111111111111111100011111111111111111111111111111000 0
b11 $
b11 .
b111111111111111111111111111100011111111111111111111111111111 #
b111111111111111111111111111100011111111111111111111111111111 -
#280000
b1111111111111111111111111111111111111111111111111111111111111000 *
1"
#290000
b1000 3
b11011110101011011011111011101111 2
b11011110101011011011111011101111110111101010110110111110 (
b11011110101011011011111011101111110111101010110110111110 0
b110111101010110110111110 &
b110111101010110110111110 4
b11011110101011011011111011101111110111101010110110111110 *
b1000 $
b1000 .
b1101111010101101101111101110111111011110101011011011111011101111 #
b1101111010101101101111101110111111011110101011011011111011101111 -
0"
b1000 !
b1000 ,
b1000 1
#300000
1%
b0 &
b0 4
1+
b0 *
b11110110100 3
b11111111111111111111111111111111 2
1'
b0 (
b0 0
b11110110100 $
b11110110100 .
b1111111111111111111111111111111111111111111111111111111111111111 #
b1111111111111111111111111111111111111111111111111111111111111111 -
#310000
0%
b1111110111101010110110111110 &
b1111110111101010110110111110 4
0+
b111111011110101011011011111011111111110111101010110110111110 *
b100 3
b11111101111010101101101111101111 2
0'
b111111011110101011011011111011111111110111101010110110111110 (
b111111011110101011011011111011111111110111101010110110111110 0
b100 $
b100 .
b1111110111101010110110111110111111111101111010101101101111101111 #
b1111110111101010110110111110111111111101111010101101101111101111 -
#320000
b1111110111101010110110111110 *
1"
#330000
1%
b11110110100 3
b0 2
b1111111111111111111111111111111111111111111111111111111111111111 (
b1111111111111111111111111111111111111111111111111111111111111111 0
b0 &
b0 4
b1111111111111111111111111111111111111111111111111111111111111111 *
b11110110100 $
b11110110100 .
b1000000000000000000000000000000000000000000000000000000000000000 #
b1000000000000000000000000000000000000000000000000000000000000000 -
0"
b1001 !
b1001 ,
b1001 1
#340000
1+
b0 *
b111100100100011 3
1'
b0 (
b0 0
b111100100100011 $
b111100100100011 .
b0 #
b0 -
#350000
0%
b11111101111010101101101111101110 &
b11111101111010101101101111101110 4
0+
b1111111111011110101011011011111011111101111010101101101111101110 *
b100 3
b11011110101011011011111011101111 2
0'
b1111111111011110101011011011111011111101111010101101101111101110 (
b1111111111011110101011011011111011111101111010101101101111101110 0
b100 $
b100 .
b1111110111101010110110111110111111011110101011011011111011101111 #
b1111110111101010110110111110111111011110101011011011111011101111 -
#360000
b1111111111111111111111111111111111111101111010101101101111101110 *
1"
#370000
1+
b0 *
b1111111100000000111111110000 2
b11111111111111111111111111111111 3
b1111000000001111111100000000111111110000000011111111000000001111 (
b1111000000001111111100000000111111110000000011111111000000001111 0
1%
b0 &
b0 4
b111111110000000011111111000000001111111100000000111111110000 #
b111111110000000011111111000000001111111100000000111111110000 -
b1111111111111111111111111111111111111111111111111111111111111111 $
b1111111111111111111111111111111111111111111111111111111111111111 .
b11110 !
b11110 ,
b11110 1
#380000
b1111000000100101010111010110101 2
b1000011111101101010100010100101010000111111011010101000101001010 (
b1000011111101101010100010100101010000111111011010101000101001010 0
b111100000010010101011101011010101111000000100101010111010110101 #
b111100000010010101011101011010101111000000100101010111010110101 -
#390000
b11111111111111111111111111111111 2
1'
b0 (
b0 0
b1111111111111111111111111111111111111111111111111111111111111111 #
b1111111111111111111111111111111111111111111111111111111111111111 -
#400000
b11001010111111101011101010111110 3
b11011110101011011011111011101111 2
b1100101011111110101110101011111011001010111111101011101010111110 $
b1100101011111110101110101011111011001010111111101011101010111110 .
b1101111010101101101111101110111111011110101011011011111011101111 #
b1101111010101101101111101110111111011110101011011011111011101111 -
b11111 !
b11111 ,
b11111 1
#410000
b10001100001 3
b11110110100 2
b10001100001 $
b10001100001 .
b11110110100 #
b11110110100 -
#420000
b111100100100011 3
b111100100100011 2
b111100100100011 $
b111100100100011 .
b111100100100011 #
b111100100100011 -
