testbenches/results/waveforms/ALU_tb_result.vcd
$date
	Wed Jan 14 16:03:52 2026
$end
$version
	Icarus Verilog
$end
$timescale
	1ps
$end
$scope module ALU_tb $end
$scope module dut $end
$var wire 5 ! alu_op [4:0] $end
$var wire 1 " input_size_word $end
$var wire 64 # src_A [63:0] $end
$var wire 64 $ src_B [63:0] $end
$var wire 32 % prod_low_word [31:0] $end
$var wire 64 & prod_low_dword [63:0] $end
$var wire 32 ' prod_high_word [31:0] $end
$var wire 64 ( prod_high_dword [63:0] $end
$var wire 1 ) alu_word_zero $end
$var wire 32 * alu_word_result [31:0] $end
$var wire 1 + alu_dword_zero $end
$var wire 64 , alu_dword_result [63:0] $end
$var parameter 32 - XLEN $end
$var reg 64 . alu_result [63:0] $end
$var reg 1 / alu_zero $end
$scope module alu_dword $end
$var wire 5 0 alu_op [4:0] $end
$var wire 64 1 src_A [63:0] $end
$var wire 64 2 src_B [63:0] $end
$var parameter 32 3 XLEN $end
$var reg 64 4 alu_result [63:0] $end
$var reg 1 + alu_zero $end
$upscope $end
$scope module alu_word $end
$var wire 5 5 alu_op [4:0] $end
$var wire 32 6 src_A [31:0] $end
$var wire 32 7 src_B [31:0] $end
$var reg 32 8 alu_result [31:0] $end
$var reg 1 ) alu_zero $end
$upscope $end
$scope module multiplier_dword $end
$var wire 1 9 signed_A $end
$var wire 1 : signed_B $end
$var wire 64 ; src_A [63:0] $end
$var wire 64 < src_B [63:0] $end
$var wire 128 = unsigned_sum [127:0] $end
$var wire 128 > sum [127:0] $end
$var wire 64 ? prod_low [63:0] $end
$var wire 64 @ prod_high [63:0] $end
$var wire 32 A prod_ALBL_low [31:0] $end
$var wire 32 B prod_ALBL_high [31:0] $end
$var wire 64 C prod_ALBL [63:0] $end
$var wire 32 D prod_ALBH_low [31:0] $end
$var wire 32 E prod_ALBH_high [31:0] $end
$var wire 64 F prod_ALBH [63:0] $end
$var wire 32 G prod_AHBL_low [31:0] $end
$var wire 32 H prod_AHBL_high [31:0] $end
$var wire 64 I prod_AHBL [63:0] $end
$var wire 32 J prod_AHBH_low [31:0] $end
$var wire 32 K prod_AHBH_high [31:0] $end
$var wire 64 L prod_AHBH [63:0] $end
$var wire 64 M abs_src_B [63:0] $end
$var wire 64 N abs_src_A [63:0] $end
$scope module ahbh $end
$var wire 32 O abs_src_A [31:0] $end
$var wire 32 P abs_src_B [31:0] $end
$var wire 1 Q signed_A $end
$var wire 1 R signed_B $end
$var wire 32 S src_A [31:0] $end
$var wire 32 T src_B [31:0] $end
$var wire 64 U prod_unsigned [63:0] $end
$var wire 32 V prod_low [31:0] $end
$var wire 32 W prod_high [31:0] $end
$var wire 64 X prod [63:0] $end
$upscope $end
$scope module ahbl $end
$var wire 32 Y abs_src_A [31:0] $end
$var wire 32 Z abs_src_B [31:0] $end
$var wire 1 [ signed_A $end
$var wire 1 \ signed_B $end
$var wire 32 ] src_A [31:0] $end
$var wire 32 ^ src_B [31:0] $end
$var wire 64 _ prod_unsigned [63:0] $end
$var wire 32 ` prod_low [31:0] $end
$var wire 32 a prod_high [31:0] $end
$var wire 64 b prod [63:0] $end
$upscope $end
$scope module albh $end
$var wire 32 c abs_src_A [31:0] $end
$var wire 32 d abs_src_B [31:0] $end
$var wire 1 e signed_A $end
$var wire 1 f signed_B $end
$var wire 32 g src_A [31:0] $end
$var wire 32 h src_B [31:0] $end
$var wire 64 i prod_unsigned [63:0] $end
$var wire 32 j prod_low [31:0] $end
$var wire 32 k prod_high [31:0] $end
$var wire 64 l prod [63:0] $end
$upscope $end
$scope module albl $end
$var wire 32 m abs_src_A [31:0] $end
$var wire 32 n abs_src_B [31:0] $end
$var wire 1 o signed_A $end
$var wire 1 p signed_B $end
$var wire 32 q src_A [31:0] $end
$var wire 32 r src_B [31:0] $end
$var wire 64 s prod_unsigned [63:0] $end
$var wire 32 t prod_low [31:0] $end
$var wire 32 u prod_high [31:0] $end
$var wire 64 v prod [63:0] $end
$upscope $end
$upscope $end
$scope module multiplier_word $end
$var wire 1 w signed_A $end
$var wire 1 x signed_B $end
$var wire 32 y src_A [31:0] $end
$var wire 32 z src_B [31:0] $end
$var wire 64 { prod_unsigned [63:0] $end
$var wire 32 | prod_low [31:0] $end
$var wire 32 } prod_high [31:0] $end
$var wire 64 ~ prod [63:0] $end
$var wire 32 !" abs_src_B [31:0] $end
$var wire 32 "" abs_src_A [31:0] $end
$upscope $end
$upscope $end
$upscope $end
$enddefinitions $end
$comment Show the parameter values. $end
$dumpall
b1000000 3
b1000000 -
$end
#0
$dumpvars
b0 ""
b0 !"
b0 ~
b0 }
b0 |
b0 {
b0 z
b0 y
0x
0w
b0 v
b0 u
b0 t
b0 s
b0 r
b0 q
0p
0o
b0 n
b0 m
b0 l
b0 k
b0 j
b0 i
b0 h
b0 g
0f
0e
b0 d
b0 c
b0 b
b0 a
b0 `
b0 _
b0 ^
b0 ]
0\
0[
b0 Z
b0 Y
b0 X
b0 W
b0 V
b0 U
b0 T
b0 S
0R
0Q
b0 P
b0 O
b0 N
b0 M
b0 L
b0 K
b0 J
b0 I
b0 H
b0 G
b0 F
b0 E
b0 D
b0 C
b0 B
b0 A
b0 @
b0 ?
b0 >
b0 =
b0 <
b0 ;
0:
09
b0 8
b0 7
b0 6
b0 5
b0 4
b0 2
b0 1
b0 0
1/
b0 .
b0 ,
1+
b0 *
1)
b0 (
b0 '
b0 &
b0 %
b0 $
b0 #
0"
b0 !
$end
#10000
b111101000010010000000 &
b111101000010010000000 ?
b111101000010010000000 >
b111101000010010000000 %
b111101000010010000000 |
b111101000010010000000 =
b111101000010010000000 C
b111101000010010000000 A
b111101000010010000000 t
b111101000010010000000 ~
b111101000010010000000 v
b111101000010010000000 {
b11111010000 !"
b11111010000 Z
b11111010000 ^
b111101000010010000000 s
b11111010000 n
b11111010000 r
0)
b101110111000 *
b101110111000 8
b1111101000 ""
0/
b101110111000 .
b1111101000 c
b1111101000 g
b1111101000 m
b1111101000 q
b11111010000 7
b11111010000 z
b11111010000 M
b1111101000 6
b1111101000 y
0+
b101110111000 ,
b101110111000 4
b1111101000 N
b11111010000 $
b11111010000 2
b11111010000 <
b1111101000 #
b1111101000 1
b1111101000 ;
#20000
b1000011011101100110100 &
b1000011011101100110100 ?
b1000011011101100110100 >
b1000011011101100110100 %
b1000011011101100110100 |
b1000011011101100110100 =
b1000011011101100110100 C
b1000011011101100110100 A
b1000011011101100110100 t
b1000011011101100110100 ~
b1000011011101100110100 v
b10001100001 !"
b10001100001 Z
b10001100001 ^
b10001100001 n
b10001100001 r
b110000010101 *
b110000010101 8
b1000011011101100110100 {
b11110110100 ""
b110000010101 .
b11110110100 c
b11110110100 g
b1000011011101100110100 s
b11110110100 m
b11110110100 q
b10001100001 7
b10001100001 z
b10001100001 M
b11110110100 6
b11110110100 y
b110000010101 ,
b110000010101 4
b11110110100 N
b10001100001 $
b10001100001 2
b10001100001 <
b11110110100 #
b11110110100 1
b11110110100 ;
#30000
b111011011000011000100000111111111101110001110101000011111110 (
b111011011000011000100000111111111101110001110101000011111110 @
b1100111100000101011110111100110111100000000101101000110011011111 &
b1100111100000101011110111100110111100000000101101000110011011111 ?
b1110110110000110001000001111111111011100011101010000111111101100111100000101011110111100110111100000000101101000110011011111 >
b1110110110000110001000001111 K
b1110110110000110001000001111 W
b111011011000011000100000111111100000000101101000110011011111 L
b11100000000101101000110011011111 J
b11100000000101101000110011011111 V
b1110110110000110001000001111 E
b1110110110000110001000001111 k
b111011011000011000100000111111100000000101101000110011011111 F
b11100000000101101000110011011111 D
b11100000000101101000110011011111 j
b1110110110000110001000001111 '
b1110110110000110001000001111 }
b11100000000101101000110011011111 %
b11100000000101101000110011011111 |
b1110110110000110001000001111 H
b1110110110000110001000001111 a
b111011011000011000100000111111100000000101101000110011011111 I
b11100000000101101000110011011111 G
b11100000000101101000110011011111 `
b1110110110000110001000001111 B
b1110110110000110001000001111 u
b1110110110000110001000001111111111011100011101010000111111101100111100000101011110111100110111100000000101101000110011011111 =
b111011011000011000100000111111100000000101101000110011011111 C
b11100000000101101000110011011111 A
b11100000000101101000110011011111 t
b111011011000011000100000111111100000000101101000110011011111 X
b111011011000011000100000111111100000000101101000110011011111 l
b111011011000011000100000111111100000000101101000110011011111 ~
b111011011000011000100000111111100000000101101000110011011111 b
b111011011000011000100000111111100000000101101000110011011111 v
b10001000100010001000100010001 !"
b111011011000011000100000111111100000000101101000110011011111 U
b10001000100010001000100010001 P
b10001000100010001000100010001 T
b10001000100010001000100010001 Z
b10001000100010001000100010001 ^
b111011011000011000100000111111100000000101101000110011011111 i
b10001000100010001000100010001 d
b10001000100010001000100010001 h
b10001000100010001000100010001 n
b10001000100010001000100010001 r
b11101111101111101101000000000000 *
b11101111101111101101000000000000 8
b111011011000011000100000111111100000000101101000110011011111 {
b11011110101011011011111011101111 ""
b1110111110111110110100000000000011101111101111101101000000000000 .
b11011110101011011011111011101111 O
b11011110101011011011111011101111 S
b111011011000011000100000111111100000000101101000110011011111 _
b11011110101011011011111011101111 Y
b11011110101011011011111011101111 ]
b11011110101011011011111011101111 c
b11011110101011011011111011101111 g
b111011011000011000100000111111100000000101101000110011011111 s
b11011110101011011011111011101111 m
b11011110101011011011111011101111 q
b10001000100010001000100010001 7
b10001000100010001000100010001 z
b1000100010001000100010001000100010001000100010001000100010001 M
b11011110101011011011111011101111 6
b11011110101011011011111011101111 y
b1110111110111110110100000000000011101111101111101101000000000000 ,
b1110111110111110110100000000000011101111101111101101000000000000 4
b1101111010101101101111101110111111011110101011011011111011101111 N
b1000100010001000100010001000100010001000100010001000100010001 $
b1000100010001000100010001000100010001000100010001000100010001 2
b1000100010001000100010001000100010001000100010001000100010001 <
b1101111010101101101111101110111111011110101011011011111011101111 #
b1101111010101101101111101110111111011110101011011011111011101111 1
b1101111010101101101111101110111111011110101011011011111011101111 ;
#40000
b1111111111111111111111111111111111101111101111101101000000000000 .
1"
#50000
b0 (
b0 @
b1000011011101100110100 &
b1000011011101100110100 ?
b1000011011101100110100 >
b0 '
b0 }
b1000011011101100110100 %
b1000011011101100110100 |
b0 K
b0 W
b0 L
b0 J
b0 V
b0 H
b0 a
b0 I
b0 G
b0 `
b0 E
b0 k
b0 F
b0 D
b0 j
b0 B
b0 u
b1000011011101100110100 =
b1000011011101100110100 C
b1000011011101100110100 A
b1000011011101100110100 t
b1000011011101100110100 ~
b0 X
b0 b
b0 l
b1000011011101100110100 v
b10001100001 !"
b0 P
b0 T
b10001100001 Z
b10001100001 ^
b0 d
b0 h
b10001100001 n
b10001100001 r
b1000011011101100110100 {
b11110110100 ""
b0 U
b0 O
b0 S
b0 _
b0 Y
b0 ]
b0 i
b11110110100 c
b11110110100 g
b1000011011101100110100 s
b11110110100 m
b11110110100 q
b10001100001 7
b10001100001 z
b10001100001 M
b11110110100 6
b11110110100 y
b11110110100 N
b1101010011 ,
b1101010011 4
b1101010011 *
b1101010011 8
b1101010011 .
b10001100001 $
b10001100001 2
b10001100001 <
b11110110100 #
b11110110100 1
b11110110100 ;
0"
b1 !
b1 0
b1 5
#60000
b1110000100 &
b1110000100 ?
b1110000100 >
b1110000100 %
b1110000100 |
b1110000100 =
b1110000100 C
b1110000100 A
b1110000100 t
b1110000100 ~
b1110000100 v
b11110 !"
b11110 Z
b11110 ^
b11110 n
b11110 r
1)
b0 *
b0 8
b1110000100 {
b11110 ""
1/
b0 .
b11110 c
b11110 g
b1110000100 s
b11110 m
b11110 q
b11110 7
b11110 z
b11110 M
b11110 6
b11110 y
1+
b0 ,
b0 4
b11110 N
b11110 $
b11110 2
b11110 <
b11110 #
b11110 1
b11110 ;
#70000
b11001000 &
b11001000 ?
b11001000 >
b11001000 %
b11001000 |
b11001000 =
b11001000 C
b11001000 A
b11001000 t
b11001000 ~
b11001000 v
b10100 !"
b10100 Z
b10100 ^
b10100 n
b10100 r
0)
b11111111111111111111111111110110 *
b11111111111111111111111111110110 8
b11001000 {
b1010 ""
0/
b1111111111111111111111111111111111111111111111111111111111110110 .
b1010 c
b1010 g
b11001000 s
b1010 m
b1010 q
b10100 7
b10100 z
b10100 M
b1010 6
b1010 y
0+
b1111111111111111111111111111111111111111111111111111111111110110 ,
b1111111111111111111111111111111111111111111111111111111111110110 4
b1010 N
b10100 $
b10100 2
b10100 <
b1010 #
b1010 1
b1010 ;
#80000
b1000010110110110111011001010000100111000100001111001011 (
b1000010110110110111011001010000100111000100001111001011 @
b1010000001101111111101010011010001010000000101101000110011011111 &
b1010000001101111111101010011010001010000000101101000110011011111 ?
b10000101101101101110110010100001001110001000011110010111010000001101111111101010011010001010000000101101000110011011111 >
b10000101101101101110110 K
b10000101101101101110110 W
b1000010110110110111011001010000000101101000110011011111 L
b1010000000101101000110011011111 J
b1010000000101101000110011011111 V
b10000101101101101110110 E
b10000101101101101110110 k
b1000010110110110111011001010000000101101000110011011111 F
b1010000000101101000110011011111 D
b1010000000101101000110011011111 j
b10000101101101101110110 '
b10000101101101101110110 }
b1010000000101101000110011011111 %
b1010000000101101000110011011111 |
b10000101101101101110110 H
b10000101101101101110110 a
b1000010110110110111011001010000000101101000110011011111 I
b1010000000101101000110011011111 G
b1010000000101101000110011011111 `
b10000101101101101110110 B
b10000101101101101110110 u
b10000101101101101110110010100001001110001000011110010111010000001101111111101010011010001010000000101101000110011011111 =
b1000010110110110111011001010000000101101000110011011111 C
b1010000000101101000110011011111 A
b1010000000101101000110011011111 t
b1000010110110110111011001010000000101101000110011011111 X
b1000010110110110111011001010000000101101000110011011111 l
b1000010110110110111011001010000000101101000110011011111 ~
b1000010110110110111011001010000000101101000110011011111 b
b1000010110110110111011001010000000101101000110011011111 v
b111110101011011011111011101111 !"
b1000010110110110111011001010000000101101000110011011111 U
b111110101011011011111011101111 P
b111110101011011011111011101111 T
b111110101011011011111011101111 Z
b111110101011011011111011101111 ^
b1000010110110110111011001010000000101101000110011011111 i
b111110101011011011111011101111 d
b111110101011011011111011101111 h
b111110101011011011111011101111 n
b111110101011011011111011101111 r
b11000010011000110101001000100010 *
b11000010011000110101001000100010 8
b1000010110110110111011001010000000101101000110011011111 {
b1000100010001000100010001 ""
b1100001001100011010100100010000111000010011000110101001000100010 .
b1000100010001000100010001 O
b1000100010001000100010001 S
b1000010110110110111011001010000000101101000110011011111 _
b1000100010001000100010001 Y
b1000100010001000100010001 ]
b1000100010001000100010001 c
b1000100010001000100010001 g
b1000010110110110111011001010000000101101000110011011111 s
b1000100010001000100010001 m
b1000100010001000100010001 q
b111110101011011011111011101111 7
b111110101011011011111011101111 z
b11111010101101101111101110111100111110101011011011111011101111 M
b1000100010001000100010001 6
b1000100010001000100010001 y
b1100001001100011010100100010000111000010011000110101001000100010 ,
b1100001001100011010100100010000111000010011000110101001000100010 4
b100010001000100010001000100000001000100010001000100010001 N
b11111010101101101111101110111100111110101011011011111011101111 $
b11111010101101101111101110111100111110101011011011111011101111 2
b11111010101101101111101110111100111110101011011011111011101111 <
b100010001000100010001000100000001000100010001000100010001 #
b100010001000100010001000100000001000100010001000100010001 1
b100010001000100010001000100000001000100010001000100010001 ;
#90000
b1111111111111111111111111111111111000010011000110101001000100010 .
1"
#100000
b111000101100010010100110100010000110101001001100001011100000 (
b111000101100010010100110100010000110101001001100001011100000 @
b1110001011000100101001101000100001101010010011000010111000010000 &
b1110001011000100101001101000100001101010010011000010111000010000 ?
b1110001011000100101001101000100001101010010011000010111000001110001011000100101001101000100001101010010011000010111000010000 >
b1110001011000100101001101000 '
b1110001011000100101001101000 }
b1101010010011000010111000010000 %
b1101010010011000010111000010000 |
b1110001011000100101001101000 K
b1110001011000100101001101000 W
b111000101100010010100110100001101010010011000010111000010000 L
b1101010010011000010111000010000 J
b1101010010011000010111000010000 V
b1110001011000100101001101000 H
b1110001011000100101001101000 a
b111000101100010010100110100001101010010011000010111000010000 I
b1101010010011000010111000010000 G
b1101010010011000010111000010000 `
b1110001011000100101001101000 E
b1110001011000100101001101000 k
b111000101100010010100110100001101010010011000010111000010000 F
b1101010010011000010111000010000 D
b1101010010011000010111000010000 j
b1110001011000100101001101000 B
b1110001011000100101001101000 u
b1110001011000100101001101000100001101010010011000010111000001110001011000100101001101000100001101010010011000010111000010000 =
b111000101100010010100110100001101010010011000010111000010000 C
b1101010010011000010111000010000 A
b1101010010011000010111000010000 t
b111000101100010010100110100001101010010011000010111000010000 ~
b111000101100010010100110100001101010010011000010111000010000 X
b111000101100010010100110100001101010010011000010111000010000 b
b111000101100010010100110100001101010010011000010111000010000 l
b111000101100010010100110100001101010010011000010111000010000 v
b1111000011110000111100001111 !"
b1111000011110000111100001111 P
b1111000011110000111100001111 T
b1111000011110000111100001111 Z
b1111000011110000111100001111 ^
b1111000011110000111100001111 d
b1111000011110000111100001111 h
b1111000011110000111100001111 n
b1111000011110000111100001111 r
b111000101100010010100110100001101010010011000010111000010000 {
b11110000111100001111000011110000 ""
b111000101100010010100110100001101010010011000010111000010000 U
b11110000111100001111000011110000 O
b11110000111100001111000011110000 S
b111000101100010010100110100001101010010011000010111000010000 _
b11110000111100001111000011110000 Y
b11110000111100001111000011110000 ]
b111000101100010010100110100001101010010011000010111000010000 i
b11110000111100001111000011110000 c
b11110000111100001111000011110000 g
b111000101100010010100110100001101010010011000010111000010000 s
b11110000111100001111000011110000 m
b11110000111100001111000011110000 q
1/
b1111000011110000111100001111 7
b1111000011110000111100001111 z
b111100001111000011110000111100001111000011110000111100001111 M
b11110000111100001111000011110000 6
b11110000111100001111000011110000 y
b1111000011110000111100001111000011110000111100001111000011110000 N
1+
b0 ,
b0 4
1)
b0 *
b0 8
b0 .
b111100001111000011110000111100001111000011110000111100001111 $
b111100001111000011110000111100001111000011110000111100001111 2
b111100001111000011110000111100001111000011110000111100001111 <
b1111000011110000111100001111000011110000111100001111000011110000 #
b1111000011110000111100001111000011110000111100001111000011110000 1
b1111000011110000111100001111000011110000111100001111000011110000 ;
0"
b10 !
b10 0
b10 5
#110000
b111100001111000000000000000000001111000011101111111111111111 (
b111100001111000000000000000000001111000011101111111111111111 @
b1111000011110000111111111111111111110000111100010000000000000000 &
b1111000011110000111111111111111111110000111100010000000000000000 ?
b1111000011110000000000000000000011110000111011111111111111111111000011110000111111111111111111110000111100010000000000000000 >
b1111000011101111111111111111 '
b1111000011101111111111111111 }
b11110000111100010000000000000000 %
b11110000111100010000000000000000 |
b1111000011101111111111111111 K
b1111000011101111111111111111 W
b111100001110111111111111111111110000111100010000000000000000 L
b11110000111100010000000000000000 J
b11110000111100010000000000000000 V
b1111000011101111111111111111 H
b1111000011101111111111111111 a
b111100001110111111111111111111110000111100010000000000000000 I
b11110000111100010000000000000000 G
b11110000111100010000000000000000 `
b1111000011101111111111111111 E
b1111000011101111111111111111 k
b111100001110111111111111111111110000111100010000000000000000 F
b11110000111100010000000000000000 D
b11110000111100010000000000000000 j
b1111000011101111111111111111 B
b1111000011101111111111111111 u
b1111000011110000000000000000000011110000111011111111111111111111000011110000111111111111111111110000111100010000000000000000 =
b111100001110111111111111111111110000111100010000000000000000 C
b11110000111100010000000000000000 A
b11110000111100010000000000000000 t
b111100001110111111111111111111110000111100010000000000000000 ~
b111100001110111111111111111111110000111100010000000000000000 X
b111100001110111111111111111111110000111100010000000000000000 b
b111100001110111111111111111111110000111100010000000000000000 l
b111100001110111111111111111111110000111100010000000000000000 v
b111100001110111111111111111111110000111100010000000000000000 {
b11111111111111110000000000000000 ""
0/
b111100001111000000000000000000001111000011110000000000000000 .
b111100001110111111111111111111110000111100010000000000000000 U
b11111111111111110000000000000000 O
b11111111111111110000000000000000 S
b111100001110111111111111111111110000111100010000000000000000 _
b11111111111111110000000000000000 Y
b11111111111111110000000000000000 ]
b111100001110111111111111111111110000111100010000000000000000 i
b11111111111111110000000000000000 c
b11111111111111110000000000000000 g
b111100001110111111111111111111110000111100010000000000000000 s
b11111111111111110000000000000000 m
b11111111111111110000000000000000 q
b11111111111111110000000000000000 6
b11111111111111110000000000000000 y
0+
b111100001111000000000000000000001111000011110000000000000000 ,
b111100001111000000000000000000001111000011110000000000000000 4
b1111111111111111000000000000000011111111111111110000000000000000 N
b1111111111111111000000000000000011111111111111110000000000000000 #
b1111111111111111000000000000000011111111111111110000000000000000 1
b1111111111111111000000000000000011111111111111110000000000000000 ;
#120000
b110111110001011110110000100100001001101011010011011011000100101 (
b110111110001011110110000100100001001101011010011011011000100101 @
b100110000101111111000110111001101101110010100100000010110010110 &
b100110000101111111000110111001101101110010100100000010110010110 ?
b1101111100010111101100001001000010011010110100110110110001001010100110000101111111000110111001101101110010100100000010110010110 >
b1101111100010111101100001000111 '
b1101111100010111101100001000111 }
b1101110010100100000010110010110 %
b1101110010100100000010110010110 |
b1101111100010111101100001000111 K
b1101111100010111101100001000111 W
b110111110001011110110000100011101101110010100100000010110010110 L
b1101110010100100000010110010110 J
b1101110010100100000010110010110 V
b1101111100010111101100001000111 H
b1101111100010111101100001000111 a
b110111110001011110110000100011101101110010100100000010110010110 I
b1101110010100100000010110010110 G
b1101110010100100000010110010110 `
b1101111100010111101100001000111 E
b1101111100010111101100001000111 k
b110111110001011110110000100011101101110010100100000010110010110 F
b1101110010100100000010110010110 D
b1101110010100100000010110010110 j
b1101111100010111101100001000111 B
b1101111100010111101100001000111 u
b1101111100010111101100001001000010011010110100110110110001001010100110000101111111000110111001101101110010100100000010110010110 =
b110111110001011110110000100011101101110010100100000010110010110 C
b1101110010100100000010110010110 A
b1101110010100100000010110010110 t
b110111110001011110110000100011101101110010100100000010110010110 ~
b110111110001011110110000100011101101110010100100000010110010110 X
b110111110001011110110000100011101101110010100100000010110010110 b
b110111110001011110110000100011101101110010100100000010110010110 l
b110111110001011110110000100011101101110010100100000010110010110 v
b11101111000001110001100010011010 !"
b11101111000001110001100010011010 P
b11101111000001110001100010011010 T
b11101111000001110001100010011010 Z
b11101111000001110001100010011010 ^
b11101111000001110001100010011010 d
b11101111000001110001100010011010 h
b11101111000001110001100010011010 n
b11101111000001110001100010011010 r
b110111110001011110110000100011101101110010100100000010110010110 {
b1110111011101110111011101110111 ""
b110011100000111000100000001001001100111000001110001000000010010 .
b110111110001011110110000100011101101110010100100000010110010110 U
b1110111011101110111011101110111 O
b1110111011101110111011101110111 S
b110111110001011110110000100011101101110010100100000010110010110 _
b1110111011101110111011101110111 Y
b1110111011101110111011101110111 ]
b110111110001011110110000100011101101110010100100000010110010110 i
b1110111011101110111011101110111 c
b1110111011101110111011101110111 g
b110111110001011110110000100011101101110010100100000010110010110 s
b1110111011101110111011101110111 m
b1110111011101110111011101110111 q
b11101111000001110001100010011010 7
b11101111000001110001100010011010 z
b1110111100000111000110001001101011101111000001110001100010011010 M
b1110111011101110111011101110111 6
b1110111011101110111011101110111 y
b110011100000111000100000001001001100111000001110001000000010010 ,
b110011100000111000100000001001001100111000001110001000000010010 4
b111011101110111011101110111011101110111011101110111011101110111 N
b1110111100000111000110001001101011101111000001110001100010011010 $
b1110111100000111000110001001101011101111000001110001100010011010 2
b1110111100000111000110001001101011101111000001110001100010011010 <
b111011101110111011101110111011101110111011101110111011101110111 #
b111011101110111011101110111011101110111011101110111011101110111 1
b111011101110111011101110111011101110111011101110111011101110111 ;
#130000
b0 (
b0 @
b0 &
b0 ?
b0 >
b0 '
b0 }
b0 %
b0 |
b0 K
b0 W
b0 L
b0 J
b0 V
b0 H
b0 a
b0 I
b0 G
b0 `
b0 E
b0 k
b0 F
b0 D
b0 j
b0 B
b0 u
b0 =
b0 C
b0 A
b0 t
b0 ~
b0 X
b0 b
b0 l
b0 v
b0 !"
b0 P
b0 T
b0 Z
b0 ^
b0 d
b0 h
b0 n
b0 r
b0 {
b0 ""
b0 U
b0 O
b0 S
b0 _
b0 Y
b0 ]
b0 i
b0 c
b0 g
b0 s
b0 m
b0 q
1/
b0 .
b0 7
b0 z
b0 M
b0 6
b0 y
b0 N
1+
b0 ,
b0 4
b0 $
b0 2
b0 <
b0 #
b0 1
b0 ;
b11 !
b11 0
b11 5
#140000
b111000101100010010100110100010000110101001001100001011100000 (
b111000101100010010100110100010000110101001001100001011100000 @
b1110001011000100101001101000100001101010010011000010111000010000 &
b1110001011000100101001101000100001101010010011000010111000010000 ?
b1110001011000100101001101000100001101010010011000010111000001110001011000100101001101000100001101010010011000010111000010000 >
b1110001011000100101001101000 '
b1110001011000100101001101000 }
b1101010010011000010111000010000 %
b1101010010011000010111000010000 |
b1110001011000100101001101000 K
b1110001011000100101001101000 W
b111000101100010010100110100001101010010011000010111000010000 L
b1101010010011000010111000010000 J
b1101010010011000010111000010000 V
b1110001011000100101001101000 H
b1110001011000100101001101000 a
b111000101100010010100110100001101010010011000010111000010000 I
b1101010010011000010111000010000 G
b1101010010011000010111000010000 `
b1110001011000100101001101000 E
b1110001011000100101001101000 k
b111000101100010010100110100001101010010011000010111000010000 F
b1101010010011000010111000010000 D
b1101010010011000010111000010000 j
b1110001011000100101001101000 B
b1110001011000100101001101000 u
b1110001011000100101001101000100001101010010011000010111000001110001011000100101001101000100001101010010011000010111000010000 =
b111000101100010010100110100001101010010011000010111000010000 C
b1101010010011000010111000010000 A
b1101010010011000010111000010000 t
b111000101100010010100110100001101010010011000010111000010000 ~
b111000101100010010100110100001101010010011000010111000010000 X
b111000101100010010100110100001101010010011000010111000010000 b
b111000101100010010100110100001101010010011000010111000010000 l
b111000101100010010100110100001101010010011000010111000010000 v
b111000101100010010100110100001101010010011000010111000010000 {
b1111000011110000111100001111 !"
b111000101100010010100110100001101010010011000010111000010000 U
b1111000011110000111100001111 P
b1111000011110000111100001111 T
b111000101100010010100110100001101010010011000010111000010000 _
b1111000011110000111100001111 Z
b1111000011110000111100001111 ^
b111000101100010010100110100001101010010011000010111000010000 i
b1111000011110000111100001111 d
b1111000011110000111100001111 h
b111000101100010010100110100001101010010011000010111000010000 s
b1111000011110000111100001111 n
b1111000011110000111100001111 r
b11110000111100001111000011110000 ""
0/
b1111111111111111111111111111111111111111111111111111111111111111 .
b11110000111100001111000011110000 O
b11110000111100001111000011110000 S
b11110000111100001111000011110000 Y
b11110000111100001111000011110000 ]
b11110000111100001111000011110000 c
b11110000111100001111000011110000 g
b11110000111100001111000011110000 m
b11110000111100001111000011110000 q
b1111000011110000111100001111 7
b1111000011110000111100001111 z
b111100001111000011110000111100001111000011110000111100001111 M
b11110000111100001111000011110000 6
b11110000111100001111000011110000 y
0+
b1111111111111111111111111111111111111111111111111111111111111111 ,
b1111111111111111111111111111111111111111111111111111111111111111 4
b1111000011110000111100001111000011110000111100001111000011110000 N
b111100001111000011110000111100001111000011110000111100001111 $
b111100001111000011110000111100001111000011110000111100001111 2
b111100001111000011110000111100001111000011110000111100001111 <
b1111000011110000111100001111000011110000111100001111000011110000 #
b1111000011110000111100001111000011110000111100001111000011110000 1
b1111000011110000111100001111000011110000111100001111000011110000 ;
#150000
b110111110001011110110000100100001001101011010011011011000100101 (
b110111110001011110110000100100001001101011010011011011000100101 @
b100110000101111111000110111001101101110010100100000010110010110 &
b100110000101111111000110111001101101110010100100000010110010110 ?
b1101111100010111101100001001000010011010110100110110110001001010100110000101111111000110111001101101110010100100000010110010110 >
b1101111100010111101100001000111 '
b1101111100010111101100001000111 }
b1101110010100100000010110010110 %
b1101110010100100000010110010110 |
b1101111100010111101100001000111 K
b1101111100010111101100001000111 W
b110111110001011110110000100011101101110010100100000010110010110 L
b1101110010100100000010110010110 J
b1101110010100100000010110010110 V
b1101111100010111101100001000111 H
b1101111100010111101100001000111 a
b110111110001011110110000100011101101110010100100000010110010110 I
b1101110010100100000010110010110 G
b1101110010100100000010110010110 `
b1101111100010111101100001000111 E
b1101111100010111101100001000111 k
b110111110001011110110000100011101101110010100100000010110010110 F
b1101110010100100000010110010110 D
b1101110010100100000010110010110 j
b1101111100010111101100001000111 B
b1101111100010111101100001000111 u
b1101111100010111101100001001000010011010110100110110110001001010100110000101111111000110111001101101110010100100000010110010110 =
b110111110001011110110000100011101101110010100100000010110010110 C
b1101110010100100000010110010110 A
b1101110010100100000010110010110 t
b110111110001011110110000100011101101110010100100000010110010110 ~
b110111110001011110110000100011101101110010100100000010110010110 X
b110111110001011110110000100011101101110010100100000010110010110 b
b110111110001011110110000100011101101110010100100000010110010110 l
b110111110001011110110000100011101101110010100100000010110010110 v
b11101111000001110001100010011010 !"
b11101111000001110001100010011010 P
b11101111000001110001100010011010 T
b11101111000001110001100010011010 Z
b11101111000001110001100010011010 ^
b11101111000001110001100010011010 d
b11101111000001110001100010011010 h
b11101111000001110001100010011010 n
b11101111000001110001100010011010 r
b110111110001011110110000100011101101110010100100000010110010110 {
b1110111011101110111011101110111 ""
b1111111101110111011111111111111111111111011101110111111111111111 .
b110111110001011110110000100011101101110010100100000010110010110 U
b1110111011101110111011101110111 O
b1110111011101110111011101110111 S
b110111110001011110110000100011101101110010100100000010110010110 _
b1110111011101110111011101110111 Y
b1110111011101110111011101110111 ]
b110111110001011110110000100011101101110010100100000010110010110 i
b1110111011101110111011101110111 c
b1110111011101110111011101110111 g
b110111110001011110110000100011101101110010100100000010110010110 s
b1110111011101110111011101110111 m
b1110111011101110111011101110111 q
b11101111000001110001100010011010 7
b11101111000001110001100010011010 z
b1110111100000111000110001001101011101111000001110001100010011010 M
b1110111011101110111011101110111 6
b1110111011101110111011101110111 y
b1111111101110111011111111111111111111111011101110111111111111111 ,
b1111111101110111011111111111111111111111011101110111111111111111 4
b111011101110111011101110111011101110111011101110111011101110111 N
b1110111100000111000110001001101011101111000001110001100010011010 $
b1110111100000111000110001001101011101111000001110001100010011010 2
b1110111100000111000110001001101011101111000001110001100010011010 <
b111011101110111011101110111011101110111011101110111011101110111 #
b111011101110111011101110111011101110111011101110111011101110111 1
b111011101110111011101110111011101110111011101110111011101110111 ;
