testbenches/results/waveforms/ALU_Controller_tb_result.vcd
$date
	Sun Jul  6 14:08:16 2025
$end
$version
	Icarus Verilog
$end
$timescale
	1ps
$end
$scope module ALUController_tb $end
$scope module dut $end
$var wire 3 ! funct3 [2:0] $end
$var wire 1 " funct7_0 $end
$var wire 1 # funct7_5 $end
$var wire 1 $ imm_10 $end
$var wire 1 % input_size_word $end
$var wire 7 & opcode [6:0] $end
$var reg 5 ' alu_op [4:0] $end
$upscope $end
$upscope $end
$enddefinitions $end
$comment Show the parameter values. $end
$dumpall
$end
#0
$dumpvars
b0 '
b10111 &
0%
0$
0#
0"
b0 !
$end
#10000
b1101111 &
#20000
b1100111 &
#30000
b1 '
b1100011 &
#40000
b1 !
#50000
b101 '
b100 !
#60000
b101 !
#70000
b110 '
b110 !
#80000
b111 !
#90000
b0 '
b0 !
b11 &
#100000
b1 !
#110000
b10 !
#120000
b11 !
#130000
b100 !
#140000
b101 !
#150000
b110 !
#160000
b0 !
b100011 &
#170000
b1 !
#180000
b10 !
#190000
b11 !
#200000
b0 !
b10011 &
#210000
b111 '
b1 !
#220000
b101 '
b10 !
#230000
b110 '
b11 !
#240000
b100 '
b100 !
#250000
b1000 '
b101 !
#260000
b1001 '
1$
#270000
0$
b11 '
b110 !
#280000
b10 '
b111 !
#290000
b0 '
1%
b0 !
b11011 &
#300000
b111 '
b1 !
#310000
b1000 '
b101 !
#320000
b1001 '
1$
#330000
0$
b0 '
0%
b0 !
b110011 &
#340000
b1 '
1#
#350000
0#
b101 '
b10 !
#360000
b110 '
b11 !
#370000
b100 '
b100 !
#380000
b1000 '
b101 !
#390000
b1001 '
1#
#400000
0#
b11 '
b110 !
#410000
b10 '
b111 !
#420000
b1010 '
1"
b0 !
#430000
b1011 '
b1 !
#440000
b1100 '
b10 !
#450000
b1101 '
b11 !
#460000
b1110 '
b100 !
#470000
b1111 '
b101 !
#480000
b10000 '
b110 !
#490000
b10001 '
b111 !
#500000
0"
b0 '
1%
b0 !
b111011 &
#510000
b1 '
1#
#520000
0#
b1000 '
b101 !
#530000
b1001 '
1#
#540000
b1010 '
1"
0#
b0 !
#550000
b1110 '
b100 !
#560000
b1111 '
b101 !
#570000
b10000 '
b110 !
#580000
b10001 '
b111 !
#590000
0"
b0 '
0%
b1 !
b1110011 &
#600000
b11 '
b10 !
#610000
b11110 '
b11 !
#620000
b0 '
b101 !
#630000
b11 '
b110 !
#640000
b11110 '
b111 !
#650000
b11111 '
b0 !
b101010 &
