testbenches/results/waveforms/ALU_Controller_tb_result.vcd
$date
	Thu Feb 12 18:45:26 2026
$end
$version
	Icarus Verilog
$end
$timescale
	1ps
$end
$scope module ALUController_tb $end
$scope module dut $end
$var wire 1 ! clk $end
$var wire 1 " div_busy $end
$var wire 1 # div_start $end
$var wire 3 $ funct3 [2:0] $end
$var wire 1 % funct7_0 $end
$var wire 1 & funct7_5 $end
$var wire 1 ' imm_10 $end
$var wire 1 ( input_size_word $end
$var wire 1 ) is_div $end
$var wire 1 * is_mul $end
$var wire 1 + mul_busy $end
$var wire 1 , mul_start $end
$var wire 7 - opcode [6:0] $end
$var wire 1 . reset $end
$var reg 5 / alu_op [4:0] $end
$var reg 1 0 div_ongoing $end
$var reg 1 1 mul_ongoing $end
$upscope $end
$upscope $end
$enddefinitions $end
$comment Show the parameter values. $end
$dumpall
$end
#0
$dumpvars
01
00
b11111 /
1.
b0 -
0,
z+
0*
0)
0(
0'
0&
0%
b0 $
0#
0"
0!
$end
#5000
1!
#10000
b0 /
0!
b10111 -
0.
#15000
1!
#20000
b0 /
0!
b1101111 -
#25000
1!
#30000
b0 /
0!
b1100111 -
#35000
1!
#40000
b1 /
0!
b1100011 -
#45000
1!
#50000
b1 /
0!
b1 $
#55000
1!
#60000
b101 /
0!
b100 $
#65000
1!
#70000
b101 /
0!
b101 $
#75000
1!
#80000
b110 /
0!
b110 $
#85000
1!
#90000
b110 /
0!
b111 $
#95000
1!
#100000
b0 /
0!
b0 $
b11 -
#105000
1!
#110000
b0 /
0!
b1 $
#115000
1!
#120000
b0 /
0!
b10 $
#125000
1!
#130000
b0 /
0!
b11 $
#135000
1!
#140000
b0 /
0!
b100 $
#145000
1!
#150000
b0 /
0!
b101 $
#155000
1!
#160000
b0 /
0!
b110 $
#165000
1!
#170000
b0 /
0!
b0 $
b100011 -
#175000
1!
#180000
b0 /
0!
b1 $
#185000
1!
#190000
b0 /
0!
b10 $
#195000
1!
#200000
b0 /
0!
b11 $
#205000
1!
#210000
b0 /
0!
b0 $
b10011 -
#215000
1!
#220000
b111 /
0!
b1 $
#225000
1!
#230000
b101 /
0!
b10 $
#235000
1!
#240000
b110 /
0!
b11 $
#245000
1!
#250000
b100 /
0!
b100 $
#255000
1!
#260000
b1000 /
0!
b101 $
#265000
1!
#270000
b1001 /
1'
0!
#275000
1!
#280000
0'
b11 /
0!
b110 $
#285000
1!
#290000
b10 /
0!
b111 $
#295000
1!
#300000
b0 /
1(
0!
b0 $
b11011 -
#305000
1!
#310000
b111 /
0!
b1 $
#315000
1!
#320000
b1000 /
0!
b101 $
#325000
1!
#330000
b1001 /
1'
0!
#335000
1!
#340000
0'
b0 /
0(
0!
b0 $
b110011 -
#345000
1!
#350000
b1 /
1&
0!
#355000
1!
#360000
0&
b101 /
0!
b10 $
#365000
1!
#370000
b110 /
0!
b11 $
#375000
1!
#380000
b100 /
0!
b100 $
#385000
1!
#390000
b1000 /
0!
b101 $
#395000
1!
#400000
b1001 /
1&
0!
#405000
1!
#410000
0&
b11 /
0!
b110 $
#415000
1!
#420000
b10 /
0!
b111 $
#425000
1!
#430000
1,
1*
b1010 /
1%
0!
b0 $
#435000
0,
11
1!
#440000
b1011 /
0!
b1 $
#445000
1!
#450000
b1100 /
0!
b10 $
#455000
1!
#460000
b1101 /
0!
b11 $
#465000
1!
#470000
1#
1)
0*
b1110 /
0!
b100 $
#475000
0#
10
01
1!
#480000
b1111 /
0!
b101 $
#485000
1#
00
1!
#490000
b10000 /
0!
b110 $
#495000
0#
10
1!
#500000
b10001 /
0!
b111 $
#505000
1#
00
1!
#510000
0#
0)
0%
b0 /
1(
0!
b0 $
b111011 -
#515000
1!
#520000
b1 /
1&
0!
#525000
1!
#530000
0&
b1000 /
0!
b101 $
#535000
1!
#540000
b1001 /
1&
0!
#545000
1!
#550000
1,
1*
0#
0)
b1010 /
1%
0&
0!
b0 $
#555000
0,
11
1!
#560000
1#
1)
0*
b1110 /
0!
b100 $
#565000
0#
01
10
1!
#570000
b1111 /
0!
b101 $
#575000
1#
00
1!
#580000
b10000 /
0!
b110 $
#585000
0#
10
1!
#590000
b10001 /
0!
b111 $
#595000
1#
00
1!
#600000
0#
0)
0%
b0 /
0(
0!
b1 $
b1110011 -
#605000
1!
#610000
b11 /
0!
b10 $
#615000
1!
#620000
b11110 /
0!
b11 $
#625000
1!
#630000
b0 /
0!
b101 $
#635000
1!
#640000
b11 /
0!
b110 $
#645000
1!
#650000
b11110 /
0!
b111 $
#655000
1!
#660000
b11111 /
0!
b0 $
b101010 -
#665000
1!
#670000
0!
b0 -
1.
#675000
1!
#680000
0!
#685000
0.
1!
#690000
0!
#695000
1!
#696000
1#
1)
0,
0*
1%
b1110 /
b100 $
b110011 -
#700000
0!
#705000
0#
10
1!
#706000
00
0)
0%
b11111 /
b0 $
b0 -
1.
#710000
0!
#715000
1!
#720000
0!
#725000
0.
1!
#730000
0!
#735000
1!
#736000
1#
1)
0,
0*
1%
b1110 /
b100 $
b110011 -
#737000
1"
#740000
0!
#745000
0#
10
1!
#750000
0!
#755000
1!
#756000
0"
#760000
0!
#765000
1#
00
1!
#766000
0#
0)
0%
b11111 /
b0 $
b0 -
1.
#770000
0!
#775000
1!
#780000
0!
#785000
0.
1!
#790000
0!
#795000
1!
#796000
1#
1)
0,
0*
1%
b1111 /
b101 $
b110011 -
#797000
0#
0)
0%
b11111 /
b0 $
b0 -
1.
#800000
0!
#805000
1!
#810000
0!
#815000
0.
1!
#820000
0!
#825000
1!
#826000
1#
0,
1)
0*
1%
b10000 /
b110 $
b110011 -
#827000
0#
0)
0%
b11111 /
b0 $
b0 -
1.
#830000
0!
#835000
1!
#840000
0!
#845000
0.
1!
#850000
0!
#855000
1!
#856000
0,
1#
0*
1)
1%
b10001 /
b111 $
b110011 -
#857000
0#
0)
0%
b11111 /
b0 $
b0 -
1.
#860000
0!
#865000
1!
#870000
0!
#875000
0.
1!
#880000
0!
#885000
1!
#886000
1#
1)
0,
0*
1%
b1110 /
1(
b100 $
b111011 -
#887000
0#
0)
0%
b11111 /
0(
b0 $
b0 -
1.
#890000
0!
#895000
1!
#900000
0!
#905000
0.
1!
#910000
0!
#915000
1!
#916000
1#
1)
0,
0*
1%
b1111 /
1(
b101 $
b111011 -
#917000
0#
0)
0%
b11111 /
0(
b0 $
b0 -
1.
#920000
0!
#925000
1!
#930000
0!
#935000
0.
1!
#940000
0!
#945000
1!
#946000
1#
0,
1)
0*
1%
b10000 /
1(
b110 $
b111011 -
#947000
0#
0)
0%
b11111 /
0(
b0 $
b0 -
1.
#950000
0!
#955000
1!
#960000
0!
#965000
0.
1!
#970000
0!
#975000
1!
#976000
0,
1#
0*
1)
1%
b10001 /
1(
b111 $
b111011 -
#977000
0#
0)
0%
b11111 /
0(
b0 $
b0 -
1.
#980000
0!
#985000
1!
#990000
0!
#995000
0.
1!
#1000000
0!
#1005000
1!
#1006000
1,
1*
1%
b1010 /
b110011 -
#1007000
0,
0*
0%
b11111 /
b0 -
1.
#1010000
0!
#1015000
1!
#1020000
0!
#1025000
0.
1!
#1030000
0!
#1035000
1!
#1036000
1#
1)
0,
0*
1%
b1110 /
1"
b100 $
b110011 -
#1040000
0!
#1045000
0#
10
1!
#1046000
1#
00
1.
