testbenches/results/waveforms/ALU_tb_result.vcd
$date
	Wed Jan 28 22:09:11 2026
$end
$version
	Icarus Verilog
$end
$timescale
	1ps
$end
$scope module ALU_tb $end
$scope module dut $end
$var wire 5 ! alu_op [4:0] $end
$var wire 1 " clk $end
$var wire 1 # div_busy $end
$var wire 1 $ div_start $end
$var wire 1 % input_size_word $end
$var wire 1 & reset $end
$var wire 64 ' src_A [63:0] $end
$var wire 64 ( src_B [63:0] $end
$var wire 32 ) rem_word [31:0] $end
$var wire 64 * rem_dword [63:0] $end
$var wire 32 + quot_word [31:0] $end
$var wire 64 , quot_dword [63:0] $end
$var wire 32 - prod_low_word [31:0] $end
$var wire 64 . prod_low_dword [63:0] $end
$var wire 32 / prod_high_word [31:0] $end
$var wire 64 0 prod_high_dword [63:0] $end
$var wire 1 1 div_busy_word $end
$var wire 1 2 div_busy_dword $end
$var wire 1 3 alu_word_zero $end
$var wire 32 4 alu_word_result [31:0] $end
$var wire 1 5 alu_dword_zero $end
$var wire 64 6 alu_dword_result [63:0] $end
$var parameter 32 7 XLEN $end
$var reg 64 8 alu_result [63:0] $end
$var reg 1 9 alu_zero $end
$scope module alu_dword $end
$var wire 5 : alu_op [4:0] $end
$var wire 64 ; src_A [63:0] $end
$var wire 64 < src_B [63:0] $end
$var parameter 32 = XLEN $end
$var reg 64 > alu_result [63:0] $end
$var reg 1 5 alu_zero $end
$upscope $end
$scope module alu_word $end
$var wire 5 ? alu_op [4:0] $end
$var wire 32 @ src_A [31:0] $end
$var wire 32 A src_B [31:0] $end
$var reg 32 B alu_result [31:0] $end
$var reg 1 3 alu_zero $end
$upscope $end
$scope module divider_dword $end
$var wire 1 " clk $end
$var wire 1 C div_overflow $end
$var wire 64 D dividend [63:0] $end
$var wire 1 E division_start $end
$var wire 64 F divisor [63:0] $end
$var wire 1 G is_signed $end
$var wire 1 & reset $end
$var wire 65 H subtract_result [64:0] $end
$var wire 128 I shifted_rq [127:0] $end
$var wire 64 J remainder [63:0] $end
$var wire 64 K quotient [63:0] $end
$var wire 1 L div_by_zero $end
$var wire 1 2 busy $end
$var parameter 2 M CALCULATE $end
$var parameter 2 N FINALIZE $end
$var parameter 2 O IDLE $end
$var parameter 2 P INITIALIZE $end
$var parameter 32 Q XLEN $end
$var reg 7 R bit_counter [6:0] $end
$var reg 1 S busy_reg $end
$var reg 1 T div_by_zero_flag $end
$var reg 1 U div_overflow_flag $end
$var reg 64 V dividend_reg [63:0] $end
$var reg 64 W divisor_reg [63:0] $end
$var reg 64 X quotient_reg [63:0] $end
$var reg 1 Y quotient_sign $end
$var reg 128 Z remainder_quotient [127:0] $end
$var reg 64 [ remainder_reg [63:0] $end
$var reg 1 \ remainder_sign $end
$var reg 2 ] state [1:0] $end
$upscope $end
$scope module divider_word $end
$var wire 1 " clk $end
$var wire 1 ^ div_overflow $end
$var wire 32 _ dividend [31:0] $end
$var wire 1 ` division_start $end
$var wire 32 a divisor [31:0] $end
$var wire 1 b is_signed $end
$var wire 1 & reset $end
$var wire 33 c subtract_result [32:0] $end
$var wire 64 d shifted_rq [63:0] $end
$var wire 32 e remainder [31:0] $end
$var wire 32 f quotient [31:0] $end
$var wire 1 g div_by_zero $end
$var wire 1 1 busy $end
$var parameter 3 h CALCULATE $end
$var parameter 3 i FINALIZE $end
$var parameter 3 j IDLE $end
$var parameter 3 k INITIALIZE $end
$var parameter 32 l XLEN $end
$var reg 6 m bit_counter [5:0] $end
$var reg 1 n busy_reg $end
$var reg 1 o div_by_zero_flag $end
$var reg 1 p div_overflow_flag $end
$var reg 32 q dividend_reg [31:0] $end
$var reg 32 r divisor_reg [31:0] $end
$var reg 32 s quotient_reg [31:0] $end
$var reg 1 t quotient_sign $end
$var reg 64 u remainder_quotient [63:0] $end
$var reg 32 v remainder_reg [31:0] $end
$var reg 1 w remainder_sign $end
$var reg 3 x state [2:0] $end
$upscope $end
$scope module multiplier_dword $end
$var wire 1 y signed_A $end
$var wire 1 z signed_B $end
$var wire 64 { src_A [63:0] $end
$var wire 64 | src_B [63:0] $end
$var wire 128 } unsigned_sum [127:0] $end
$var wire 128 ~ sum [127:0] $end
$var wire 64 !" prod_low [63:0] $end
$var wire 64 "" prod_high [63:0] $end
$var wire 32 #" prod_ALBL_low [31:0] $end
$var wire 32 $" prod_ALBL_high [31:0] $end
$var wire 64 %" prod_ALBL [63:0] $end
$var wire 32 &" prod_ALBH_low [31:0] $end
$var wire 32 '" prod_ALBH_high [31:0] $end
$var wire 64 (" prod_ALBH [63:0] $end
$var wire 32 )" prod_AHBL_low [31:0] $end
$var wire 32 *" prod_AHBL_high [31:0] $end
$var wire 64 +" prod_AHBL [63:0] $end
$var wire 32 ," prod_AHBH_low [31:0] $end
$var wire 32 -" prod_AHBH_high [31:0] $end
$var wire 64 ." prod_AHBH [63:0] $end
$var wire 64 /" abs_src_B [63:0] $end
$var wire 64 0" abs_src_A [63:0] $end
$scope module ahbh $end
$var wire 32 1" abs_src_A [31:0] $end
$var wire 32 2" abs_src_B [31:0] $end
$var wire 1 3" signed_A $end
$var wire 1 4" signed_B $end
$var wire 32 5" src_A [31:0] $end
$var wire 32 6" src_B [31:0] $end
$var wire 64 7" prod_unsigned [63:0] $end
$var wire 32 8" prod_low [31:0] $end
$var wire 32 9" prod_high [31:0] $end
$var wire 64 :" prod [63:0] $end
$upscope $end
$scope module ahbl $end
$var wire 32 ;" abs_src_A [31:0] $end
$var wire 32 <" abs_src_B [31:0] $end
$var wire 1 =" signed_A $end
$var wire 1 >" signed_B $end
$var wire 32 ?" src_A [31:0] $end
$var wire 32 @" src_B [31:0] $end
$var wire 64 A" prod_unsigned [63:0] $end
$var wire 32 B" prod_low [31:0] $end
$var wire 32 C" prod_high [31:0] $end
$var wire 64 D" prod [63:0] $end
$upscope $end
$scope module albh $end
$var wire 32 E" abs_src_A [31:0] $end
$var wire 32 F" abs_src_B [31:0] $end
$var wire 1 G" signed_A $end
$var wire 1 H" signed_B $end
$var wire 32 I" src_A [31:0] $end
$var wire 32 J" src_B [31:0] $end
$var wire 64 K" prod_unsigned [63:0] $end
$var wire 32 L" prod_low [31:0] $end
$var wire 32 M" prod_high [31:0] $end
$var wire 64 N" prod [63:0] $end
$upscope $end
$scope module albl $end
$var wire 32 O" abs_src_A [31:0] $end
$var wire 32 P" abs_src_B [31:0] $end
$var wire 1 Q" signed_A $end
$var wire 1 R" signed_B $end
$var wire 32 S" src_A [31:0] $end
$var wire 32 T" src_B [31:0] $end
$var wire 64 U" prod_unsigned [63:0] $end
$var wire 32 V" prod_low [31:0] $end
$var wire 32 W" prod_high [31:0] $end
$var wire 64 X" prod [63:0] $end
$upscope $end
$upscope $end
$scope module multiplier_word $end
$var wire 1 Y" signed_A $end
$var wire 1 Z" signed_B $end
$var wire 32 [" src_A [31:0] $end
$var wire 32 \" src_B [31:0] $end
$var wire 64 ]" prod_unsigned [63:0] $end
$var wire 32 ^" prod_low [31:0] $end
$var wire 32 _" prod_high [31:0] $end
$var wire 64 `" prod [63:0] $end
$var wire 32 a" abs_src_B [31:0] $end
$var wire 32 b" abs_src_A [31:0] $end
$upscope $end
$upscope $end
$upscope $end
$enddefinitions $end
$comment Show the parameter values. $end
$dumpall
b1000000 l
b1 k
b0 j
b11 i
b10 h
b1000000 Q
b1 P
b0 O
b11 N
b10 M
b1000000 =
b1000000 7
$end
#0
$dumpvars
b0 b"
b0 a"
b0 `"
b0 _"
b0 ^"
b0 ]"
b0 \"
b0 ["
0Z"
0Y"
b0 X"
b0 W"
b0 V"
b0 U"
b0 T"
b0 S"
0R"
0Q"
b0 P"
b0 O"
b0 N"
b0 M"
b0 L"
b0 K"
b0 J"
b0 I"
0H"
0G"
b0 F"
b0 E"
b0 D"
b0 C"
b0 B"
b0 A"
b0 @"
b0 ?"
0>"
0="
b0 <"
b0 ;"
b0 :"
b0 9"
b0 8"
b0 7"
b0 6"
b0 5"
04"
03"
b0 2"
b0 1"
b0 0"
b0 /"
b0 ."
b0 -"
b0 ,"
b0 +"
b0 *"
b0 )"
b0 ("
b0 '"
b0 &"
b0 %"
b0 $"
b0 #"
b0 ""
b0 !"
b0 ~
b0 }
b0 |
b0 {
0z
0y
b0 x
0w
b0 v
b0 u
0t
b0 s
b0 r
b0 q
0p
0o
0n
b0 m
1g
b0 f
b0 e
b0 d
b0 c
0b
b0 a
0`
b0 _
0^
b0 ]
0\
b0 [
b0 Z
0Y
b0 X
b0 W
b0 V
0U
0T
0S
b0 R
1L
b0 K
b0 J
b0 I
b0 H
0G
b0 F
0E
b0 D
0C
b0 B
b0 A
b0 @
b0 ?
b0 >
b0 <
b0 ;
b0 :
19
b0 8
b0 6
15
b0 4
13
02
01
b0 0
b0 /
b0 .
b0 -
b0 ,
b0 +
b0 *
b0 )
b0 (
b0 '
1&
0%
0$
0#
0"
b0 !
$end
#5000
1"
#10000
0"
#15000
1"
#20000
0"
#25000
1"
#30000
0"
0&
#35000
1"
#40000
0"
#45000
1"
#50000
0"
#55000
1"
#60000
b111101000010010000000 .
b111101000010010000000 !"
b111101000010010000000 ~
b111101000010010000000 -
b111101000010010000000 ^"
b111101000010010000000 }
b111101000010010000000 %"
b111101000010010000000 #"
b111101000010010000000 V"
b111101000010010000000 `"
b111101000010010000000 X"
b111101000010010000000 ]"
b11111010000 a"
b11111010000 <"
b11111010000 @"
b111101000010010000000 U"
b11111010000 P"
b11111010000 T"
03
b101110111000 4
b101110111000 B
b1111101000 b"
09
b101110111000 8
b1111101000 E"
b1111101000 I"
b1111101000 O"
b1111101000 S"
b11111010000 A
b11111010000 \"
0g
b11111010000 a
b11111010000 /"
b1111101000 @
b1111101000 ["
b1111101000 _
05
b101110111000 6
b101110111000 >
b1111101000 0"
0"
0L
b11111010000 (
b11111010000 <
b11111010000 F
b11111010000 |
b1111101000 '
b1111101000 ;
b1111101000 D
b1111101000 {
#65000
1"
#70000
b1000011011101100110100 .
b1000011011101100110100 !"
b1000011011101100110100 ~
b1000011011101100110100 -
b1000011011101100110100 ^"
b1000011011101100110100 }
b1000011011101100110100 %"
b1000011011101100110100 #"
b1000011011101100110100 V"
b1000011011101100110100 `"
b1000011011101100110100 X"
b10001100001 a"
b10001100001 <"
b10001100001 @"
b10001100001 P"
b10001100001 T"
b110000010101 4
b110000010101 B
b1000011011101100110100 ]"
b11110110100 b"
b110000010101 8
b11110110100 E"
b11110110100 I"
b1000011011101100110100 U"
b11110110100 O"
b11110110100 S"
b10001100001 A
b10001100001 \"
b10001100001 a
b10001100001 /"
b11110110100 @
b11110110100 ["
b11110110100 _
b110000010101 6
b110000010101 >
b11110110100 0"
0"
b10001100001 (
b10001100001 <
b10001100001 F
b10001100001 |
b11110110100 '
b11110110100 ;
b11110110100 D
b11110110100 {
#75000
1"
#80000
b111011011000011000100000111111111101110001110101000011111110 0
b111011011000011000100000111111111101110001110101000011111110 ""
b1100111100000101011110111100110111100000000101101000110011011111 .
b1100111100000101011110111100110111100000000101101000110011011111 !"
b1110110110000110001000001111111111011100011101010000111111101100111100000101011110111100110111100000000101101000110011011111 ~
b1110110110000110001000001111 -"
b1110110110000110001000001111 9"
b111011011000011000100000111111100000000101101000110011011111 ."
b11100000000101101000110011011111 ,"
b11100000000101101000110011011111 8"
b1110110110000110001000001111 '"
b1110110110000110001000001111 M"
b111011011000011000100000111111100000000101101000110011011111 ("
b11100000000101101000110011011111 &"
b11100000000101101000110011011111 L"
b1110110110000110001000001111 /
b1110110110000110001000001111 _"
b11100000000101101000110011011111 -
b11100000000101101000110011011111 ^"
b1110110110000110001000001111 *"
b1110110110000110001000001111 C"
b111011011000011000100000111111100000000101101000110011011111 +"
b11100000000101101000110011011111 )"
b11100000000101101000110011011111 B"
b1110110110000110001000001111 $"
b1110110110000110001000001111 W"
b1110110110000110001000001111111111011100011101010000111111101100111100000101011110111100110111100000000101101000110011011111 }
b111011011000011000100000111111100000000101101000110011011111 %"
b11100000000101101000110011011111 #"
b11100000000101101000110011011111 V"
b111011011000011000100000111111100000000101101000110011011111 :"
b111011011000011000100000111111100000000101101000110011011111 N"
b111011011000011000100000111111100000000101101000110011011111 `"
b111011011000011000100000111111100000000101101000110011011111 D"
b111011011000011000100000111111100000000101101000110011011111 X"
b10001000100010001000100010001 a"
b111011011000011000100000111111100000000101101000110011011111 7"
b10001000100010001000100010001 2"
b10001000100010001000100010001 6"
b10001000100010001000100010001 <"
b10001000100010001000100010001 @"
b111011011000011000100000111111100000000101101000110011011111 K"
b10001000100010001000100010001 F"
b10001000100010001000100010001 J"
b10001000100010001000100010001 P"
b10001000100010001000100010001 T"
b11101111101111101101000000000000 4
b11101111101111101101000000000000 B
b111011011000011000100000111111100000000101101000110011011111 ]"
b11011110101011011011111011101111 b"
b1110111110111110110100000000000011101111101111101101000000000000 8
b11011110101011011011111011101111 1"
b11011110101011011011111011101111 5"
b111011011000011000100000111111100000000101101000110011011111 A"
b11011110101011011011111011101111 ;"
b11011110101011011011111011101111 ?"
b11011110101011011011111011101111 E"
b11011110101011011011111011101111 I"
b111011011000011000100000111111100000000101101000110011011111 U"
b11011110101011011011111011101111 O"
b11011110101011011011111011101111 S"
b10001000100010001000100010001 A
b10001000100010001000100010001 \"
b10001000100010001000100010001 a
b1000100010001000100010001000100010001000100010001000100010001 /"
b11011110101011011011111011101111 @
b11011110101011011011111011101111 ["
b11011110101011011011111011101111 _
b1110111110111110110100000000000011101111101111101101000000000000 6
b1110111110111110110100000000000011101111101111101101000000000000 >
b1101111010101101101111101110111111011110101011011011111011101111 0"
0"
b1000100010001000100010001000100010001000100010001000100010001 (
b1000100010001000100010001000100010001000100010001000100010001 <
b1000100010001000100010001000100010001000100010001000100010001 F
b1000100010001000100010001000100010001000100010001000100010001 |
b1101111010101101101111101110111111011110101011011011111011101111 '
b1101111010101101101111101110111111011110101011011011111011101111 ;
b1101111010101101101111101110111111011110101011011011111011101111 D
b1101111010101101101111101110111111011110101011011011111011101111 {
#85000
1"
#90000
b1111111111111111111111111111111111101111101111101101000000000000 8
0"
1%
#95000
1"
#100000
b0 0
b0 ""
b1000011011101100110100 .
b1000011011101100110100 !"
b1000011011101100110100 ~
b0 /
b0 _"
b1000011011101100110100 -
b1000011011101100110100 ^"
b0 -"
b0 9"
b0 ."
b0 ,"
b0 8"
b0 *"
b0 C"
b0 +"
b0 )"
b0 B"
b0 '"
b0 M"
b0 ("
b0 &"
b0 L"
b0 $"
b0 W"
b1000011011101100110100 }
b1000011011101100110100 %"
b1000011011101100110100 #"
b1000011011101100110100 V"
b1000011011101100110100 `"
b0 :"
b0 D"
b0 N"
b1000011011101100110100 X"
b10001100001 a"
b0 2"
b0 6"
b10001100001 <"
b10001100001 @"
b0 F"
b0 J"
b10001100001 P"
b10001100001 T"
b1000011011101100110100 ]"
b11110110100 b"
b0 7"
b0 1"
b0 5"
b0 A"
b0 ;"
b0 ?"
b0 K"
b11110110100 E"
b11110110100 I"
b1000011011101100110100 U"
b11110110100 O"
b11110110100 S"
b10001100001 A
b10001100001 \"
b10001100001 a
b10001100001 /"
b11110110100 @
b11110110100 ["
b11110110100 _
b11110110100 0"
b1101010011 6
b1101010011 >
b1101010011 4
b1101010011 B
b1101010011 8
0"
b10001100001 (
b10001100001 <
b10001100001 F
b10001100001 |
b11110110100 '
b11110110100 ;
b11110110100 D
b11110110100 {
0%
b1 !
b1 :
b1 ?
#105000
1"
#110000
b1110000100 .
b1110000100 !"
b1110000100 ~
b1110000100 -
b1110000100 ^"
b1110000100 }
b1110000100 %"
b1110000100 #"
b1110000100 V"
b1110000100 `"
b1110000100 X"
b11110 a"
b11110 <"
b11110 @"
b11110 P"
b11110 T"
13
b0 4
b0 B
b1110000100 ]"
b11110 b"
19
b0 8
b11110 E"
b11110 I"
b1110000100 U"
b11110 O"
b11110 S"
b11110 A
b11110 \"
b11110 a
b11110 /"
b11110 @
b11110 ["
b11110 _
15
b0 6
b0 >
b11110 0"
0"
b11110 (
b11110 <
b11110 F
b11110 |
b11110 '
b11110 ;
b11110 D
b11110 {
#115000
1"
#120000
b11001000 .
b11001000 !"
b11001000 ~
b11001000 -
b11001000 ^"
b11001000 }
b11001000 %"
b11001000 #"
b11001000 V"
b11001000 `"
b11001000 X"
b10100 a"
b10100 <"
b10100 @"
b10100 P"
b10100 T"
03
b11111111111111111111111111110110 4
b11111111111111111111111111110110 B
b11001000 ]"
b1010 b"
09
b1111111111111111111111111111111111111111111111111111111111110110 8
b1010 E"
b1010 I"
b11001000 U"
b1010 O"
b1010 S"
b10100 A
b10100 \"
b10100 a
b10100 /"
b1010 @
b1010 ["
b1010 _
05
b1111111111111111111111111111111111111111111111111111111111110110 6
b1111111111111111111111111111111111111111111111111111111111110110 >
b1010 0"
0"
b10100 (
b10100 <
b10100 F
b10100 |
b1010 '
b1010 ;
b1010 D
b1010 {
#125000
1"
#130000
b1000010110110110111011001010000100111000100001111001011 0
b1000010110110110111011001010000100111000100001111001011 ""
b1010000001101111111101010011010001010000000101101000110011011111 .
b1010000001101111111101010011010001010000000101101000110011011111 !"
b10000101101101101110110010100001001110001000011110010111010000001101111111101010011010001010000000101101000110011011111 ~
b10000101101101101110110 -"
b10000101101101101110110 9"
b1000010110110110111011001010000000101101000110011011111 ."
b1010000000101101000110011011111 ,"
b1010000000101101000110011011111 8"
b10000101101101101110110 '"
b10000101101101101110110 M"
b1000010110110110111011001010000000101101000110011011111 ("
b1010000000101101000110011011111 &"
b1010000000101101000110011011111 L"
b10000101101101101110110 /
b10000101101101101110110 _"
b1010000000101101000110011011111 -
b1010000000101101000110011011111 ^"
b10000101101101101110110 *"
b10000101101101101110110 C"
b1000010110110110111011001010000000101101000110011011111 +"
b1010000000101101000110011011111 )"
b1010000000101101000110011011111 B"
b10000101101101101110110 $"
b10000101101101101110110 W"
b10000101101101101110110010100001001110001000011110010111010000001101111111101010011010001010000000101101000110011011111 }
b1000010110110110111011001010000000101101000110011011111 %"
b1010000000101101000110011011111 #"
b1010000000101101000110011011111 V"
b1000010110110110111011001010000000101101000110011011111 :"
b1000010110110110111011001010000000101101000110011011111 N"
b1000010110110110111011001010000000101101000110011011111 `"
b1000010110110110111011001010000000101101000110011011111 D"
b1000010110110110111011001010000000101101000110011011111 X"
b111110101011011011111011101111 a"
b1000010110110110111011001010000000101101000110011011111 7"
b111110101011011011111011101111 2"
b111110101011011011111011101111 6"
b111110101011011011111011101111 <"
b111110101011011011111011101111 @"
b1000010110110110111011001010000000101101000110011011111 K"
b111110101011011011111011101111 F"
b111110101011011011111011101111 J"
b111110101011011011111011101111 P"
b111110101011011011111011101111 T"
b11000010011000110101001000100010 4
b11000010011000110101001000100010 B
b1000010110110110111011001010000000101101000110011011111 ]"
b1000100010001000100010001 b"
b1100001001100011010100100010000111000010011000110101001000100010 8
b1000100010001000100010001 1"
b1000100010001000100010001 5"
b1000010110110110111011001010000000101101000110011011111 A"
b1000100010001000100010001 ;"
b1000100010001000100010001 ?"
b1000100010001000100010001 E"
b1000100010001000100010001 I"
b1000010110110110111011001010000000101101000110011011111 U"
b1000100010001000100010001 O"
b1000100010001000100010001 S"
b111110101011011011111011101111 A
b111110101011011011111011101111 \"
b111110101011011011111011101111 a
b11111010101101101111101110111100111110101011011011111011101111 /"
b1000100010001000100010001 @
b1000100010001000100010001 ["
b1000100010001000100010001 _
b1100001001100011010100100010000111000010011000110101001000100010 6
b1100001001100011010100100010000111000010011000110101001000100010 >
b100010001000100010001000100000001000100010001000100010001 0"
0"
b11111010101101101111101110111100111110101011011011111011101111 (
b11111010101101101111101110111100111110101011011011111011101111 <
b11111010101101101111101110111100111110101011011011111011101111 F
b11111010101101101111101110111100111110101011011011111011101111 |
b100010001000100010001000100000001000100010001000100010001 '
b100010001000100010001000100000001000100010001000100010001 ;
b100010001000100010001000100000001000100010001000100010001 D
b100010001000100010001000100000001000100010001000100010001 {
#135000
1"
#140000
b1111111111111111111111111111111111000010011000110101001000100010 8
0"
1%
#145000
1"
#150000
b111000101100010010100110100010000110101001001100001011100000 0
b111000101100010010100110100010000110101001001100001011100000 ""
b1110001011000100101001101000100001101010010011000010111000010000 .
b1110001011000100101001101000100001101010010011000010111000010000 !"
b1110001011000100101001101000100001101010010011000010111000001110001011000100101001101000100001101010010011000010111000010000 ~
b1110001011000100101001101000 /
b1110001011000100101001101000 _"
b1101010010011000010111000010000 -
b1101010010011000010111000010000 ^"
b1110001011000100101001101000 -"
b1110001011000100101001101000 9"
b111000101100010010100110100001101010010011000010111000010000 ."
b1101010010011000010111000010000 ,"
b1101010010011000010111000010000 8"
b1110001011000100101001101000 *"
b1110001011000100101001101000 C"
b111000101100010010100110100001101010010011000010111000010000 +"
b1101010010011000010111000010000 )"
b1101010010011000010111000010000 B"
b1110001011000100101001101000 '"
b1110001011000100101001101000 M"
b111000101100010010100110100001101010010011000010111000010000 ("
b1101010010011000010111000010000 &"
b1101010010011000010111000010000 L"
b1110001011000100101001101000 $"
b1110001011000100101001101000 W"
b1110001011000100101001101000100001101010010011000010111000001110001011000100101001101000100001101010010011000010111000010000 }
b111000101100010010100110100001101010010011000010111000010000 %"
b1101010010011000010111000010000 #"
b1101010010011000010111000010000 V"
b111000101100010010100110100001101010010011000010111000010000 `"
b111000101100010010100110100001101010010011000010111000010000 :"
b111000101100010010100110100001101010010011000010111000010000 D"
b111000101100010010100110100001101010010011000010111000010000 N"
b111000101100010010100110100001101010010011000010111000010000 X"
b1111000011110000111100001111 a"
b1111000011110000111100001111 2"
b1111000011110000111100001111 6"
b1111000011110000111100001111 <"
b1111000011110000111100001111 @"
b1111000011110000111100001111 F"
b1111000011110000111100001111 J"
b1111000011110000111100001111 P"
b1111000011110000111100001111 T"
b111000101100010010100110100001101010010011000010111000010000 ]"
b11110000111100001111000011110000 b"
b111000101100010010100110100001101010010011000010111000010000 7"
b11110000111100001111000011110000 1"
b11110000111100001111000011110000 5"
b111000101100010010100110100001101010010011000010111000010000 A"
b11110000111100001111000011110000 ;"
b11110000111100001111000011110000 ?"
b111000101100010010100110100001101010010011000010111000010000 K"
b11110000111100001111000011110000 E"
b11110000111100001111000011110000 I"
b111000101100010010100110100001101010010011000010111000010000 U"
b11110000111100001111000011110000 O"
b11110000111100001111000011110000 S"
19
b1111000011110000111100001111 A
b1111000011110000111100001111 \"
b1111000011110000111100001111 a
b111100001111000011110000111100001111000011110000111100001111 /"
b11110000111100001111000011110000 @
b11110000111100001111000011110000 ["
b11110000111100001111000011110000 _
b1111000011110000111100001111000011110000111100001111000011110000 0"
15
b0 6
b0 >
13
b0 4
b0 B
b0 8
0"
b111100001111000011110000111100001111000011110000111100001111 (
b111100001111000011110000111100001111000011110000111100001111 <
b111100001111000011110000111100001111000011110000111100001111 F
b111100001111000011110000111100001111000011110000111100001111 |
b1111000011110000111100001111000011110000111100001111000011110000 '
b1111000011110000111100001111000011110000111100001111000011110000 ;
b1111000011110000111100001111000011110000111100001111000011110000 D
b1111000011110000111100001111000011110000111100001111000011110000 {
0%
b10 !
b10 :
b10 ?
#155000
1"
#160000
b111100001111000000000000000000001111000011101111111111111111 0
b111100001111000000000000000000001111000011101111111111111111 ""
b1111000011110000111111111111111111110000111100010000000000000000 .
b1111000011110000111111111111111111110000111100010000000000000000 !"
b1111000011110000000000000000000011110000111011111111111111111111000011110000111111111111111111110000111100010000000000000000 ~
b1111000011101111111111111111 /
b1111000011101111111111111111 _"
b11110000111100010000000000000000 -
b11110000111100010000000000000000 ^"
b1111000011101111111111111111 -"
b1111000011101111111111111111 9"
b111100001110111111111111111111110000111100010000000000000000 ."
b11110000111100010000000000000000 ,"
b11110000111100010000000000000000 8"
b1111000011101111111111111111 *"
b1111000011101111111111111111 C"
b111100001110111111111111111111110000111100010000000000000000 +"
b11110000111100010000000000000000 )"
b11110000111100010000000000000000 B"
b1111000011101111111111111111 '"
b1111000011101111111111111111 M"
b111100001110111111111111111111110000111100010000000000000000 ("
b11110000111100010000000000000000 &"
b11110000111100010000000000000000 L"
b1111000011101111111111111111 $"
b1111000011101111111111111111 W"
b1111000011110000000000000000000011110000111011111111111111111111000011110000111111111111111111110000111100010000000000000000 }
b111100001110111111111111111111110000111100010000000000000000 %"
b11110000111100010000000000000000 #"
b11110000111100010000000000000000 V"
b111100001110111111111111111111110000111100010000000000000000 `"
b111100001110111111111111111111110000111100010000000000000000 :"
b111100001110111111111111111111110000111100010000000000000000 D"
b111100001110111111111111111111110000111100010000000000000000 N"
b111100001110111111111111111111110000111100010000000000000000 X"
b111100001110111111111111111111110000111100010000000000000000 ]"
b11111111111111110000000000000000 b"
09
b111100001111000000000000000000001111000011110000000000000000 8
b111100001110111111111111111111110000111100010000000000000000 7"
b11111111111111110000000000000000 1"
b11111111111111110000000000000000 5"
b111100001110111111111111111111110000111100010000000000000000 A"
b11111111111111110000000000000000 ;"
b11111111111111110000000000000000 ?"
b111100001110111111111111111111110000111100010000000000000000 K"
b11111111111111110000000000000000 E"
b11111111111111110000000000000000 I"
b111100001110111111111111111111110000111100010000000000000000 U"
b11111111111111110000000000000000 O"
b11111111111111110000000000000000 S"
b11111111111111110000000000000000 @
b11111111111111110000000000000000 ["
b11111111111111110000000000000000 _
05
b111100001111000000000000000000001111000011110000000000000000 6
b111100001111000000000000000000001111000011110000000000000000 >
b1111111111111111000000000000000011111111111111110000000000000000 0"
0"
b1111111111111111000000000000000011111111111111110000000000000000 '
b1111111111111111000000000000000011111111111111110000000000000000 ;
b1111111111111111000000000000000011111111111111110000000000000000 D
b1111111111111111000000000000000011111111111111110000000000000000 {
#165000
1"
#170000
b110111110001011110110000100100001001101011010011011011000100101 0
b110111110001011110110000100100001001101011010011011011000100101 ""
b100110000101111111000110111001101101110010100100000010110010110 .
b100110000101111111000110111001101101110010100100000010110010110 !"
b1101111100010111101100001001000010011010110100110110110001001010100110000101111111000110111001101101110010100100000010110010110 ~
b1101111100010111101100001000111 /
b1101111100010111101100001000111 _"
b1101110010100100000010110010110 -
b1101110010100100000010110010110 ^"
b1101111100010111101100001000111 -"
b1101111100010111101100001000111 9"
b110111110001011110110000100011101101110010100100000010110010110 ."
b1101110010100100000010110010110 ,"
b1101110010100100000010110010110 8"
b1101111100010111101100001000111 *"
b1101111100010111101100001000111 C"
b110111110001011110110000100011101101110010100100000010110010110 +"
b1101110010100100000010110010110 )"
b1101110010100100000010110010110 B"
b1101111100010111101100001000111 '"
b1101111100010111101100001000111 M"
b110111110001011110110000100011101101110010100100000010110010110 ("
b1101110010100100000010110010110 &"
b1101110010100100000010110010110 L"
b1101111100010111101100001000111 $"
b1101111100010111101100001000111 W"
b1101111100010111101100001001000010011010110100110110110001001010100110000101111111000110111001101101110010100100000010110010110 }
b110111110001011110110000100011101101110010100100000010110010110 %"
b1101110010100100000010110010110 #"
b1101110010100100000010110010110 V"
b110111110001011110110000100011101101110010100100000010110010110 `"
b110111110001011110110000100011101101110010100100000010110010110 :"
b110111110001011110110000100011101101110010100100000010110010110 D"
b110111110001011110110000100011101101110010100100000010110010110 N"
b110111110001011110110000100011101101110010100100000010110010110 X"
b11101111000001110001100010011010 a"
b11101111000001110001100010011010 2"
b11101111000001110001100010011010 6"
b11101111000001110001100010011010 <"
b11101111000001110001100010011010 @"
b11101111000001110001100010011010 F"
b11101111000001110001100010011010 J"
b11101111000001110001100010011010 P"
b11101111000001110001100010011010 T"
b110111110001011110110000100011101101110010100100000010110010110 ]"
b1110111011101110111011101110111 b"
b110011100000111000100000001001001100111000001110001000000010010 8
b110111110001011110110000100011101101110010100100000010110010110 7"
b1110111011101110111011101110111 1"
b1110111011101110111011101110111 5"
b110111110001011110110000100011101101110010100100000010110010110 A"
b1110111011101110111011101110111 ;"
b1110111011101110111011101110111 ?"
b110111110001011110110000100011101101110010100100000010110010110 K"
b1110111011101110111011101110111 E"
b1110111011101110111011101110111 I"
b110111110001011110110000100011101101110010100100000010110010110 U"
b1110111011101110111011101110111 O"
b1110111011101110111011101110111 S"
b11101111000001110001100010011010 A
b11101111000001110001100010011010 \"
b11101111000001110001100010011010 a
b1110111100000111000110001001101011101111000001110001100010011010 /"
b1110111011101110111011101110111 @
b1110111011101110111011101110111 ["
b1110111011101110111011101110111 _
b110011100000111000100000001001001100111000001110001000000010010 6
b110011100000111000100000001001001100111000001110001000000010010 >
b111011101110111011101110111011101110111011101110111011101110111 0"
0"
b1110111100000111000110001001101011101111000001110001100010011010 (
b1110111100000111000110001001101011101111000001110001100010011010 <
b1110111100000111000110001001101011101111000001110001100010011010 F
b1110111100000111000110001001101011101111000001110001100010011010 |
b111011101110111011101110111011101110111011101110111011101110111 '
b111011101110111011101110111011101110111011101110111011101110111 ;
b111011101110111011101110111011101110111011101110111011101110111 D
b111011101110111011101110111011101110111011101110111011101110111 {
#175000
1"
#180000
b0 0
b0 ""
b0 .
b0 !"
b0 ~
b0 /
b0 _"
b0 -
b0 ^"
b0 -"
b0 9"
b0 ."
b0 ,"
b0 8"
b0 *"
b0 C"
b0 +"
b0 )"
b0 B"
b0 '"
b0 M"
b0 ("
b0 &"
b0 L"
b0 $"
b0 W"
b0 }
b0 %"
b0 #"
b0 V"
b0 `"
b0 :"
b0 D"
b0 N"
b0 X"
b0 a"
b0 2"
b0 6"
b0 <"
b0 @"
b0 F"
b0 J"
b0 P"
b0 T"
b0 ]"
b0 b"
b0 7"
b0 1"
b0 5"
b0 A"
b0 ;"
b0 ?"
b0 K"
b0 E"
b0 I"
b0 U"
b0 O"
b0 S"
19
b0 8
b0 A
b0 \"
1g
b0 a
b0 /"
b0 @
b0 ["
b0 _
b0 0"
15
b0 6
b0 >
0"
1L
b0 (
b0 <
b0 F
b0 |
b0 '
b0 ;
b0 D
b0 {
b11 !
b11 :
b11 ?
#185000
1"
