testbenches/results/waveforms/ForwardUnit_tb.vcd
$date
	Fri Jan 02 14:43:00 2026
$end
$version
	Icarus Verilog
$end
$timescale
	1ps
$end
$scope module ForwardUnit_tb $end
$var wire 1 ! store_forward_enable $end
$var wire 64 " store_forward_data [63:0] $end
$var wire 64 # csr_forward_data [63:0] $end
$var wire 2 $ alu_forward_source_select_b [1:0] $end
$var wire 2 % alu_forward_source_select_a [1:0] $end
$var wire 64 & alu_forward_source_data_b [63:0] $end
$var wire 64 ' alu_forward_source_data_a [63:0] $end
$var parameter 32 ( XLEN $end
$var reg 64 ) MEM_alu_result [63:0] $end
$var reg 64 * MEM_csr_read_data [63:0] $end
$var reg 64 + MEM_csr_write_data [63:0] $end
$var reg 64 , MEM_imm [63:0] $end
$var reg 7 - MEM_opcode [6:0] $end
$var reg 64 . MEM_pc_plus_4 [63:0] $end
$var reg 64 / WB_alu_result [63:0] $end
$var reg 64 0 WB_byte_enable_logic_register_file_write_data [63:0] $end
$var reg 64 1 WB_csr_read_data [63:0] $end
$var reg 64 2 WB_csr_write_data [63:0] $end
$var reg 64 3 WB_imm [63:0] $end
$var reg 7 4 WB_opcode [6:0] $end
$var reg 64 5 WB_pc_plus_4 [63:0] $end
$var reg 64 6 byte_enable_logic_register_file_write_data [63:0] $end
$var reg 1 7 csr_hazard_mem $end
$var reg 1 8 csr_hazard_wb $end
$var reg 64 9 csr_read_data [63:0] $end
$var reg 2 : hazard_mem [1:0] $end
$var reg 2 ; hazard_wb [1:0] $end
$var reg 1 < store_hazard_mem $end
$var reg 1 = store_hazard_wb $end
$var integer 32 > fail_count [31:0] $end
$var integer 32 ? pass_count [31:0] $end
$var integer 32 @ test_count [31:0] $end
$scope module forward_unit $end
$var wire 64 A MEM_alu_result [63:0] $end
$var wire 64 B MEM_csr_read_data [63:0] $end
$var wire 64 C MEM_csr_write_data [63:0] $end
$var wire 64 D MEM_imm [63:0] $end
$var wire 7 E MEM_opcode [6:0] $end
$var wire 64 F MEM_pc_plus_4 [63:0] $end
$var wire 64 G WB_alu_result [63:0] $end
$var wire 64 H WB_byte_enable_logic_register_file_write_data [63:0] $end
$var wire 64 I WB_csr_read_data [63:0] $end
$var wire 64 J WB_csr_write_data [63:0] $end
$var wire 64 K WB_imm [63:0] $end
$var wire 7 L WB_opcode [6:0] $end
$var wire 64 M WB_pc_plus_4 [63:0] $end
$var wire 64 N byte_enable_logic_register_file_write_data [63:0] $end
$var wire 64 O csr_forward_data [63:0] $end
$var wire 1 7 csr_hazard_mem $end
$var wire 1 8 csr_hazard_wb $end
$var wire 64 P csr_read_data [63:0] $end
$var wire 2 Q hazard_mem [1:0] $end
$var wire 2 R hazard_wb [1:0] $end
$var wire 1 ! store_forward_enable $end
$var wire 1 < store_hazard_mem $end
$var wire 1 = store_hazard_wb $end
$var wire 64 S store_forward_data [63:0] $end
$var wire 2 T alu_forward_source_select_b [1:0] $end
$var wire 2 U alu_forward_source_select_a [1:0] $end
$var wire 64 V alu_forward_source_data_b [63:0] $end
$var wire 64 W alu_forward_source_data_a [63:0] $end
$var parameter 32 X XLEN $end
$var reg 64 Y MEM_forward_data_value [63:0] $end
$var reg 64 Z WB_forward_data_value [63:0] $end
$var reg 64 [ csr_forward_data_value [63:0] $end
$upscope $end
$scope task check $end
$var reg 64 \ actual [63:0] $end
$var reg 64 ] expected [63:0] $end
$var reg 256 ^ name [255:0] $end
$upscope $end
$scope task check_1bit $end
$var reg 1 _ actual $end
$var reg 1 ` expected $end
$var reg 256 a name [255:0] $end
$upscope $end
$scope task check_2bit $end
$var reg 2 b actual [1:0] $end
$var reg 2 c expected [1:0] $end
$var reg 256 d name [255:0] $end
$upscope $end
$scope task init_signals $end
$upscope $end
$upscope $end
$enddefinitions $end
$comment Show the parameter values. $end
$dumpall
b1000000 X
b1000000 (
$end
#0
$dumpvars
bx d
bx c
bx b
bx a
x`
x_
bx ^
bx ]
bx \
b1001100110011001101010101010101010111011101110111100110011001100 [
b1011111011101111110111101010110110111010101111101100101011111110 Z
b1101111010101101101111101110111111001010111111101011101010111110 Y
b0 W
b0 V
b0 U
b0 T
b0 S
b0 R
b0 Q
b1001100110011001101010101010101010111011101110111100110011001100 P
b1001100110011001101010101010101010111011101110111100110011001100 O
b1000100010001001000100010001000110011001100110100010001000100 N
b100000000010000000001000 M
b110011 L
b101010101010101011001100110011001110111011101110000000000000000 K
b101010101010101011001100110011001110111011101111000100010001000 J
b1100101011111110111110101100111010000111011001010100001100100001 I
b1001100110011001101010101010101010111011101110111100110011001100 H
b1011111011101111110111101010110110111010101111101100101011111110 G
b10000000001000000000100 F
b110011 E
b1010101010101010101110111011101111001100110011000000000000000000 D
b1000100010001001000100010001000110011001100110100010001000100 C
b1111101011001110110010101111111000010010001101000101011001111000 B
b1101111010101101101111101110111111001010111111101011101010111110 A
b0 @
b0 ?
b0 >
0=
0<
b0 ;
b0 :
b1001100110011001101010101010101010111011101110111100110011001100 9
08
07
b1000100010001001000100010001000110011001100110100010001000100 6
b100000000010000000001000 5
b110011 4
b101010101010101011001100110011001110111011101110000000000000000 3
b101010101010101011001100110011001110111011101111000100010001000 2
b1100101011111110111110101100111010000111011001010100001100100001 1
b1001100110011001101010101010101010111011101110111100110011001100 0
b1011111011101111110111101010110110111010101111101100101011111110 /
b10000000001000000000100 .
b110011 -
b1010101010101010101110111011101111001100110011000000000000000000 ,
b1000100010001001000100010001000110011001100110100010001000100 +
b1111101011001110110010101111111000010010001101000101011001111000 *
b1101111010101101101111101110111111001010111111101011101010111110 )
b0 '
b0 &
b0 %
b0 $
b1001100110011001101010101010101010111011101110111100110011001100 #
b0 "
0!
$end
#2000
b10 %
b10 U
b1101111010101101101111101110111111001010111111101011101010111110 '
b1101111010101101101111101110111111001010111111101011101010111110 W
b1 :
b1 Q
b10 ?
b10 @
b0 b
b0 c
b100111001101111001000000110100001100001011110100110000101110010011001000010000000101101001000000111001101100101011011000110010101100011011101000101111101100010 d
#3000
b0 %
b0 U
b10 $
b10 T
b0 '
b0 W
b1101111010101101101111101110111111001010111111101011101010111110 &
b1101111010101101101111101110111111001010111111101011101010111110 V
b10 :
b10 Q
b100 ?
b100 @
b0 b
b0 c
b1001101010001010100110100100000011010000110000101111010011000010111001001100100001000000111001001110011001100010010000000101101001000000111001101100101011011000110010101100011011101000101111101100010 d
#4000
b10 %
b10 U
b1101111010101101101111101110111111001010111111101011101010111110 '
b1101111010101101101111101110111111001010111111101011101010111110 W
b11 :
b11 Q
b10 b
b10 c
b110 ?
b110 @
b1001101010001010100110100100000011010000110000101111010011000010111001001100100001000000111001001110011001100100010000000101101001000000111001101100101011011000110010101100011011101000101111101100010 d
#5000
b11 %
b11 U
b0 $
b0 T
b1011111011101111110111101010110110111010101111101100101011111110 '
b1011111011101111110111101010110110111010101111101100101011111110 W
b0 &
b0 V
b1 ;
b1 R
b0 :
b0 Q
b1000 ?
b1000 @
b100110101000101010011010010000001101000011000010111101001100001011100100110010000100000011000100110111101110100011010000010000000101101001000000111001101100101011011000110010101100011011101000101111101100010 d
#6000
b0 %
b0 U
b11 $
b11 T
b0 '
b0 W
b1011111011101111110111101010110110111010101111101100101011111110 &
b1011111011101111110111101010110110111010101111101100101011111110 V
b10 ;
b10 R
b1010 ?
b1010 @
b0 b
b0 c
b10101110100001000100000011010000110000101111010011000010111001001100100001000000111001001110011001100010010000000101101001000000111001101100101011011000110010101100011011101000101111101100010 d
#7000
b10 %
b10 U
b10 $
b10 T
b1101111010101101101111101110111111001010111111101011101010111110 '
b1101111010101101101111101110111111001010111111101011101010111110 W
b1101111010101101101111101110111111001010111111101011101010111110 &
b1101111010101101101111101110111111001010111111101011101010111110 V
b11 ;
b11 R
b11 :
b11 Q
b11 b
b11 c
b1100 ?
b1100 @
b10101110100001000100000011010000110000101111010011000010111001001100100001000000111001001110011001100100010000000101101001000000111001101100101011011000110010101100011011101000101111101100010 d
#8000
b0 $
b0 T
b0 &
b0 V
b0 ;
b0 R
b1 :
b1 Q
b1110 ?
b1110 @
b10 b
b10 c
b1001101010001010100110100100000011100000111001001101001011011110111001001101001011101000111100100100000011011110111011001100101011100100010000001010111010000100010000000101101001000000111001101100101011011000110010101100011011101000101111101100010 d
#9000
b1000100010001001000100010001000110011001100110100010001000100 '
b1000100010001001000100010001000110011001100110100010001000100 W
b1000100010001001000100010001000110011001100110100010001000100 Y
b11 -
b11 E
b1111 ?
b1111 @
b1101111010101101101111101110111111001010111111101011101010111110 \
b1101111010101101101111101110111111001010111111101011101010111110 ]
b101001001010100010110010101000001000101001000000010110100111110001000000100110101000101010011010101111101100001011011000111010101011111011100100110010101110011011101010110110001110100 ^
#10000
b1111101011001110110010101111111000010010001101000101011001111000 '
b1111101011001110110010101111111000010010001101000101011001111000 W
b1111101011001110110010101111111000010010001101000101011001111000 Y
b1110011 -
b1110011 E
b10000 ?
b10000 @
b1000100010001001000100010001000110011001100110100010001000100 \
b1000100010001001000100010001000110011001100110100010001000100 ]
b10011000100111101000001010001000010000000101101001111100010000001100010011110010111010001100101010111110110010101101110011000010110001001101100011001010101111101101100011011110110011101101001011000110010000001100100011000010111010001100001 ^
#11000
b1010101010101010101110111011101111001100110011000000000000000000 '
b1010101010101010101110111011101111001100110011000000000000000000 W
b1010101010101010101110111011101111001100110011000000000000000000 Y
b110111 -
b110111 E
b10001 ?
b10001 @
b1111101011001110110010101111111000010010001101000101011001111000 \
b1111101011001110110010101111111000010010001101000101011001111000 ]
b100010101001110010101100100100101010010010011110100111001001101010001010100111001010100001000000010110100111110001000000100110101000101010011010101111101100011011100110111001001011111011100100110010101100001011001000101111101100100011000010111010001100001 ^
#12000
b10000000001000000000100 '
b10000000001000000000100 W
b10000000001000000000100 Y
b1101111 -
b1101111 E
b10010 ?
b10010 @
b1010101010101010101110111011101111001100110011000000000000000000 \
b1010101010101010101110111011101111001100110011000000000000000000 ]
b100110001010101010010010010000000101101001111100010000001001101010001010100110101011111011010010110110101101101 ^
#13000
b1100111 -
b1100111 E
b10011 ?
b10011 @
b10000000001000000000100 \
b10000000001000000000100 ]
b100101001000001010011000010000000101101001111100010000001001101010001010100110101011111011100000110001101011111011100000110110001110101011100110101111100110100 ^
#14000
b11 %
b11 U
b1011111011101111110111101010110110111010101111101100101011111110 '
b1011111011101111110111101010110110111010101111101100101011111110 W
b1101111010101101101111101110111111001010111111101011101010111110 Y
b110011 -
b110011 E
b1 ;
b1 R
b0 :
b0 Q
b10100 ?
b10100 @
b10010100100000101001100010100100010000000101101001111100010000001001101010001010100110101011111011100000110001101011111011100000110110001110101011100110101111100110100 ^
#15000
b1001100110011001101010101010101010111011101110111100110011001100 '
b1001100110011001101010101010101010111011101110111100110011001100 W
b1001100110011001101010101010101010111011101110111100110011001100 Z
b11 4
b11 L
b10101 ?
b10101 @
b1011111011101111110111101010110110111010101111101100101011111110 \
b1011111011101111110111101010110110111010101111101100101011111110 ]
b1010111010000100010000001010010010101000101100101010000010001010010000000101101001111100010000001010111010000100101111101100001011011000111010101011111011100100110010101110011011101010110110001110100 ^
#16000
b1100101011111110111110101100111010000111011001010100001100100001 '
b1100101011111110111110101100111010000111011001010100001100100001 W
b1100101011111110111110101100111010000111011001010100001100100001 Z
b1110011 4
b1110011 L
b10110 ?
b10110 @
b1001100110011001101010101010101010111011101110111100110011001100 \
b1001100110011001101010101010101010111011101110111100110011001100 ]
b10101110100001000100000010011000100111101000001010001000010000000101101001111100010000001010111010000100101111101100010011110010111010001100101010111110110010101101110011000010110001001101100011001010010000001100100011000010111010001100001 ^
#17000
b101010101010101011001100110011001110111011101110000000000000000 '
b101010101010101011001100110011001110111011101110000000000000000 W
b101010101010101011001100110011001110111011101110000000000000000 Z
b110111 4
b110111 L
b10111 ?
b10111 @
b1100101011111110111110101100111010000111011001010100001100100001 \
b1100101011111110111110101100111010000111011001010100001100100001 ]
b101011101000010001000000100010101001110010101100010000000101101001111100010000001010111010000100101111101100011011100110111001001011111011100100110010101100001011001000101111101100100011000010111010001100001 ^
#18000
b100000000010000000001000 '
b100000000010000000001000 W
b100000000010000000001000 Z
b1101111 4
b1101111 L
b11000 ?
b11000 @
b101010101010101011001100110011001110111011101110000000000000000 \
b101010101010101011001100110011001110111011101110000000000000000 ]
b1010111010000100010000001001100010101010100100100100000001011010011111000100000010101110100001001011111011010010110110101101101 ^
#19000
b1100111 4
b1100111 L
b11001 ?
b11001 @
b100000000010000000001000 \
b100000000010000000001000 ]
b1010111010000100010000001001010010000010100110000100000001011010011111000100000010101110100001001011111011100000110001101011111011100000110110001110101011100110101111100110100 ^
#20000
b0 %
b0 U
b0 '
b0 W
b1011111011101111110111101010110110111010101111101100101011111110 Z
b110011 4
b110011 L
b0 ;
b0 R
b11010 ?
b11010 @
b101011101000010001000000100101001000001010011000101001000100000001011010011111000100000010101110100001001011111011100000110001101011111011100000110110001110101011100110101111100110100 ^
#21000
1!
b1101111010101101101111101110111111001010111111101011101010111110 "
b1101111010101101101111101110111111001010111111101011101010111110 S
1<
b0 \
b0 ]
b1001110011011110010000001110011011101000110111101110010011001010010000001101000011000010111101001100001011100100110010000100000001011010010000001100100011000010111010001100001 ^
b11100 ?
b11100 @
0_
0`
b10011100110111100100000011100110111010001101111011100100110010100100000011010000110000101111010011000010111001001100100001000000010110100100000011001010110111001100001011000100110110001100101 a
#22000
b1011111011101111110111101010110110111010101111101100101011111110 "
b1011111011101111110111101010110110111010101111101100101011111110 S
1=
0<
b1101111010101101101111101110111111001010111111101011101010111110 \
b1101111010101101101111101110111111001010111111101011101010111110 ]
b101001101110100011011110111001001100101001000000110100001100001011110100110000101110010011001000010000001001101010001010100110100100000001011010010000001100100011000010111010001100001 ^
b11110 ?
b11110 @
1_
1`
b1010011011101000110111101110010011001010010000001101000011000010111101001100001011100100110010000100000010011010100010101001101001000000010110100100000011001010110111001100001011000100110110001100101 a
#23000
b1101111010101101101111101110111111001010111111101011101010111110 "
b1101111010101101101111101110111111001010111111101011101010111110 S
1<
b1011111011101111110111101010110110111010101111101100101011111110 \
b1011111011101111110111101010110110111010101111101100101011111110 ]
b1010011011101000110111101110010011001010010000001101000011000010111101001100001011100100110010000100000010101110100001000100000001011010010000001100100011000010111010001100001 ^
b100000 ?
b100000 @
b10100110111010001101111011100100110010100100000011010000110000101111010011000010111001001100100001000000101011101000010001000000010110100100000011001010110111001100001011000100110110001100101 a
#24000
b1000100010001001000100010001000110011001100110100010001000100 "
b1000100010001001000100010001000110011001100110100010001000100 S
b1000100010001001000100010001000110011001100110100010001000100 Y
b11 -
b11 E
0=
b100001 ?
b100001 @
b1101111010101101101111101110111111001010111111101011101010111110 \
b1101111010101101101111101110111111001010111111101011101010111110 ]
b101001101110100011011110111001001100101001000000100110101000101010011010010000001110000011100100110100101101111011100100110100101110100011110010010000001101111011101100110010101110010001000000101011101000010 ^
#25000
b10001000100010001100110011001101000100010001000101010101010101 #
b10001000100010001100110011001101000100010001000101010101010101 O
b10001000100010001100110011001101000100010001000101010101010101 [
b1101111010101101101111101110111111001010111111101011101010111110 Y
0!
b0 "
b0 S
b10001000100010001100110011001101000100010001000101010101010101 9
b10001000100010001100110011001101000100010001000101010101010101 P
b1110111011101110111111111111111100000000000000000001000100010001 2
b1110111011101110111111111111111100000000000000000001000100010001 J
b1010101010101010101110111011101111001100110011001101110111011101 +
b1010101010101010101110111011101111001100110011001101110111011101 C
b110011 -
b110011 E
0<
b100010 ?
b100010 @
b1000100010001001000100010001000110011001100110100010001000100 \
b1000100010001001000100010001000110011001100110100010001000100 ]
b101001101110100011011110111001001100101001000000110100001100001011110100110000101110010011001000010000001110111011010010111010001101000001000000100110001001111010000010100010000100000011011110111000001100011011011110110010001100101 ^
#26000
b1010101010101010101110111011101111001100110011001101110111011101 #
b1010101010101010101110111011101111001100110011001101110111011101 O
b1010101010101010101110111011101111001100110011001101110111011101 [
17
b100011 ?
b100011 @
b10001000100010001100110011001101000100010001000101010101010101 \
b10001000100010001100110011001101000100010001000101010101010101 ]
b10011100110111100100000010000110101001101010010001000000110100001100001011110100110000101110010011001000010000000101101001111100010000001100011011100110111001001011111011100100110010101100001011001000101111101100100011000010111010001100001 ^
#27000
b1110111011101110111111111111111100000000000000000001000100010001 #
b1110111011101110111111111111111100000000000000000001000100010001 O
b1110111011101110111111111111111100000000000000000001000100010001 [
18
07
b100100 ?
b100100 @
b1010101010101010101110111011101111001100110011001101110111011101 \
b1010101010101010101110111011101111001100110011001101110111011101 ]
b100001101010011010100100010000001101000011000010111101001100001011100100110010000100000010011010100010101001101 ^
#28000
b1010101010101010101110111011101111001100110011001101110111011101 #
b1010101010101010101110111011101111001100110011001101110111011101 O
b1010101010101010101110111011101111001100110011001101110111011101 [
17
b100101 ?
b100101 @
b1110111011101110111111111111111100000000000000000001000100010001 \
b1110111011101110111111111111111100000000000000000001000100010001 ]
b1000011010100110101001000100000011010000110000101111010011000010111001001100100001000000101011101000010 ^
#29000
b10 %
b10 U
b1111111111111111111111111111111111111111111111111111111111111111 '
b1111111111111111111111111111111111111111111111111111111111111111 W
b1001100110011001101010101010101010111011101110111100110011001100 #
b1001100110011001101010101010101010111011101110111100110011001100 O
b1001100110011001101010101010101010111011101110111100110011001100 [
b1111111111111111111111111111111111111111111111111111111111111111 Y
b1111111111111111111111111111111111111111111111111111111111111111 )
b1111111111111111111111111111111111111111111111111111111111111111 A
b1 :
b1 Q
b1001100110011001101010101010101010111011101110111100110011001100 9
b1001100110011001101010101010101010111011101110111100110011001100 P
b101010101010101011001100110011001110111011101111000100010001000 2
b101010101010101011001100110011001110111011101111000100010001000 J
b1000100010001001000100010001000110011001100110100010001000100 +
b1000100010001001000100010001000110011001100110100010001000100 C
08
07
b100110 ?
b100110 @
b1010101010101010101110111011101111001100110011001101110111011101 \
b1010101010101010101110111011101111001100110011001101110111011101 ]
b10000110101001101010010001000000100110101000101010011010010000001110000011100100110100101101111011100100110100101110100011110010010000001101111011101100110010101110010001000000101011101000010 ^
#30000
b1101111010101101101111101110111100000000000000000000000000000000 '
b1101111010101101101111101110111100000000000000000000000000000000 W
b1101111010101101101111101110111100000000000000000000000000000000 Y
b1101111010101101101111101110111100000000000000000000000000000000 )
b1101111010101101101111101110111100000000000000000000000000000000 A
b100111 ?
b100111 @
b1111111111111111111111111111111111111111111111111111111111111111 \
b1111111111111111111111111111111111111111111111111111111111111111 ]
b1001101011000010111100000100000001101100011010000101101011000100110100101110100001000000111011001100001011011000111010101100101 ^
#31000
b11001010111111101011101010111110 '
b11001010111111101011101010111110 W
b11001010111111101011101010111110 Y
b11001010111111101011101010111110 )
b11001010111111101011101010111110 A
b101000 ?
b101000 @
b1101111010101101101111101110111100000000000000000000000000000000 \
b1101111010101101101111101110111100000000000000000000000000000000 ]
b10101010111000001110000011001010111001000100000001100110011001000101101011000100110100101110100011100110010000001101111011011100110110001111001 ^
#32000
b11 $
b11 T
b1001100110011001101010101010101010111011101110111100110011001100 &
b1001100110011001101010101010101010111011101110111100110011001100 V
b1010101010101010101110111011101111001100110011000000000000000000 '
b1010101010101010101110111011101111001100110011000000000000000000 W
b1001100110011001101010101010101010111011101110111100110011001100 Z
b1010101010101010101110111011101111001100110011000000000000000000 Y
b11 4
b11 L
b110111 -
b110111 E
b10 ;
b10 R
b1101111010101101101111101110111111001010111111101011101010111110 )
b1101111010101101101111101110111111001010111111101011101010111110 A
b1 :
b1 Q
b101001 ?
b101001 @
b11001010111111101011101010111110 \
b11001010111111101011101010111110 ]
b10011000110111101110111011001010111001000100000001100110011001000101101011000100110100101110100011100110010000001101111011011100110110001111001 ^
#33000
b101011 ?
b101011 @
b1001100110011001101010101010101010111011101110111100110011001100 \
b1001100110011001101010101010101010111011101110111100110011001100 ]
b11100100111001100110010001000000110011001110010011011110110110100100000010101110100001000100000001010000100110001001111010000010100010000101001 ^
