testbenches/results/waveforms/Instruction_Memory_tb_result.vcd
$date
	Sun Dec 28 23:54:39 2025
$end
$version
	Icarus Verilog
$end
$timescale
	1ps
$end
$scope module InstructionMemory_tb $end
$scope module dut $end
$var wire 64 ! pc [63:0] $end
$var wire 64 " rom_address [63:0] $end
$var wire 1 # rom_access $end
$var parameter 32 $ XLEN $end
$var reg 32 % instruction [31:0] $end
$var reg 64 & rom_read_data [63:0] $end
$upscope $end
$upscope $end
$enddefinitions $end
$comment Show the parameter values. $end
$dumpall
b1000000 $
$end
#0
$dumpvars
b101011110000000000000010010011 &
b101011110000000000000010010011 %
1#
b0 "
b0 !
$end
#10000
b1100000001001000100010011 %
b100 !
#20000
b10010000110010011 %
b1000 !
#30000
b10011001000010011 %
b1100 !
#40000
b110100001000000010001101110011 %
b1000000000000 !
#50000
b101100000000001110010011 %
b1000000000100 !
#60000
b10000000000010010010011 %
b1000000001100 !
#80000
b1100000001001000100010011 &
b100 "
#90000
b1011110000010110010000010011 &
b11100 "
#100000
b101000001001001110100011 &
b1010000 "
#110000
b110100001000000010001101110011 &
b1000000000000 "
#120000
b101100000000001110010011 &
b1000000000100 "
#130000
b101000110000110001100011 &
b1000000011100 "
#140000
bx &
b1111111111111100 "
#150000
b1000000000000000 "
#160000
b0 &
0#
b10000000000000000000000000000 "
#170000
b100000000000000000000000000000 "
#180000
b11111111111111111111111111111111 "
#190000
b100100001000010100110011 &
1#
b100100001000010100110011 %
b100100 "
b100100 !
#210000
b101100001010001000100011 &
b1001100 "
#220000
b1110010110111 &
b1111000 "
#230000
b101011110000000000000010010011 &
b1110100 "
#240000
b10000001101101110000011 &
b1101100 "
#250000
b101011110000000000000010010011 &
b0 "
#260000
b1100000001001000100010011 &
b100 "
#270000
b10010000110010011 &
b1000 "
#280000
b10011001000010011 &
b1100 "
#290000
bx &
b1111111111111000 "
#300000
b0 &
0#
b10000000000000000 "
#310000
b101011110000000000000010010011 &
1#
b0 "
