testbenches/results/waveforms/Multiplier_WORD_tb_result.vcd
$date
	Sat Jun 28 13:22:40 2025
$end
$version
	Icarus Verilog
$end
$timescale
	1ps
$end
$scope module Multiplier_WORD_tb $end
$scope module dut $end
$var wire 1 ! signed_A $end
$var wire 1 " signed_B $end
$var wire 32 # src_A [31:0] $end
$var wire 32 $ src_B [31:0] $end
$var wire 64 % prod_unsigned [63:0] $end
$var wire 32 & prod_low [31:0] $end
$var wire 32 ' prod_high [31:0] $end
$var wire 64 ( prod [63:0] $end
$var wire 32 ) abs_src_B [31:0] $end
$var wire 32 * abs_src_A [31:0] $end
$upscope $end
$upscope $end
$enddefinitions $end
$comment Show the parameter values. $end
$dumpall
$end
#0
$dumpvars
b111 *
b111 )
b110001 (
b0 '
b110001 &
b110001 %
b111 $
b111 #
0"
0!
$end
#10000
b10011 '
b11111111111111111111110001111100 &
b1001111111111111111111111110001111100 (
b10100 )
b1001111111111111111111111110001111100 %
b11111111111111111111111111010011 *
b10100 $
b11111111111111111111111111010011 #
#20000
b100100 '
b11111111111111101101111100010101 &
b10010011111111111111101101111100010101 (
b11111111111111111111100000110001 )
b10010011111111111111101101111100010101 %
b100101 *
b11111111111111111111100000110001 $
b100101 #
#30000
b11111110000001011111111110101101 '
b11011111010100101110001111101011 &
b1111111000000101111111111010110111011111010100101110001111101011 (
b11111111111100001011110111000001 )
b1111111000000101111111111010110111011111010100101110001111101011 %
b11111110000101010010010010101011 *
b11111111111100001011110111000001 $
b11111110000101010010010010101011 #
#40000
b10110000100100101010101101111011 '
b10001000110011110101101101100010 &
b1011000010010010101010110111101110001000110011110101101101100010 (
b11001010111111101011101010111110 )
b1011000010010010101010110111101110001000110011110101101101100010 %
b11011110101011011011111011101111 *
b11001010111111101011101010111110 $
b11011110101011011011111011101111 #
#50000
b0 '
b1011110101010000000 &
b1011110101010000000 (
b110100 )
b1011110101010000000 %
b1110100100000 *
b110100 $
b1110100100000 #
1!
#60000
b11111111111111111111111111111111 '
b11111111111111111111111101101010 &
b1111111111111111111111111111111111111111111111111111111101101010 (
b110010 *
b10010110 %
b11 )
b11 $
b11111111111111111111111111001110 #
#70000
b11101111011 '
b1010000110110000011101000111100 &
b1110111101101010000110110000011101000111100 (
b11110110100 *
b1110111101101010000110110000011101000111100 %
b11111000101001000011001011101011 )
b11111000101001000011001011101011 $
b11110110100 #
#80000
b11111111111111111111110010100000 '
b11000111111001101110010011110111 &
b1111111111111111111111001010000011000111111001101110010011110111 (
b10001100001 *
b110101111100111000000110010001101100001001 %
b11000101001000011001011110101001 )
b11000101001000011001011110101001 $
b11111111111111111111101110011111 #
#90000
b0 '
b101011110110010111111111000000 &
b1011101000111 *
b101011110110010111111111000000 (
b101011110110010111111111000000 %
b11110001001000000 )
b11110001001000000 $
b1011101000111 #
1"
#100000
b11111111111111111111111111001100 '
b1000001111100101000010111000 &
b1111111111111111111111111100110000001000001111100101000010111000 (
b101111101011110000011111111 )
b11001111110111110000011010111101001000 %
b100010111000 *
b101111101011110000011111111 $
b11111111111111111111011101001000 #
#110000
b11111111111111111111111111111111 '
b11111111000110100100000011011100 &
b1111111111111111111111111111111111111111000110100100000011011100 (
b11100011010 )
b111001011011111100100100 %
b10000001011010 *
b11111111111111111111100011100110 $
b10000001011010 #
#120000
b0 '
b1000011011101100110100 &
b1000011011101100110100 (
b10001100001 )
b1000011011101100110100 %
b11110110100 *
b11111111111111111111101110011111 $
b11111111111111111111100001001100 #
