testbenches/results/waveforms/Multiplier_DWORD_tb_result.vcd
$date
	Sun Jun 29 13:59:24 2025
$end
$version
	Icarus Verilog
$end
$timescale
	1ps
$end
$scope module Multiplier_DWORD_tb $end
$scope module dut $end
$var wire 1 ! signed_A $end
$var wire 1 " signed_B $end
$var wire 64 # src_A [63:0] $end
$var wire 64 $ src_B [63:0] $end
$var wire 128 % unsigned_sum [127:0] $end
$var wire 128 & sum [127:0] $end
$var wire 64 ' prod_low [63:0] $end
$var wire 64 ( prod_high [63:0] $end
$var wire 32 ) prod_ALBL_low [31:0] $end
$var wire 32 * prod_ALBL_high [31:0] $end
$var wire 64 + prod_ALBL [63:0] $end
$var wire 32 , prod_ALBH_low [31:0] $end
$var wire 32 - prod_ALBH_high [31:0] $end
$var wire 64 . prod_ALBH [63:0] $end
$var wire 32 / prod_AHBL_low [31:0] $end
$var wire 32 0 prod_AHBL_high [31:0] $end
$var wire 64 1 prod_AHBL [63:0] $end
$var wire 32 2 prod_AHBH_low [31:0] $end
$var wire 32 3 prod_AHBH_high [31:0] $end
$var wire 64 4 prod_AHBH [63:0] $end
$var wire 64 5 abs_src_B [63:0] $end
$var wire 64 6 abs_src_A [63:0] $end
$scope module ahbh $end
$var wire 32 7 abs_src_A [31:0] $end
$var wire 32 8 abs_src_B [31:0] $end
$var wire 1 9 signed_A $end
$var wire 1 : signed_B $end
$var wire 32 ; src_A [31:0] $end
$var wire 32 < src_B [31:0] $end
$var wire 64 = prod_unsigned [63:0] $end
$var wire 32 > prod_low [31:0] $end
$var wire 32 ? prod_high [31:0] $end
$var wire 64 @ prod [63:0] $end
$upscope $end
$scope module ahbl $end
$var wire 32 A abs_src_A [31:0] $end
$var wire 32 B abs_src_B [31:0] $end
$var wire 1 C signed_A $end
$var wire 1 D signed_B $end
$var wire 32 E src_A [31:0] $end
$var wire 32 F src_B [31:0] $end
$var wire 64 G prod_unsigned [63:0] $end
$var wire 32 H prod_low [31:0] $end
$var wire 32 I prod_high [31:0] $end
$var wire 64 J prod [63:0] $end
$upscope $end
$scope module albh $end
$var wire 32 K abs_src_A [31:0] $end
$var wire 32 L abs_src_B [31:0] $end
$var wire 1 M signed_A $end
$var wire 1 N signed_B $end
$var wire 32 O src_A [31:0] $end
$var wire 32 P src_B [31:0] $end
$var wire 64 Q prod_unsigned [63:0] $end
$var wire 32 R prod_low [31:0] $end
$var wire 32 S prod_high [31:0] $end
$var wire 64 T prod [63:0] $end
$upscope $end
$scope module albl $end
$var wire 32 U abs_src_A [31:0] $end
$var wire 32 V abs_src_B [31:0] $end
$var wire 1 W signed_A $end
$var wire 1 X signed_B $end
$var wire 32 Y src_A [31:0] $end
$var wire 32 Z src_B [31:0] $end
$var wire 64 [ prod_unsigned [63:0] $end
$var wire 32 \ prod_low [31:0] $end
$var wire 32 ] prod_high [31:0] $end
$var wire 64 ^ prod [63:0] $end
$upscope $end
$upscope $end
$upscope $end
$enddefinitions $end
$comment Show the parameter values. $end
$dumpall
$end
#0
$dumpvars
b110001 ^
b0 ]
b110001 \
b110001 [
b111 Z
b111 Y
0X
0W
b111 V
b111 U
b0 T
b0 S
b0 R
b0 Q
b0 P
b111 O
0N
0M
b0 L
b111 K
b0 J
b0 I
b0 H
b0 G
b111 F
b0 E
0D
0C
b111 B
b0 A
b0 @
b0 ?
b0 >
b0 =
b0 <
b0 ;
0:
09
b0 8
b0 7
b111 6
b111 5
b0 4
b0 3
b0 2
b0 1
b0 0
b0 /
b0 .
b0 -
b0 ,
b110001 +
b0 *
b110001 )
b0 (
b110001 '
b110001 &
b110001 %
b111 $
b111 #
0"
0!
$end
#10000
b10011 (
b1111111111111111111111111111111111111111111111111111110001111100 '
b100111111111111111111111111111111111111111111111111111111110001111100 &
b10011 0
b10011 I
b1001111111111111111111111111111101100 1
b11111111111111111111111111101100 /
b11111111111111111111111111101100 H
b10011 *
b10011 ]
b100111111111111111111111111111111111111111111111111111111110001111100 %
b1001111111111111111111111110001111100 +
b11111111111111111111110001111100 )
b11111111111111111111110001111100 \
b1001111111111111111111111111111101100 J
b1001111111111111111111111110001111100 ^
b10100 B
b10100 F
b10100 V
b10100 Z
b11111111111111111111111111111111 7
b11111111111111111111111111111111 ;
b1001111111111111111111111111111101100 G
b11111111111111111111111111111111 A
b11111111111111111111111111111111 E
b11111111111111111111111111010011 K
b11111111111111111111111111010011 O
b1001111111111111111111111110001111100 [
b11111111111111111111111111010011 U
b11111111111111111111111111010011 Y
b10100 5
b1111111111111111111111111111111111111111111111111111111111010011 6
b10100 $
b1111111111111111111111111111111111111111111111111111111111010011 #
#20000
b100100 (
b1111111111111111111111111111111111111111111111101101111100010101 '
b1001001111111111111111111111111111111111111111111111101101111100010101 &
b100100 -
b100100 S
b10010011111111111111111111111111011011 .
b11111111111111111111111111011011 ,
b11111111111111111111111111011011 R
b0 0
b0 I
b0 1
b0 /
b0 H
b100100 *
b100100 ]
b1001001111111111111111111111111111111111111111111111101101111100010101 %
b10010011111111111111101101111100010101 +
b11111111111111101101111100010101 )
b11111111111111101101111100010101 \
b10010011111111111111111111111111011011 T
b0 J
b10010011111111111111101101111100010101 ^
b11111111111111111111111111111111 8
b11111111111111111111111111111111 <
b11111111111111111111100000110001 B
b11111111111111111111100000110001 F
b10010011111111111111111111111111011011 Q
b11111111111111111111111111111111 L
b11111111111111111111111111111111 P
b11111111111111111111100000110001 V
b11111111111111111111100000110001 Z
b0 7
b0 ;
b0 G
b0 A
b0 E
b100101 K
b100101 O
b10010011111111111111101101111100010101 [
b100101 U
b100101 Y
b1111111111111111111111111111111111111111111111111111100000110001 5
b100101 6
b1111111111111111111111111111111111111111111111111111100000110001 $
b100101 #
#30000
b1111111111111111111111111111111111111110000001011110001001101100 (
b111010100000111011111010100101110001111101011 '
b11111111111111111111111111111111111111100000010111100010011011000000000000000000000111010100000111011111010100101110001111101011 &
b11111111111111111111111111111110 3
b11111111111111111111111111111110 ?
b1111111111111111111111111111111000000000000000000000000000000001 4
b1 2
b1 >
b11111111111100001011110111000000 0
b11111111111100001011110111000000 I
b1111111111110000101111011100000000000000000011110100001000111111 1
b11110100001000111111 /
b11110100001000111111 H
b11111110000101010010010010101010 -
b11111110000101010010010010101010 S
b1111111000010101001001001010101000000001111010101101101101010101 .
b1111010101101101101010101 ,
b1111010101101101101010101 R
b11111110000001011111111110101101 *
b11111110000001011111111110101101 ]
b11111111111111111111111111111111111111100000010111100010011011000000000000000000000111010100000111011111010100101110001111101011 %
b1111111000000101111111111010110111011111010100101110001111101011 +
b11011111010100101110001111101011 )
b11011111010100101110001111101011 \
b1111111111111111111111111111111000000000000000000000000000000001 @
b1111111111110000101111011100000000000000000011110100001000111111 J
b1111111000010101001001001010101000000001111010101101101101010101 T
b1111111000000101111111111010110111011111010100101110001111101011 ^
b11111111111100001011110111000001 B
b11111111111100001011110111000001 F
b11111111111100001011110111000001 V
b11111111111100001011110111000001 Z
b1111111111111111111111111111111000000000000000000000000000000001 =
b11111111111111111111111111111111 7
b11111111111111111111111111111111 ;
b1111111111110000101111011100000000000000000011110100001000111111 G
b11111111111111111111111111111111 A
b11111111111111111111111111111111 E
b1111111000010101001001001010101000000001111010101101101101010101 Q
b11111110000101010010010010101011 K
b11111110000101010010010010101011 O
b1111111000000101111111111010110111011111010100101110001111101011 [
b11111110000101010010010010101011 U
b11111110000101010010010010101011 Y
b1111111111111111111111111111111111111111111100001011110111000001 5
b1111111111111111111111111111111111111110000101010010010010101011 6
b1111111111111111111111111111111111111111111100001011110111000001 $
b1111111111111111111111111111111111111110000101010010010010101011 #
#40000
b1011000010010010101010110111110011101001111101001011001001011001 (
b1100001000110001011000100011111110001000110011110101101101100010 '
b10110000100100101010101101111100111010011111010010110010010110011100001000110001011000100011111110001000110011110101101101100010 &
b10110000100100101010101101111011 3
b10110000100100101010101101111011 ?
b1011000010010010101010110111101110001000110011110101101101100010 4
b10001000110011110101101101100010 2
b10001000110011110101101101100010 >
b10110000100100101010101101111011 0
b10110000100100101010101101111011 I
b1011000010010010101010110111101110001000110011110101101101100010 1
b10001000110011110101101101100010 /
b10001000110011110101101101100010 H
b10110000100100101010101101111011 -
b10110000100100101010101101111011 S
b1011000010010010101010110111101110001000110011110101101101100010 .
b10001000110011110101101101100010 ,
b10001000110011110101101101100010 R
b10110000100100101010101101111011 *
b10110000100100101010101101111011 ]
b10110000100100101010101101111100111010011111010010110010010110011100001000110001011000100011111110001000110011110101101101100010 %
b1011000010010010101010110111101110001000110011110101101101100010 +
b10001000110011110101101101100010 )
b10001000110011110101101101100010 \
b1011000010010010101010110111101110001000110011110101101101100010 @
b1011000010010010101010110111101110001000110011110101101101100010 J
b1011000010010010101010110111101110001000110011110101101101100010 T
b1011000010010010101010110111101110001000110011110101101101100010 ^
b11001010111111101011101010111110 8
b11001010111111101011101010111110 <
b11001010111111101011101010111110 B
b11001010111111101011101010111110 F
b11001010111111101011101010111110 L
b11001010111111101011101010111110 P
b11001010111111101011101010111110 V
b11001010111111101011101010111110 Z
b1011000010010010101010110111101110001000110011110101101101100010 =
b11011110101011011011111011101111 7
b11011110101011011011111011101111 ;
b1011000010010010101010110111101110001000110011110101101101100010 G
b11011110101011011011111011101111 A
b11011110101011011011111011101111 E
b1011000010010010101010110111101110001000110011110101101101100010 Q
b11011110101011011011111011101111 K
b11011110101011011011111011101111 O
b1011000010010010101010110111101110001000110011110101101101100010 [
b11011110101011011011111011101111 U
b11011110101011011011111011101111 Y
b1100101011111110101110101011111011001010111111101011101010111110 5
b1101111010101101101111101110111111011110101011011011111011101111 6
b1100101011111110101110101011111011001010111111101011101010111110 $
b1101111010101101101111101110111111011110101011011011111011101111 #
#50000
b0 (
b1011110101010000000 '
b0 3
b0 ?
b0 4
b0 2
b0 >
b0 0
b0 I
b0 1
b0 /
b0 H
b0 -
b0 S
b0 .
b0 ,
b0 R
b0 *
b0 ]
b1011110101010000000 %
b1011110101010000000 +
b1011110101010000000 )
b1011110101010000000 \
b1011110101010000000 &
b0 @
b0 J
b0 T
b1011110101010000000 ^
b0 8
b0 <
b110100 B
b110100 F
b0 L
b0 P
b110100 V
b110100 Z
b0 =
b0 7
b0 ;
b0 G
b0 A
b0 E
b0 Q
b1110100100000 K
b1110100100000 O
b1011110101010000000 [
b1110100100000 U
b1110100100000 Y
b110100 5
b1110100100000 6
b110100 $
b1110100100000 #
1!
#60000
b0 0
b0 I
b0 1
b0 /
b0 H
b1111111111111111111111111111111111111111111111111111111111111111 (
b1111111111111111111111111111111111111111111111111111111101101010 '
b0 *
b0 ]
b10010110 %
b10010110 +
b10010110 )
b10010110 \
b0 J
b11111111111111111111111111111111111111111111111111111111111111111111111111111111111111111111111111111111111111111111111101101010 &
b10010110 ^
b0 7
b0 ;
b0 G
b0 A
b0 E
b110010 K
b110010 O
b110010 U
b110010 Y
b11 B
b11 F
b10010110 [
b11 V
b11 Z
b110010 6
b11 5
b11 $
b1111111111111111111111111111111111111111111111111111111111001110 #
#70000
b1110010110010011111100001011111000011110111101011111011110011011 (
b1100001000110001011000100011111110001000110011110101101101100010 '
b11100101100100111111000010111110000111101111010111110111100110111100001000110001011000100011111110001000110011110101101101100010 &
b11010011011000000111101000001 3
b11010011011000000111101000001 ?
b1101001101100000011110100000110101100001100011110100111100000 4
b10101100001100011110100111100000 2
b10101100001100011110100111100000 >
b11010011011000000111101000001 0
b11010011011000000111101000001 I
b1101001101100000011110100000110101100001100011110100111100000 1
b10101100001100011110100111100000 /
b10101100001100011110100111100000 H
b11010011011000000111101000010 -
b11010011011000000111101000010 S
b1101001101100000011110100001001110111001100001010010010011110 .
b1110111001100001010010010011110 ,
b1110111001100001010010010011110 R
b11010011011000000111101000010 *
b11010011011000000111101000010 ]
b11010011011000000111101000001111000010000101000001000011001000011110111001110100111011100000001110111001100001010010010011110 %
b1101001101100000011110100001001110111001100001010010010011110 +
b1110111001100001010010010011110 )
b1110111001100001010010010011110 \
b1101001101100000011110100000110101100001100011110100111100000 @
b1101001101100000011110100000110101100001100011110100111100000 J
b1101001101100000011110100001001110111001100001010010010011110 T
b1101001101100000011110100001001110111001100001010010010011110 ^
b1101001101100000011110100000110101100001100011110100111100000 =
b100001010100100100000100010000 7
b100001010100100100000100010000 ;
b1101001101100000011110100000110101100001100011110100111100000 G
b100001010100100100000100010000 A
b100001010100100100000100010000 E
b100001010100100100000100010001 K
b100001010100100100000100010001 O
b100001010100100100000100010001 U
b100001010100100100000100010001 Y
b11001010111111101011101010111110 8
b11001010111111101011101010111110 <
b11001010111111101011101010111110 B
b11001010111111101011101010111110 F
b1101001101100000011110100001001110111001100001010010010011110 Q
b11001010111111101011101010111110 L
b11001010111111101011101010111110 P
b1101001101100000011110100001001110111001100001010010010011110 [
b11001010111111101011101010111110 V
b11001010111111101011101010111110 Z
b10000101010010010000010001000000100001010100100100000100010001 6
b1100101011111110101110101011111011001010111111101011101010111110 5
b1100101011111110101110101011111011001010111111101011101010111110 $
b1101111010101101101111101110111111011110101011011011111011101111 #
#80000
b11110110011 (
b1111111111111111111111111100011101010000110110000011101000111100 '
b0 3
b0 ?
b0 4
b0 2
b0 >
b0 0
b0 I
b0 1
b0 /
b0 H
b11110110011 -
b11110110011 S
b1111011001111111111111111111111100001001100 .
b11111111111111111111100001001100 ,
b11111111111111111111100001001100 R
b11101111011 *
b11101111011 ]
b111101100111111111111111111111111111100011101010000110110000011101000111100 %
b1110111101101010000110110000011101000111100 +
b1010000110110000011101000111100 )
b1010000110110000011101000111100 \
b111101100111111111111111111111111111100011101010000110110000011101000111100 &
b0 @
b0 J
b1111011001111111111111111111111100001001100 T
b1110111101101010000110110000011101000111100 ^
b0 7
b0 ;
b0 A
b0 E
b11110110100 K
b11110110100 O
b11110110100 U
b11110110100 Y
b0 =
b11111111111111111111111111111111 8
b11111111111111111111111111111111 <
b0 G
b11111000101001000011001011101011 B
b11111000101001000011001011101011 F
b1111011001111111111111111111111100001001100 Q
b11111111111111111111111111111111 L
b11111111111111111111111111111111 P
b1110111101101010000110110000011101000111100 [
b11111000101001000011001011101011 V
b11111000101001000011001011101011 Z
b11110110100 6
b1111111111111111111111111111111111111000101001000011001011101011 5
b1111111111111111111111111111111111111000101001000011001011101011 $
b11110110100 #
#90000
b0 3
b0 ?
b0 4
b0 2
b0 >
b0 0
b0 I
b0 1
b0 /
b0 H
b10001100000 -
b10001100000 S
b1000110000011111111111111111111101110011111 .
b11111111111111111111101110011111 ,
b11111111111111111111101110011111 R
b1111111111111111111111111111111111111111111111111111101110011111 (
b10000000111000111111001101110010011110111 '
b1101011111 *
b1101011111 ]
b100011000001111111111111111111111101111111000111000000110010001101100001001 %
b110101111100111000000110010001101100001001 +
b111000000110010001101100001001 )
b111000000110010001101100001001 \
b0 @
b0 J
b1000110000011111111111111111111101110011111 T
b11111111111111111111111111111111111111111111111111111011100111110000000000000000000000010000000111000111111001101110010011110111 &
b110101111100111000000110010001101100001001 ^
b0 =
b0 7
b0 ;
b0 G
b0 A
b0 E
b1000110000011111111111111111111101110011111 Q
b10001100001 K
b10001100001 O
b10001100001 U
b10001100001 Y
b11000101001000011001011110101001 B
b11000101001000011001011110101001 F
b110101111100111000000110010001101100001001 [
b11000101001000011001011110101001 V
b11000101001000011001011110101001 Z
b10001100001 6
b1111111111111111111111111111111111000101001000011001011110101001 5
b1111111111111111111111111111111111000101001000011001011110101001 $
b1111111111111111111111111111111111111111111111111111101110011111 #
#100000
b0 0
b0 I
b0 1
b0 /
b0 H
b0 J
b0 (
b101011110110010111111111000000 '
b0 -
b0 S
b0 .
b0 ,
b0 R
b0 *
b0 ]
b101011110110010111111111000000 %
b101011110110010111111111000000 +
b101011110110010111111111000000 )
b101011110110010111111111000000 \
b0 =
b0 7
b0 ;
b0 G
b0 A
b0 E
b1011101000111 K
b1011101000111 O
b1011101000111 U
b1011101000111 Y
b101011110110010111111111000000 &
b0 T
b101011110110010111111111000000 ^
b1011101000111 6
b0 8
b0 <
b11110001001000000 B
b11110001001000000 F
b0 Q
b0 L
b0 P
b101011110110010111111111000000 [
b11110001001000000 V
b11110001001000000 Z
b11110001001000000 5
b11110001001000000 $
b1011101000111 #
1"
#110000
b0 0
b0 I
b0 1
b0 /
b0 H
b110011 *
b110011 ]
b11001111110111110000011010111101001000 %
b11001111110111110000011010111101001000 +
b11110111110000011010111101001000 )
b11110111110000011010111101001000 \
b1111111111111111111111111111111111111111111111111111111111111111 (
b1111111111111111111111111100110000001000001111100101000010111000 '
b0 J
b11001111110111110000011010111101001000 ^
b11111111111111111111111111111111111111111111111111111111111111111111111111111111111111111100110000001000001111100101000010111000 &
b101111101011110000011111111 B
b101111101011110000011111111 F
b101111101011110000011111111 V
b101111101011110000011111111 Z
b0 7
b0 ;
b0 G
b0 A
b0 E
b100010111000 K
b100010111000 O
b11001111110111110000011010111101001000 [
b100010111000 U
b100010111000 Y
b101111101011110000011111111 5
b100010111000 6
b101111101011110000011111111 $
b1111111111111111111111111111111111111111111111111111011101001000 #
#120000
b1111111111111111111111111111111111111111111111111111111111111111 (
b1111111111111111111111111111111111111111000110100100000011011100 '
b11111111111111111111111111111111111111111111111111111111111111111111111111111111111111111111111111111111000110100100000011011100 &
b0 -
b0 S
b0 .
b0 ,
b0 R
b0 0
b0 I
b0 1
b0 /
b0 H
b0 *
b0 ]
b111001011011111100100100 %
b111001011011111100100100 +
b111001011011111100100100 )
b111001011011111100100100 \
b0 T
b0 J
b111001011011111100100100 ^
b0 =
b0 8
b0 <
b11100011010 B
b11100011010 F
b0 Q
b0 L
b0 P
b11100011010 V
b11100011010 Z
b0 7
b0 ;
b0 G
b0 A
b0 E
b10000001011010 K
b10000001011010 O
b111001011011111100100100 [
b10000001011010 U
b10000001011010 Y
b11100011010 5
b10000001011010 6
b1111111111111111111111111111111111111111111111111111100011100110 $
b10000001011010 #
#130000
b0 0
b0 I
b0 1
b0 /
b0 H
b0 *
b0 ]
b1000011011101100110100 %
b1000011011101100110100 +
b1000011011101100110100 )
b1000011011101100110100 \
b0 (
b1000011011101100110100 '
b0 J
b1000011011101100110100 ^
b1000011011101100110100 &
b10001100001 B
b10001100001 F
b10001100001 V
b10001100001 Z
b0 7
b0 ;
b0 G
b0 A
b0 E
b11110110100 K
b11110110100 O
b1000011011101100110100 [
b11110110100 U
b11110110100 Y
b10001100001 5
b11110110100 6
b1111111111111111111111111111111111111111111111111111101110011111 $
b1111111111111111111111111111111111111111111111111111100001001100 #
