testbenches/results/waveforms/Multiplier_tb_result.vcd
$date
	Fri Jun 27 14:59:51 2025
$end
$version
	Icarus Verilog
$end
$timescale
	1ps
$end
$scope module Multiplier_tb $end
$scope module dut $end
$var wire 1 ! signed_A $end
$var wire 1 " signed_B $end
$var wire 64 # src_A [63:0] $end
$var wire 64 $ src_B [63:0] $end
$var wire 128 % unsigned_sum [127:0] $end
$var wire 128 & sum [127:0] $end
$var wire 64 ' prod_low [63:0] $end
$var wire 64 ( prod_high [63:0] $end
$var wire 64 ) prod_ALBL [63:0] $end
$var wire 64 * prod_ALBH [63:0] $end
$var wire 64 + prod_AHBL [63:0] $end
$var wire 64 , prod_AHBH [63:0] $end
$var wire 64 - abs_src_B [63:0] $end
$var wire 64 . abs_src_A [63:0] $end
$scope module ahbh $end
$var wire 1 / signed_A $end
$var wire 1 0 signed_B $end
$var wire 32 1 src_A [31:0] $end
$var wire 32 2 src_B [31:0] $end
$var wire 64 3 prod_unsigned [63:0] $end
$var wire 32 4 prod_low [31:0] $end
$var wire 32 5 prod_high [31:0] $end
$var wire 64 6 prod [63:0] $end
$var wire 32 7 abs_src_B [31:0] $end
$var wire 32 8 abs_src_A [31:0] $end
$upscope $end
$scope module ahbl $end
$var wire 1 9 signed_A $end
$var wire 1 : signed_B $end
$var wire 32 ; src_A [31:0] $end
$var wire 32 < src_B [31:0] $end
$var wire 64 = prod_unsigned [63:0] $end
$var wire 32 > prod_low [31:0] $end
$var wire 32 ? prod_high [31:0] $end
$var wire 64 @ prod [63:0] $end
$var wire 32 A abs_src_B [31:0] $end
$var wire 32 B abs_src_A [31:0] $end
$upscope $end
$scope module albh $end
$var wire 1 C signed_A $end
$var wire 1 D signed_B $end
$var wire 32 E src_A [31:0] $end
$var wire 32 F src_B [31:0] $end
$var wire 64 G prod_unsigned [63:0] $end
$var wire 32 H prod_low [31:0] $end
$var wire 32 I prod_high [31:0] $end
$var wire 64 J prod [63:0] $end
$var wire 32 K abs_src_B [31:0] $end
$var wire 32 L abs_src_A [31:0] $end
$upscope $end
$scope module albl $end
$var wire 1 M signed_A $end
$var wire 1 N signed_B $end
$var wire 32 O src_A [31:0] $end
$var wire 32 P src_B [31:0] $end
$var wire 64 Q prod_unsigned [63:0] $end
$var wire 32 R prod_low [31:0] $end
$var wire 32 S prod_high [31:0] $end
$var wire 64 T prod [63:0] $end
$var wire 32 U abs_src_B [31:0] $end
$var wire 32 V abs_src_A [31:0] $end
$upscope $end
$upscope $end
$upscope $end
$enddefinitions $end
$comment Show the parameter values. $end
$dumpall
$end
#0
$dumpvars
b111 V
b111 U
b110001 T
b0 S
b110001 R
b110001 Q
b111 P
b111 O
zN
zM
b111 L
b0 K
b0 J
b0 I
b0 H
b0 G
b0 F
b111 E
zD
zC
b0 B
b111 A
b0 @
b0 ?
b0 >
b0 =
b111 <
b0 ;
z:
z9
b0 8
b0 7
b0 6
b0 5
b0 4
b0 3
b0 2
b0 1
z0
z/
b111 .
b111 -
b0 ,
b0 +
b0 *
b110001 )
b0 (
b110001 '
b110001 &
b110001 %
b111 $
b111 #
0"
0!
$end
#10000
bx (
bx '
bx &
bx ?
bx100 +
bx100 >
bx S
bx %
bx100 )
bx100 R
b10100 A
b10100 U
bx1 8
bx1 B
bx100 @
bx1 L
bx1 V
bx100 T
b10100 <
b10100 P
b11111111111111111111111111111111 1
b1001111111111111111111111111111101100 =
b11111111111111111111111111111111 ;
b11111111111111111111111111010011 E
b1001111111111111111111111110001111100 Q
b11111111111111111111111111010011 O
b10100 -
b1111111111111111111111111111111111111111111111111111111111010011 .
b10100 $
b1111111111111111111111111111111111111111111111111111111111010011 #
#20000
bx I
bx1 *
bx1 H
b0 ?
b0 +
b0 >
bx1 )
bx1 R
bx1 7
bx1 A
bx1 K
bx1 J
bx1 U
b0 8
b0 B
b0 @
b100101 L
b100101 V
bx1 T
b11111111111111111111111111111111 2
b11111111111111111111100000110001 <
b10010011111111111111111111111111011011 G
b11111111111111111111111111111111 F
b11111111111111111111100000110001 P
b0 1
b0 =
b0 ;
b100101 E
b10010011111111111111101101111100010101 Q
b100101 O
b1111111111111111111111111111111111111111111111111111100000110001 -
b100101 .
b1111111111111111111111111111111111111111111111111111100000110001 $
b100101 #
#30000
bx 5
bx1 ,
bx1 4
bx ?
bx1 +
bx1 >
bx1 A
bx1 U
bx1 8
bx1 6
bx1 B
bx1 @
bx1 L
bx1 V
b11111111111100001011110111000001 <
b11111111111100001011110111000001 P
b1111111111111111111111111111111000000000000000000000000000000001 3
b11111111111111111111111111111111 1
b1111111111110000101111011100000000000000000011110100001000111111 =
b11111111111111111111111111111111 ;
b1111111000010101001001001010101000000001111010101101101101010101 G
b11111110000101010010010010101011 E
b1111111000000101111111111010110111011111010100101110001111101011 Q
b11111110000101010010010010101011 O
b1111111111111111111111111111111111111111111100001011110111000001 -
b1111111111111111111111111111111111111110000101010010010010101011 .
b1111111111111111111111111111111111111111111100001011110111000001 $
b1111111111111111111111111111111111111110000101010010010010101011 #
#40000
bx10 ,
bx10 4
bx10 +
bx10 >
bx10 *
bx10 H
bx10 )
bx10 R
bx10 7
bx10 A
bx10 K
bx10 U
bx1 8
bx10 6
bx1 B
bx10 @
bx1 L
bx10 J
bx1 V
bx10 T
b11001010111111101011101010111110 2
b11001010111111101011101010111110 <
b11001010111111101011101010111110 F
b11001010111111101011101010111110 P
b1011000010010010101010110111101110001000110011110101101101100010 3
b11011110101011011011111011101111 1
b1011000010010010101010110111101110001000110011110101101101100010 =
b11011110101011011011111011101111 ;
b1011000010010010101010110111101110001000110011110101101101100010 G
b11011110101011011011111011101111 E
b1011000010010010101010110111101110001000110011110101101101100010 Q
b11011110101011011011111011101111 O
b1100101011111110101110101011111011001010111111101011101010111110 -
b1101111010101101101111101110111111011110101011011011111011101111 .
b1100101011111110101110101011111011001010111111101011101010111110 $
b1101111010101101101111101110111111011110101011011011111011101111 #
#50000
b0 (
b1011110101010000000 '
b1011110101010000000 &
b1011110101010000000 %
b0 ?
b0 S
b0 5
b0 ,
b0 4
b0 +
b0 >
b0 I
b0 *
b0 H
b1011110101010000000 )
b1011110101010000000 R
b0 7
b110100 A
b0 K
b110100 U
b0 8
b0 6
b0 B
b0 @
b1110100100000 L
b0 J
b1110100100000 V
b1011110101010000000 T
b0 2
b110100 <
b0 F
b110100 P
b0 3
b0 1
b0 =
b0 ;
b0 G
b1110100100000 E
b1011110101010000000 Q
b1110100100000 O
b110100 -
b1110100100000 .
b110100 $
b1110100100000 #
1!
#60000
b0 ?
b0 +
b0 >
b1111111111111111111111111111111111111111111111111111111111111111 (
b1111111111111111111111111111111111111111111111111111111101101010 '
b0 S
b10010110 %
b10010110 )
b10010110 R
b0 8
b0 B
b0 @
b110010 L
b110010 V
b11111111111111111111111111111111111111111111111111111111111111111111111111111111111111111111111111111111111111111111111101101010 &
b11 A
b11 U
b10010110 T
b0 1
b0 =
b0 ;
b110010 E
b110010 O
b11 <
b10010110 Q
b11 P
b110010 .
b11 -
b11 $
b1111111111111111111111111111111111111111111111111111111111001110 #
#70000
b0 5
b0 ,
b0 4
b0 ?
b0 +
b0 >
bx (
bx '
bx I
bx100 *
bx100 H
bx S
bx %
bx100 )
bx100 R
b0 8
b0 6
b0 B
b0 @
b11110110100 L
b11110110100 V
bx &
bx1 7
bx1 A
bx1 K
bx100 J
bx1 U
bx100 T
b0 3
b0 1
b0 =
b0 ;
b11110110100 E
b11110110100 O
b11111111111111111111111111111111 2
b11111000101001000011001011101011 <
b1111011001111111111111111111111100001001100 G
b11111111111111111111111111111111 F
b1110111101101010000110110000011101000111100 Q
b11111000101001000011001011101011 P
b11110110100 .
b1111111111111111111111111111111111111000101001000011001011101011 -
b1111111111111111111111111111111111111000101001000011001011101011 $
b11110110100 #
#80000
b0 5
b0 ,
b0 4
b0 ?
b0 +
b0 >
bx1 *
bx1 H
bx1 )
bx1 R
b0 8
b0 6
b0 B
b0 @
b10001100001 L
bx1 J
b10001100001 V
bx1 A
bx1 U
bx1 T
b0 3
b0 1
b0 =
b0 ;
b1000110000011111111111111111111101110011111 G
b10001100001 E
b10001100001 O
b11000101001000011001011110101001 <
b110101111100111000000110010001101100001001 Q
b11000101001000011001011110101001 P
b10001100001 .
b1111111111111111111111111111111111000101001000011001011110101001 -
b1111111111111111111111111111111111000101001000011001011110101001 $
b1111111111111111111111111111111111111111111111111111101110011111 #
#90000
b0 (
b101011110110010111111111000000 '
b101011110110010111111111000000 &
b101011110110010111111111000000 %
b0 S
b0 ?
b0 +
b0 >
b101011110110010111111111000000 )
b101011110110010111111111000000 R
b0 8
b0 B
b0 @
b1011101000111 L
b1011101000111 V
b101011110110010111111111000000 T
b0 I
b0 *
b0 H
b0 3
b0 1
b0 =
b0 ;
b1011101000111 E
b1011101000111 O
b0 7
b11110001001000000 A
b0 K
b0 J
b11110001001000000 U
b1011101000111 .
b0 2
b11110001001000000 <
b0 G
b0 F
b101011110110010111111111000000 Q
b11110001001000000 P
b11110001001000000 -
b11110001001000000 $
b1011101000111 #
1"
#100000
b0 ?
b0 +
b0 >
b110011 S
b11001111110111110000011010111101001000 %
b11001111110111110000011010111101001000 )
b11110111110000011010111101001000 R
b1111111111111111111111111111111111111111111111111111111111111111 (
b1111111111111111111111111100110000001000001111100101000010111000 '
b101111101011110000011111111 A
b101111101011110000011111111 U
b0 8
b0 B
b0 @
b100010111000 L
b100010111000 V
b11001111110111110000011010111101001000 T
b11111111111111111111111111111111111111111111111111111111111111111111111111111111111111111100110000001000001111100101000010111000 &
b101111101011110000011111111 <
b101111101011110000011111111 P
b0 1
b0 =
b0 ;
b100010111000 E
b11001111110111110000011010111101001000 Q
b100010111000 O
b101111101011110000011111111 -
b100010111000 .
b101111101011110000011111111 $
b1111111111111111111111111111111111111111111111111111011101001000 #
#110000
b1111111111111111111111111111111111111111111111111111111111111111 (
b1111111111111111111111111111111111111111000110100100000011011100 '
b11111111111111111111111111111111111111111111111111111111111111111111111111111111111111111111111111111111000110100100000011011100 &
b0 I
b0 *
b0 H
b0 ?
b0 +
b0 >
b0 S
b111001011011111100100100 %
b111001011011111100100100 )
b111001011011111100100100 R
b0 7
b11100011010 A
b0 K
b0 J
b11100011010 U
b0 8
b0 B
b0 @
b10000001011010 L
b10000001011010 V
b111001011011111100100100 T
b0 3
b0 2
b11100011010 <
b0 G
b0 F
b11100011010 P
b0 1
b0 =
b0 ;
b10000001011010 E
b111001011011111100100100 Q
b10000001011010 O
b11100011010 -
b10000001011010 .
b1111111111111111111111111111111111111111111111111111100011100110 $
b10000001011010 #
#120000
b0 ?
b0 +
b0 >
b0 S
b1000011011101100110100 %
b1000011011101100110100 )
b1000011011101100110100 R
b0 (
b1000011011101100110100 '
b10001100001 A
b10001100001 U
b0 8
b0 B
b0 @
b11110110100 L
b11110110100 V
b1000011011101100110100 T
b1000011011101100110100 &
b10001100001 <
b10001100001 P
b0 1
b0 =
b0 ;
b11110110100 E
b1000011011101100110100 Q
b11110110100 O
b10001100001 -
b11110110100 .
b1111111111111111111111111111111111111111111111111111101110011111 $
b1111111111111111111111111111111111111111111111111111100001001100 #
